[
    {
        "author" : {
            "bot" : true,
            "discriminator" : "4288",
            "display_name" : "Dark Base",
            "id" : 431837317246877698,
            "name" : "Amazing"
        },
        "channel" : {
            "id" : 541693198821490708,
            "name" : "art\u2741"
        },
        "channel_mentions" : [],
        "content" : "",
        "id" : 549048451485401112,
        "mention_everyone" : false,
        "mentions" : [],
        "pinned" : false,
        "role_mentions" : [],
        "timestamp" : "2019-02-24 02:02:31",
        "tts" : false
    },
    {
        "author" : {
            "bot" : false,
            "discriminator" : "7729",
            "display_name" : "!\u2661\u263d\u03bd\u03b9\u0442\u03c3 \u00a2\u03c3\u044f\u2113\u0454\u03c3\u0438\u0454\u263e\u2661!",
            "id" : 393152363688493056,
            "name" : "Kermit"
        },
        "channel" : {
            "id" : 541693198821490708,
            "name" : "art\u2741"
        },
        "channel_mentions" : [],
        "content" : "",
        "id" : 549048447131713552,
        "mention_everyone" : false,
        "mentions" : [],
        "pinned" : false,
        "role_mentions" : [],
        "timestamp" : "2019-02-24 02:02:30",
        "tts" : false
    },
    {
        "author" : {
            "bot" : false,
            "discriminator" : "7729",
            "display_name" : "!\u2661\u263d\u03bd\u03b9\u0442\u03c3 \u00a2\u03c3\u044f\u2113\u0454\u03c3\u0438\u0454\u263e\u2661!",
            "id" : 393152363688493056,
            "name" : "Kermit"
        },
        "channel" : {
            "id" : 541693198821490708,
            "name" : "art\u2741"
        },
        "channel_mentions" : [],
        "content" : "\ud83d\udc95",
        "id" : 549047995484864522,
        "mention_everyone" : false,
        "mentions" : [],
        "pinned" : false,
        "role_mentions" : [],
        "timestamp" : "2019-02-24 02:00:42",
        "tts" : false
    },
    {
        "author" : {
            "bot" : false,
            "discriminator" : "7729",
            "display_name" : "!\u2661\u263d\u03bd\u03b9\u0442\u03c3 \u00a2\u03c3\u044f\u2113\u0454\u03c3\u0438\u0454\u263e\u2661!",
            "id" : 393152363688493056,
            "name" : "Kermit"
        },
        "channel" : {
            "id" : 541693198821490708,
            "name" : "art\u2741"
        },
        "channel_mentions" : [],
        "content" : "thx",
        "id" : 549046405054857237,
        "mention_everyone" : false,
        "mentions" : [],
        "pinned" : false,
        "role_mentions" : [],
        "timestamp" : "2019-02-24 01:54:23",
        "tts" : false
    },
    {
        "author" : {
            "bot" : false,
            "discriminator" : "4404",
            "display_name" : "NorbitKage",
            "id" : 421911703949672462,
            "name" : "\ud835\udd4d\ud835\udd52\ud835\udd61\ud835\udd60\ud835\udd63\ud835\udd68\ud835\udd52\ud835\udd67\ud835\udd56"
        },
        "channel" : {
            "id" : 541693198821490708,
            "name" : "art\u2741"
        },
        "channel_mentions" : [],
        "content" : "\ud83d\udc4d",
        "id" : 549046378928537600,
        "mention_everyone" : false,
        "mentions" : [],
        "pinned" : false,
        "role_mentions" : [],
        "timestamp" : "2019-02-24 01:54:17",
        "tts" : false
    },
    {
        "author" : {
            "bot" : false,
            "discriminator" : "7729",
            "display_name" : "!\u2661\u263d\u03bd\u03b9\u0442\u03c3 \u00a2\u03c3\u044f\u2113\u0454\u03c3\u0438\u0454\u263e\u2661!",
            "id" : 393152363688493056,
            "name" : "Kermit"
        },
        "channel" : {
            "id" : 541693198821490708,
            "name" : "art\u2741"
        },
        "channel_mentions" : [],
        "content" : "",
        "id" : 549042533078925313,
        "mention_everyone" : false,
        "mentions" : [],
        "pinned" : false,
        "role_mentions" : [],
        "timestamp" : "2019-02-24 01:39:00",
        "tts" : false
    },
    {
        "author" : {
            "bot" : false,
            "discriminator" : "9877",
            "display_name" : "panda",
            "id" : 516826373663227908,
            "name" : "Enrique"
        },
        "channel" : {
            "id" : 541693198821490708,
            "name" : "art\u2741"
        },
        "channel_mentions" : [],
        "content" : "\ud83d\udc4d",
        "id" : 547385203925057537,
        "mention_everyone" : false,
        "mentions" : [],
        "pinned" : false,
        "role_mentions" : [],
        "timestamp" : "2019-02-19 11:53:22",
        "tts" : false
    },
    {
        "author" : {
            "bot" : false,
            "discriminator" : "5503",
            "display_name" : "CrispyDuck",
            "id" : 394179855702294529,
            "name" : "k_ducky123"
        },
        "channel" : {
            "id" : 541693198821490708,
            "name" : "art\u2741"
        },
        "channel_mentions" : [],
        "content" : "",
        "id" : 547329412601872386,
        "mention_everyone" : false,
        "mentions" : [],
        "pinned" : false,
        "role_mentions" : [],
        "timestamp" : "2019-02-19 08:11:40",
        "tts" : false
    },
    {
        "author" : {
            "bot" : false,
            "discriminator" : "9877",
            "display_name" : "panda",
            "id" : 516826373663227908,
            "name" : "Enrique"
        },
        "channel" : {
            "id" : 541693198821490708,
            "name" : "art\u2741"
        },
        "channel_mentions" : [],
        "content" : "\ud83d\udc4d",
        "id" : 547303660019908629,
        "mention_everyone" : false,
        "mentions" : [],
        "pinned" : false,
        "role_mentions" : [],
        "timestamp" : "2019-02-19 06:29:20",
        "tts" : false
    },
    {
        "author" : {
            "bot" : false,
            "discriminator" : "5503",
            "display_name" : "CrispyDuck",
            "id" : 394179855702294529,
            "name" : "k_ducky123"
        },
        "channel" : {
            "id" : 541693198821490708,
            "name" : "art\u2741"
        },
        "channel_mentions" : [],
        "content" : "",
        "id" : 547303596304236564,
        "mention_everyone" : false,
        "mentions" : [],
        "pinned" : false,
        "role_mentions" : [],
        "timestamp" : "2019-02-19 06:29:05",
        "tts" : false
    },
    {
        "author" : {
            "bot" : false,
            "discriminator" : "5503",
            "display_name" : "CrispyDuck",
            "id" : 394179855702294529,
            "name" : "k_ducky123"
        },
        "channel" : {
            "id" : 541693198821490708,
            "name" : "art\u2741"
        },
        "channel_mentions" : [],
        "content" : "old animatic",
        "id" : 547299095149150209,
        "mention_everyone" : false,
        "mentions" : [],
        "pinned" : false,
        "role_mentions" : [],
        "timestamp" : "2019-02-19 06:11:12",
        "tts" : false
    },
    {
        "author" : {
            "bot" : false,
            "discriminator" : "9877",
            "display_name" : "panda",
            "id" : 516826373663227908,
            "name" : "Enrique"
        },
        "channel" : {
            "id" : 541693198821490708,
            "name" : "art\u2741"
        },
        "channel_mentions" : [],
        "content" : "I see it",
        "id" : 547296005545263104,
        "mention_everyone" : false,
        "mentions" : [],
        "pinned" : false,
        "role_mentions" : [],
        "timestamp" : "2019-02-19 05:58:55",
        "tts" : false
    },
    {
        "author" : {
            "bot" : false,
            "discriminator" : "4087",
            "display_name" : "A Fruit",
            "id" : 423967732787183617,
            "name" : "A Fruit"
        },
        "channel" : {
            "id" : 541693198821490708,
            "name" : "art\u2741"
        },
        "channel_mentions" : [],
        "content" : "Found it",
        "id" : 547295859264716829,
        "mention_everyone" : false,
        "mentions" : [],
        "pinned" : false,
        "role_mentions" : [],
        "timestamp" : "2019-02-19 05:58:21",
        "tts" : false
    },
    {
        "author" : {
            "bot" : false,
            "discriminator" : "5503",
            "display_name" : "CrispyDuck",
            "id" : 394179855702294529,
            "name" : "k_ducky123"
        },
        "channel" : {
            "id" : 541693198821490708,
            "name" : "art\u2741"
        },
        "channel_mentions" : [],
        "content" : "<@423967732787183617> <@!516826373663227908>",
        "id" : 547295351103553547,
        "mention_everyone" : false,
        "mentions" : [
            {
                "bot" : false,
                "discriminator" : "4087",
                "display_name" : "A Fruit",
                "id" : 423967732787183617,
                "name" : "A Fruit"
            },
            {
                "bot" : false,
                "discriminator" : "9877",
                "display_name" : "panda",
                "id" : 516826373663227908,
                "name" : "Enrique"
            }
        ],
        "pinned" : false,
        "role_mentions" : [],
        "timestamp" : "2019-02-19 05:56:19",
        "tts" : false
    },
    {
        "author" : {
            "bot" : false,
            "discriminator" : "9877",
            "display_name" : "panda",
            "id" : 516826373663227908,
            "name" : "Enrique"
        },
        "channel" : {
            "id" : 541693198821490708,
            "name" : "art\u2741"
        },
        "channel_mentions" : [],
        "content" : "Im leaving now",
        "id" : 546824028254502932,
        "mention_everyone" : false,
        "mentions" : [],
        "pinned" : false,
        "role_mentions" : [],
        "timestamp" : "2019-02-17 22:43:27",
        "tts" : false
    },
    {
        "author" : {
            "bot" : false,
            "discriminator" : "9877",
            "display_name" : "panda",
            "id" : 516826373663227908,
            "name" : "Enrique"
        },
        "channel" : {
            "id" : 541693198821490708,
            "name" : "art\u2741"
        },
        "channel_mentions" : [],
        "content" : "Ok duck",
        "id" : 546824007064879124,
        "mention_everyone" : false,
        "mentions" : [],
        "pinned" : false,
        "role_mentions" : [],
        "timestamp" : "2019-02-17 22:43:22",
        "tts" : false
    },
    {
        "author" : {
            "bot" : false,
            "discriminator" : "9877",
            "display_name" : "panda",
            "id" : 516826373663227908,
            "name" : "Enrique"
        },
        "channel" : {
            "id" : 541693198821490708,
            "name" : "art\u2741"
        },
        "channel_mentions" : [],
        "content" : "<:PepeKMS:542421343312805899>",
        "id" : 546823995748515909,
        "mention_everyone" : false,
        "mentions" : [],
        "pinned" : false,
        "role_mentions" : [],
        "timestamp" : "2019-02-17 22:43:20",
        "tts" : false
    },
    {
        "author" : {
            "bot" : false,
            "discriminator" : "9877",
            "display_name" : "panda",
            "id" : 516826373663227908,
            "name" : "Enrique"
        },
        "channel" : {
            "id" : 541693198821490708,
            "name" : "art\u2741"
        },
        "channel_mentions" : [],
        "content" : "\ud83d\ude2d",
        "id" : 546823990627270657,
        "mention_everyone" : false,
        "mentions" : [],
        "pinned" : false,
        "role_mentions" : [],
        "timestamp" : "2019-02-17 22:43:18",
        "tts" : false
    },
    {
        "author" : {
            "bot" : false,
            "discriminator" : "5503",
            "display_name" : "CrispyDuck",
            "id" : 394179855702294529,
            "name" : "k_ducky123"
        },
        "channel" : {
            "id" : 541693198821490708,
            "name" : "art\u2741"
        },
        "channel_mentions" : [],
        "content" : "Rip",
        "id" : 546823957601452102,
        "mention_everyone" : false,
        "mentions" : [],
        "pinned" : false,
        "role_mentions" : [],
        "timestamp" : "2019-02-17 22:43:10",
        "tts" : false
    },
    {
        "author" : {
            "bot" : false,
            "discriminator" : "9877",
            "display_name" : "panda",
            "id" : 516826373663227908,
            "name" : "Enrique"
        },
        "channel" : {
            "id" : 541693198821490708,
            "name" : "art\u2741"
        },
        "channel_mentions" : [],
        "content" : "Im kidding",
        "id" : 546823930510311453,
        "mention_everyone" : false,
        "mentions" : [],
        "pinned" : false,
        "role_mentions" : [],
        "timestamp" : "2019-02-17 22:43:04",
        "tts" : false
    },
    {
        "author" : {
            "bot" : false,
            "discriminator" : "9877",
            "display_name" : "panda",
            "id" : 516826373663227908,
            "name" : "Enrique"
        },
        "channel" : {
            "id" : 541693198821490708,
            "name" : "art\u2741"
        },
        "channel_mentions" : [],
        "content" : "Were am I im about to cry lol",
        "id" : 546823916891406348,
        "mention_everyone" : false,
        "mentions" : [],
        "pinned" : false,
        "role_mentions" : [],
        "timestamp" : "2019-02-17 22:43:01",
        "tts" : false
    },
    {
        "author" : {
            "bot" : false,
            "discriminator" : "5503",
            "display_name" : "CrispyDuck",
            "id" : 394179855702294529,
            "name" : "k_ducky123"
        },
        "channel" : {
            "id" : 541693198821490708,
            "name" : "art\u2741"
        },
        "channel_mentions" : [],
        "content" : "Those are mi friends",
        "id" : 546823826034655244,
        "mention_everyone" : false,
        "mentions" : [],
        "pinned" : false,
        "role_mentions" : [],
        "timestamp" : "2019-02-17 22:42:39",
        "tts" : false
    },
    {
        "author" : {
            "bot" : false,
            "discriminator" : "9877",
            "display_name" : "panda",
            "id" : 516826373663227908,
            "name" : "Enrique"
        },
        "channel" : {
            "id" : 541693198821490708,
            "name" : "art\u2741"
        },
        "channel_mentions" : [],
        "content" : "Lol",
        "id" : 546823797911715861,
        "mention_everyone" : false,
        "mentions" : [],
        "pinned" : false,
        "role_mentions" : [],
        "timestamp" : "2019-02-17 22:42:32",
        "tts" : false
    },
    {
        "author" : {
            "bot" : false,
            "discriminator" : "9877",
            "display_name" : "panda",
            "id" : 516826373663227908,
            "name" : "Enrique"
        },
        "channel" : {
            "id" : 541693198821490708,
            "name" : "art\u2741"
        },
        "channel_mentions" : [],
        "content" : "Nichi",
        "id" : 546823790294990868,
        "mention_everyone" : false,
        "mentions" : [],
        "pinned" : false,
        "role_mentions" : [],
        "timestamp" : "2019-02-17 22:42:31",
        "tts" : false
    },
    {
        "author" : {
            "bot" : false,
            "discriminator" : "5503",
            "display_name" : "CrispyDuck",
            "id" : 394179855702294529,
            "name" : "k_ducky123"
        },
        "channel" : {
            "id" : 541693198821490708,
            "name" : "art\u2741"
        },
        "channel_mentions" : [],
        "content" : "Ye",
        "id" : 546823742484119558,
        "mention_everyone" : false,
        "mentions" : [],
        "pinned" : false,
        "role_mentions" : [],
        "timestamp" : "2019-02-17 22:42:19",
        "tts" : false
    },
    {
        "author" : {
            "bot" : false,
            "discriminator" : "9877",
            "display_name" : "panda",
            "id" : 516826373663227908,
            "name" : "Enrique"
        },
        "channel" : {
            "id" : 541693198821490708,
            "name" : "art\u2741"
        },
        "channel_mentions" : [],
        "content" : "Ducky",
        "id" : 546823727069790210,
        "mention_everyone" : false,
        "mentions" : [],
        "pinned" : false,
        "role_mentions" : [],
        "timestamp" : "2019-02-17 22:42:16",
        "tts" : false
    },
    {
        "author" : {
            "bot" : false,
            "discriminator" : "5503",
            "display_name" : "CrispyDuck",
            "id" : 394179855702294529,
            "name" : "k_ducky123"
        },
        "channel" : {
            "id" : 541693198821490708,
            "name" : "art\u2741"
        },
        "channel_mentions" : [],
        "content" : "",
        "id" : 546823663014510615,
        "mention_everyone" : false,
        "mentions" : [],
        "pinned" : false,
        "role_mentions" : [],
        "timestamp" : "2019-02-17 22:42:00",
        "tts" : false
    },
    {
        "author" : {
            "bot" : false,
            "discriminator" : "9877",
            "display_name" : "panda",
            "id" : 516826373663227908,
            "name" : "Enrique"
        },
        "channel" : {
            "id" : 541693198821490708,
            "name" : "art\u2741"
        },
        "channel_mentions" : [],
        "content" : "Lol",
        "id" : 546823658014900227,
        "mention_everyone" : false,
        "mentions" : [],
        "pinned" : false,
        "role_mentions" : [],
        "timestamp" : "2019-02-17 22:41:59",
        "tts" : false
    },
    {
        "author" : {
            "bot" : false,
            "discriminator" : "5503",
            "display_name" : "CrispyDuck",
            "id" : 394179855702294529,
            "name" : "k_ducky123"
        },
        "channel" : {
            "id" : 541693198821490708,
            "name" : "art\u2741"
        },
        "channel_mentions" : [],
        "content" : "OOf I forgot to upload my sketch here",
        "id" : 546823639706894348,
        "mention_everyone" : false,
        "mentions" : [],
        "pinned" : false,
        "role_mentions" : [],
        "timestamp" : "2019-02-17 22:41:55",
        "tts" : false
    },
    {
        "author" : {
            "bot" : false,
            "discriminator" : "9877",
            "display_name" : "panda",
            "id" : 516826373663227908,
            "name" : "Enrique"
        },
        "channel" : {
            "id" : 541693198821490708,
            "name" : "art\u2741"
        },
        "channel_mentions" : [],
        "content" : "Thx",
        "id" : 546823615375605770,
        "mention_everyone" : false,
        "mentions" : [],
        "pinned" : false,
        "role_mentions" : [],
        "timestamp" : "2019-02-17 22:41:49",
        "tts" : false
    },
    {
        "author" : {
            "bot" : false,
            "discriminator" : "5503",
            "display_name" : "CrispyDuck",
            "id" : 394179855702294529,
            "name" : "k_ducky123"
        },
        "channel" : {
            "id" : 541693198821490708,
            "name" : "art\u2741"
        },
        "channel_mentions" : [],
        "content" : "It looks nice",
        "id" : 546823597331841034,
        "mention_everyone" : false,
        "mentions" : [],
        "pinned" : false,
        "role_mentions" : [],
        "timestamp" : "2019-02-17 22:41:45",
        "tts" : false
    },
    {
        "author" : {
            "bot" : false,
            "discriminator" : "9877",
            "display_name" : "panda",
            "id" : 516826373663227908,
            "name" : "Enrique"
        },
        "channel" : {
            "id" : 541693198821490708,
            "name" : "art\u2741"
        },
        "channel_mentions" : [],
        "content" : "<@394179855702294529> sorry I know you are on do not disturb but what do you think",
        "id" : 546823477852897309,
        "mention_everyone" : false,
        "mentions" : [
            {
                "bot" : false,
                "discriminator" : "5503",
                "display_name" : "CrispyDuck",
                "id" : 394179855702294529,
                "name" : "k_ducky123"
            }
        ],
        "pinned" : false,
        "role_mentions" : [],
        "timestamp" : "2019-02-17 22:41:16",
        "tts" : false
    },
    {
        "author" : {
            "bot" : false,
            "discriminator" : "9877",
            "display_name" : "panda",
            "id" : 516826373663227908,
            "name" : "Enrique"
        },
        "channel" : {
            "id" : 541693198821490708,
            "name" : "art\u2741"
        },
        "channel_mentions" : [],
        "content" : "",
        "id" : 546823259757215754,
        "mention_everyone" : false,
        "mentions" : [],
        "pinned" : false,
        "role_mentions" : [],
        "timestamp" : "2019-02-17 22:40:24",
        "tts" : false
    },
    {
        "author" : {
            "bot" : false,
            "discriminator" : "9877",
            "display_name" : "panda",
            "id" : 516826373663227908,
            "name" : "Enrique"
        },
        "channel" : {
            "id" : 541693198821490708,
            "name" : "art\u2741"
        },
        "channel_mentions" : [],
        "content" : "Just colored the heart",
        "id" : 546823214521909248,
        "mention_everyone" : false,
        "mentions" : [],
        "pinned" : false,
        "role_mentions" : [],
        "timestamp" : "2019-02-17 22:40:13",
        "tts" : false
    },
    {
        "author" : {
            "bot" : false,
            "discriminator" : "1410",
            "display_name" : "Xddddd",
            "id" : 427933518354448387,
            "name" : "Naruto Uzumaki"
        },
        "channel" : {
            "id" : 541693198821490708,
            "name" : "art\u2741"
        },
        "channel_mentions" : [],
        "content" : "Great job",
        "id" : 546822861441073162,
        "mention_everyone" : false,
        "mentions" : [],
        "pinned" : false,
        "role_mentions" : [],
        "timestamp" : "2019-02-17 22:38:49",
        "tts" : false
    },
    {
        "author" : {
            "bot" : false,
            "discriminator" : "9877",
            "display_name" : "panda",
            "id" : 516826373663227908,
            "name" : "Enrique"
        },
        "channel" : {
            "id" : 541693198821490708,
            "name" : "art\u2741"
        },
        "channel_mentions" : [],
        "content" : "",
        "id" : 545841090356576266,
        "mention_everyone" : false,
        "mentions" : [],
        "pinned" : false,
        "role_mentions" : [],
        "timestamp" : "2019-02-15 05:37:37",
        "tts" : false
    },
    {
        "author" : {
            "bot" : false,
            "discriminator" : "4087",
            "display_name" : "A Fruit",
            "id" : 423967732787183617,
            "name" : "A Fruit"
        },
        "channel" : {
            "id" : 541693198821490708,
            "name" : "art\u2741"
        },
        "channel_mentions" : [],
        "content" : "A thonk I made for one of the other servers I'm in",
        "id" : 544544192559448124,
        "mention_everyone" : false,
        "mentions" : [],
        "pinned" : false,
        "role_mentions" : [],
        "timestamp" : "2019-02-11 15:44:12",
        "tts" : false
    },
    {
        "author" : {
            "bot" : false,
            "discriminator" : "4087",
            "display_name" : "A Fruit",
            "id" : 423967732787183617,
            "name" : "A Fruit"
        },
        "channel" : {
            "id" : 541693198821490708,
            "name" : "art\u2741"
        },
        "channel_mentions" : [],
        "content" : "",
        "id" : 544544099936763925,
        "mention_everyone" : false,
        "mentions" : [],
        "pinned" : false,
        "role_mentions" : [],
        "timestamp" : "2019-02-11 15:43:50",
        "tts" : false
    },
    {
        "author" : {
            "bot" : false,
            "discriminator" : "9877",
            "display_name" : "panda",
            "id" : 516826373663227908,
            "name" : "Enrique"
        },
        "channel" : {
            "id" : 541693198821490708,
            "name" : "art\u2741"
        },
        "channel_mentions" : [],
        "content" : "The female demon xD",
        "id" : 544296416424493077,
        "mention_everyone" : false,
        "mentions" : [],
        "pinned" : false,
        "role_mentions" : [],
        "timestamp" : "2019-02-10 23:19:38",
        "tts" : false
    },
    {
        "author" : {
            "bot" : false,
            "discriminator" : "9877",
            "display_name" : "panda",
            "id" : 516826373663227908,
            "name" : "Enrique"
        },
        "channel" : {
            "id" : 541693198821490708,
            "name" : "art\u2741"
        },
        "channel_mentions" : [],
        "content" : "Thanks xD",
        "id" : 544296030217306132,
        "mention_everyone" : false,
        "mentions" : [],
        "pinned" : false,
        "role_mentions" : [],
        "timestamp" : "2019-02-10 23:18:06",
        "tts" : false
    },
    {
        "author" : {
            "bot" : false,
            "discriminator" : "5503",
            "display_name" : "CrispyDuck",
            "id" : 394179855702294529,
            "name" : "k_ducky123"
        },
        "channel" : {
            "id" : 541693198821490708,
            "name" : "art\u2741"
        },
        "channel_mentions" : [],
        "content" : "very original and helpful lmao",
        "id" : 544295937682571264,
        "mention_everyone" : false,
        "mentions" : [],
        "pinned" : false,
        "role_mentions" : [],
        "timestamp" : "2019-02-10 23:17:44",
        "tts" : false
    },
    {
        "author" : {
            "bot" : false,
            "discriminator" : "9877",
            "display_name" : "panda",
            "id" : 516826373663227908,
            "name" : "Enrique"
        },
        "channel" : {
            "id" : 541693198821490708,
            "name" : "art\u2741"
        },
        "channel_mentions" : [],
        "content" : "Name um demon idk",
        "id" : 544286584695160852,
        "mention_everyone" : false,
        "mentions" : [],
        "pinned" : false,
        "role_mentions" : [],
        "timestamp" : "2019-02-10 22:40:34",
        "tts" : false
    },
    {
        "author" : {
            "bot" : false,
            "discriminator" : "9877",
            "display_name" : "panda",
            "id" : 516826373663227908,
            "name" : "Enrique"
        },
        "channel" : {
            "id" : 541693198821490708,
            "name" : "art\u2741"
        },
        "channel_mentions" : [],
        "content" : "Hair IDK",
        "id" : 544286431963512866,
        "mention_everyone" : false,
        "mentions" : [],
        "pinned" : false,
        "role_mentions" : [],
        "timestamp" : "2019-02-10 22:39:57",
        "tts" : false
    },
    {
        "author" : {
            "bot" : false,
            "discriminator" : "9877",
            "display_name" : "panda",
            "id" : 516826373663227908,
            "name" : "Enrique"
        },
        "channel" : {
            "id" : 541693198821490708,
            "name" : "art\u2741"
        },
        "channel_mentions" : [],
        "content" : "Cool",
        "id" : 544286382894612501,
        "mention_everyone" : false,
        "mentions" : [],
        "pinned" : false,
        "role_mentions" : [],
        "timestamp" : "2019-02-10 22:39:46",
        "tts" : false
    },
    {
        "author" : {
            "bot" : false,
            "discriminator" : "5503",
            "display_name" : "CrispyDuck",
            "id" : 394179855702294529,
            "name" : "k_ducky123"
        },
        "channel" : {
            "id" : 541693198821490708,
            "name" : "art\u2741"
        },
        "channel_mentions" : [],
        "content" : "Any Name or hair style suggestions?",
        "id" : 544282351912353804,
        "mention_everyone" : false,
        "mentions" : [],
        "pinned" : false,
        "role_mentions" : [],
        "timestamp" : "2019-02-10 22:23:44",
        "tts" : false
    },
    {
        "author" : {
            "bot" : false,
            "discriminator" : "9877",
            "display_name" : "panda",
            "id" : 516826373663227908,
            "name" : "Enrique"
        },
        "channel" : {
            "id" : 541693198821490708,
            "name" : "art\u2741"
        },
        "channel_mentions" : [],
        "content" : "It's good",
        "id" : 543813331845382145,
        "mention_everyone" : false,
        "mentions" : [],
        "pinned" : false,
        "role_mentions" : [],
        "timestamp" : "2019-02-09 15:20:01",
        "tts" : false
    },
    {
        "author" : {
            "bot" : false,
            "discriminator" : "4087",
            "display_name" : "A Fruit",
            "id" : 423967732787183617,
            "name" : "A Fruit"
        },
        "channel" : {
            "id" : 541693198821490708,
            "name" : "art\u2741"
        },
        "channel_mentions" : [],
        "content" : "",
        "id" : 543811886626373633,
        "mention_everyone" : false,
        "mentions" : [],
        "pinned" : false,
        "role_mentions" : [],
        "timestamp" : "2019-02-09 15:14:17",
        "tts" : false
    },
    {
        "author" : {
            "bot" : false,
            "discriminator" : "4087",
            "display_name" : "A Fruit",
            "id" : 423967732787183617,
            "name" : "A Fruit"
        },
        "channel" : {
            "id" : 541693198821490708,
            "name" : "art\u2741"
        },
        "channel_mentions" : [],
        "content" : "Good job!",
        "id" : 543806949653741583,
        "mention_everyone" : false,
        "mentions" : [],
        "pinned" : false,
        "role_mentions" : [],
        "timestamp" : "2019-02-09 14:54:40",
        "tts" : false
    },
    {
        "author" : {
            "bot" : false,
            "discriminator" : "9877",
            "display_name" : "panda",
            "id" : 516826373663227908,
            "name" : "Enrique"
        },
        "channel" : {
            "id" : 541693198821490708,
            "name" : "art\u2741"
        },
        "channel_mentions" : [],
        "content" : "Lol it's good",
        "id" : 543806660041375759,
        "mention_everyone" : false,
        "mentions" : [],
        "pinned" : false,
        "role_mentions" : [],
        "timestamp" : "2019-02-09 14:53:31",
        "tts" : false
    },
    {
        "author" : {
            "bot" : false,
            "discriminator" : "5503",
            "display_name" : "CrispyDuck",
            "id" : 394179855702294529,
            "name" : "k_ducky123"
        },
        "channel" : {
            "id" : 541693198821490708,
            "name" : "art\u2741"
        },
        "channel_mentions" : [],
        "content" : "I made this if me and my friends",
        "id" : 543806381107707925,
        "mention_everyone" : false,
        "mentions" : [],
        "pinned" : false,
        "role_mentions" : [],
        "timestamp" : "2019-02-09 14:52:24",
        "tts" : false
    },
    {
        "author" : {
            "bot" : false,
            "discriminator" : "8773",
            "display_name" : "Spartanslayer9001",
            "id" : 396047335232241665,
            "name" : "Spartanslayer9001"
        },
        "channel" : {
            "id" : 541693198821490708,
            "name" : "art\u2741"
        },
        "channel_mentions" : [],
        "content" : "No problem.",
        "id" : 543638549170487332,
        "mention_everyone" : false,
        "mentions" : [],
        "pinned" : false,
        "role_mentions" : [],
        "timestamp" : "2019-02-09 03:45:30",
        "tts" : false
    },
    {
        "author" : {
            "bot" : false,
            "discriminator" : "4087",
            "display_name" : "A Fruit",
            "id" : 423967732787183617,
            "name" : "A Fruit"
        },
        "channel" : {
            "id" : 541693198821490708,
            "name" : "art\u2741"
        },
        "channel_mentions" : [],
        "content" : "Thanks.",
        "id" : 543638489548324874,
        "mention_everyone" : false,
        "mentions" : [],
        "pinned" : false,
        "role_mentions" : [],
        "timestamp" : "2019-02-09 03:45:16",
        "tts" : false
    },
    {
        "author" : {
            "bot" : false,
            "discriminator" : "8773",
            "display_name" : "Spartanslayer9001",
            "id" : 396047335232241665,
            "name" : "Spartanslayer9001"
        },
        "channel" : {
            "id" : 541693198821490708,
            "name" : "art\u2741"
        },
        "channel_mentions" : [],
        "content" : "Nice art.",
        "id" : 543638416881877001,
        "mention_everyone" : false,
        "mentions" : [],
        "pinned" : false,
        "role_mentions" : [],
        "timestamp" : "2019-02-09 03:44:58",
        "tts" : false
    },
    {
        "author" : {
            "bot" : false,
            "discriminator" : "4087",
            "display_name" : "A Fruit",
            "id" : 423967732787183617,
            "name" : "A Fruit"
        },
        "channel" : {
            "id" : 541693198821490708,
            "name" : "art\u2741"
        },
        "channel_mentions" : [],
        "content" : "",
        "id" : 543638363761278989,
        "mention_everyone" : false,
        "mentions" : [],
        "pinned" : false,
        "role_mentions" : [],
        "timestamp" : "2019-02-09 03:44:46",
        "tts" : false
    },
    {
        "author" : {
            "bot" : false,
            "discriminator" : "4087",
            "display_name" : "A Fruit",
            "id" : 423967732787183617,
            "name" : "A Fruit"
        },
        "channel" : {
            "id" : 541693198821490708,
            "name" : "art\u2741"
        },
        "channel_mentions" : [],
        "content" : "Steven Universe trash",
        "id" : 543624886833119234,
        "mention_everyone" : false,
        "mentions" : [],
        "pinned" : false,
        "role_mentions" : [],
        "timestamp" : "2019-02-09 02:51:13",
        "tts" : false
    },
    {
        "author" : {
            "bot" : false,
            "discriminator" : "1413",
            "display_name" : "Depression",
            "id" : 273840120589713410,
            "name" : "Depression"
        },
        "channel" : {
            "id" : 541693198821490708,
            "name" : "art\u2741"
        },
        "channel_mentions" : [],
        "content" : "",
        "id" : 543555643030634505,
        "mention_everyone" : false,
        "mentions" : [],
        "pinned" : false,
        "role_mentions" : [],
        "timestamp" : "2019-02-08 22:16:04",
        "tts" : false
    }
]