[
    {
        "author" : {
            "bot" : false,
            "discriminator" : "7729",
            "display_name" : "!\u2661\u263d\u03bd\u03b9\u0442\u03c3 \u00a2\u03c3\u044f\u2113\u0454\u03c3\u0438\u0454\u263e\u2661!",
            "id" : 393152363688493056,
            "name" : "Kermit"
        },
        "channel" : {
            "id" : 548832131552641073,
            "name" : "nsfw-commands"
        },
        "channel_mentions" : [],
        "content" : "lmao",
        "id" : 549064551774289950,
        "mention_everyone" : false,
        "mentions" : [],
        "pinned" : false,
        "role_mentions" : [],
        "timestamp" : "2019-02-24 03:06:30",
        "tts" : false
    },
    {
        "author" : {
            "bot" : true,
            "discriminator" : "8530",
            "display_name" : "\u03a3 Sigma",
            "id" : 216437513709944832,
            "name" : "Sigma"
        },
        "channel" : {
            "id" : 548832131552641073,
            "name" : "nsfw-commands"
        },
        "channel_mentions" : [],
        "content" : "",
        "id" : 549064465438736426,
        "mention_everyone" : false,
        "mentions" : [],
        "pinned" : false,
        "role_mentions" : [],
        "timestamp" : "2019-02-24 03:06:09",
        "tts" : false
    },
    {
        "author" : {
            "bot" : false,
            "discriminator" : "7729",
            "display_name" : "!\u2661\u263d\u03bd\u03b9\u0442\u03c3 \u00a2\u03c3\u044f\u2113\u0454\u03c3\u0438\u0454\u263e\u2661!",
            "id" : 393152363688493056,
            "name" : "Kermit"
        },
        "channel" : {
            "id" : 548832131552641073,
            "name" : "nsfw-commands"
        },
        "channel_mentions" : [],
        "content" : ">>stab <@!393152363688493056>",
        "id" : 549064464461463552,
        "mention_everyone" : false,
        "mentions" : [
            {
                "bot" : false,
                "discriminator" : "7729",
                "display_name" : "!\u2661\u263d\u03bd\u03b9\u0442\u03c3 \u00a2\u03c3\u044f\u2113\u0454\u03c3\u0438\u0454\u263e\u2661!",
                "id" : 393152363688493056,
                "name" : "Kermit"
            }
        ],
        "pinned" : false,
        "role_mentions" : [],
        "timestamp" : "2019-02-24 03:06:09",
        "tts" : false
    },
    {
        "author" : {
            "bot" : true,
            "discriminator" : "8530",
            "display_name" : "\u03a3 Sigma",
            "id" : 216437513709944832,
            "name" : "Sigma"
        },
        "channel" : {
            "id" : 548832131552641073,
            "name" : "nsfw-commands"
        },
        "channel_mentions" : [],
        "content" : "",
        "id" : 549064162521907201,
        "mention_everyone" : false,
        "mentions" : [],
        "pinned" : false,
        "role_mentions" : [],
        "timestamp" : "2019-02-24 03:04:57",
        "tts" : false
    },
    {
        "author" : {
            "bot" : false,
            "discriminator" : "7639",
            "display_name" : "BOBBY BOIII",
            "id" : 423267053789511680,
            "name" : "BOBBY BOIII"
        },
        "channel" : {
            "id" : 548832131552641073,
            "name" : "nsfw-commands"
        },
        "channel_mentions" : [],
        "content" : ">>boobs",
        "id" : 549064161032929322,
        "mention_everyone" : false,
        "mentions" : [],
        "pinned" : false,
        "role_mentions" : [],
        "timestamp" : "2019-02-24 03:04:57",
        "tts" : false
    },
    {
        "author" : {
            "bot" : true,
            "discriminator" : "8530",
            "display_name" : "\u03a3 Sigma",
            "id" : 216437513709944832,
            "name" : "Sigma"
        },
        "channel" : {
            "id" : 548832131552641073,
            "name" : "nsfw-commands"
        },
        "channel_mentions" : [],
        "content" : "",
        "id" : 549063991922655245,
        "mention_everyone" : false,
        "mentions" : [],
        "pinned" : false,
        "role_mentions" : [],
        "timestamp" : "2019-02-24 03:04:16",
        "tts" : false
    },
    {
        "author" : {
            "bot" : false,
            "discriminator" : "7639",
            "display_name" : "BOBBY BOIII",
            "id" : 423267053789511680,
            "name" : "BOBBY BOIII"
        },
        "channel" : {
            "id" : 548832131552641073,
            "name" : "nsfw-commands"
        },
        "channel_mentions" : [],
        "content" : ">>help",
        "id" : 549063991218143272,
        "mention_everyone" : false,
        "mentions" : [],
        "pinned" : false,
        "role_mentions" : [],
        "timestamp" : "2019-02-24 03:04:16",
        "tts" : false
    },
    {
        "author" : {
            "bot" : false,
            "discriminator" : "7639",
            "display_name" : "BOBBY BOIII",
            "id" : 423267053789511680,
            "name" : "BOBBY BOIII"
        },
        "channel" : {
            "id" : 548832131552641073,
            "name" : "nsfw-commands"
        },
        "channel_mentions" : [],
        "content" : ">>nsfw",
        "id" : 549063966001856523,
        "mention_everyone" : false,
        "mentions" : [],
        "pinned" : false,
        "role_mentions" : [],
        "timestamp" : "2019-02-24 03:04:10",
        "tts" : false
    },
    {
        "author" : {
            "bot" : true,
            "discriminator" : "8530",
            "display_name" : "\u03a3 Sigma",
            "id" : 216437513709944832,
            "name" : "Sigma"
        },
        "channel" : {
            "id" : 548832131552641073,
            "name" : "nsfw-commands"
        },
        "channel_mentions" : [],
        "content" : "",
        "id" : 549063871768428546,
        "mention_everyone" : false,
        "mentions" : [],
        "pinned" : false,
        "role_mentions" : [],
        "timestamp" : "2019-02-24 03:03:48",
        "tts" : false
    },
    {
        "author" : {
            "bot" : false,
            "discriminator" : "7639",
            "display_name" : "BOBBY BOIII",
            "id" : 423267053789511680,
            "name" : "BOBBY BOIII"
        },
        "channel" : {
            "id" : 548832131552641073,
            "name" : "nsfw-commands"
        },
        "channel_mentions" : [],
        "content" : ">>fuck",
        "id" : 549063871244271646,
        "mention_everyone" : false,
        "mentions" : [],
        "pinned" : false,
        "role_mentions" : [],
        "timestamp" : "2019-02-24 03:03:48",
        "tts" : false
    },
    {
        "author" : {
            "bot" : false,
            "discriminator" : "9877",
            "display_name" : "panda",
            "id" : 516826373663227908,
            "name" : "Enrique"
        },
        "channel" : {
            "id" : 548832131552641073,
            "name" : "nsfw-commands"
        },
        "channel_mentions" : [],
        "content" : "\ud83d\ude33",
        "id" : 549018763152850944,
        "mention_everyone" : false,
        "mentions" : [],
        "pinned" : false,
        "role_mentions" : [],
        "timestamp" : "2019-02-24 00:04:33",
        "tts" : false
    },
    {
        "author" : {
            "bot" : true,
            "discriminator" : "8530",
            "display_name" : "\u03a3 Sigma",
            "id" : 216437513709944832,
            "name" : "Sigma"
        },
        "channel" : {
            "id" : 548832131552641073,
            "name" : "nsfw-commands"
        },
        "channel_mentions" : [],
        "content" : "",
        "id" : 549018686246223893,
        "mention_everyone" : false,
        "mentions" : [],
        "pinned" : false,
        "role_mentions" : [],
        "timestamp" : "2019-02-24 00:04:15",
        "tts" : false
    },
    {
        "author" : {
            "bot" : false,
            "discriminator" : "2217",
            "display_name" : "HYPEMODE",
            "id" : 249314960394420224,
            "name" : "HYPEMODE"
        },
        "channel" : {
            "id" : 548832131552641073,
            "name" : "nsfw-commands"
        },
        "channel_mentions" : [],
        "content" : ">>fuck",
        "id" : 549018685608820766,
        "mention_everyone" : false,
        "mentions" : [],
        "pinned" : false,
        "role_mentions" : [],
        "timestamp" : "2019-02-24 00:04:14",
        "tts" : false
    },
    {
        "author" : {
            "bot" : false,
            "discriminator" : "9877",
            "display_name" : "panda",
            "id" : 516826373663227908,
            "name" : "Enrique"
        },
        "channel" : {
            "id" : 548832131552641073,
            "name" : "nsfw-commands"
        },
        "channel_mentions" : [],
        "content" : "That's cool",
        "id" : 548835802533199882,
        "mention_everyone" : false,
        "mentions" : [],
        "pinned" : false,
        "role_mentions" : [],
        "timestamp" : "2019-02-23 11:57:32",
        "tts" : false
    },
    {
        "author" : {
            "bot" : false,
            "discriminator" : "9877",
            "display_name" : "panda",
            "id" : 516826373663227908,
            "name" : "Enrique"
        },
        "channel" : {
            "id" : 548832131552641073,
            "name" : "nsfw-commands"
        },
        "channel_mentions" : [],
        "content" : "\ud83d\ude06 \ud83d\ude06",
        "id" : 548835627832180747,
        "mention_everyone" : false,
        "mentions" : [],
        "pinned" : false,
        "role_mentions" : [],
        "timestamp" : "2019-02-23 11:56:50",
        "tts" : false
    },
    {
        "author" : {
            "bot" : false,
            "discriminator" : "9877",
            "display_name" : "panda",
            "id" : 516826373663227908,
            "name" : "Enrique"
        },
        "channel" : {
            "id" : 548832131552641073,
            "name" : "nsfw-commands"
        },
        "channel_mentions" : [],
        "content" : "\ud83d\ude36",
        "id" : 548835621188141057,
        "mention_everyone" : false,
        "mentions" : [],
        "pinned" : false,
        "role_mentions" : [],
        "timestamp" : "2019-02-23 11:56:48",
        "tts" : false
    },
    {
        "author" : {
            "bot" : false,
            "discriminator" : "0530",
            "display_name" : "Blood Hunter",
            "id" : 540503510614147087,
            "name" : "Blood Hunter"
        },
        "channel" : {
            "id" : 548832131552641073,
            "name" : "nsfw-commands"
        },
        "channel_mentions" : [],
        "content" : "xD",
        "id" : 548835601550409728,
        "mention_everyone" : false,
        "mentions" : [],
        "pinned" : false,
        "role_mentions" : [],
        "timestamp" : "2019-02-23 11:56:44",
        "tts" : false
    },
    {
        "author" : {
            "bot" : false,
            "discriminator" : "0530",
            "display_name" : "Blood Hunter",
            "id" : 540503510614147087,
            "name" : "Blood Hunter"
        },
        "channel" : {
            "id" : 548832131552641073,
            "name" : "nsfw-commands"
        },
        "channel_mentions" : [],
        "content" : "Lol",
        "id" : 548835597503037440,
        "mention_everyone" : false,
        "mentions" : [],
        "pinned" : false,
        "role_mentions" : [],
        "timestamp" : "2019-02-23 11:56:43",
        "tts" : false
    },
    {
        "author" : {
            "bot" : false,
            "discriminator" : "9877",
            "display_name" : "panda",
            "id" : 516826373663227908,
            "name" : "Enrique"
        },
        "channel" : {
            "id" : 548832131552641073,
            "name" : "nsfw-commands"
        },
        "channel_mentions" : [],
        "content" : "You fucked me lmao",
        "id" : 548835572568031238,
        "mention_everyone" : false,
        "mentions" : [],
        "pinned" : false,
        "role_mentions" : [],
        "timestamp" : "2019-02-23 11:56:37",
        "tts" : false
    },
    {
        "author" : {
            "bot" : false,
            "discriminator" : "0530",
            "display_name" : "Blood Hunter",
            "id" : 540503510614147087,
            "name" : "Blood Hunter"
        },
        "channel" : {
            "id" : 548832131552641073,
            "name" : "nsfw-commands"
        },
        "channel_mentions" : [],
        "content" : "Wtf",
        "id" : 548835518205394954,
        "mention_everyone" : false,
        "mentions" : [],
        "pinned" : false,
        "role_mentions" : [],
        "timestamp" : "2019-02-23 11:56:24",
        "tts" : false
    },
    {
        "author" : {
            "bot" : true,
            "discriminator" : "8530",
            "display_name" : "\u03a3 Sigma",
            "id" : 216437513709944832,
            "name" : "Sigma"
        },
        "channel" : {
            "id" : 548832131552641073,
            "name" : "nsfw-commands"
        },
        "channel_mentions" : [],
        "content" : "",
        "id" : 548835479651614730,
        "mention_everyone" : false,
        "mentions" : [],
        "pinned" : false,
        "role_mentions" : [],
        "timestamp" : "2019-02-23 11:56:15",
        "tts" : false
    },
    {
        "author" : {
            "bot" : false,
            "discriminator" : "9877",
            "display_name" : "panda",
            "id" : 516826373663227908,
            "name" : "Enrique"
        },
        "channel" : {
            "id" : 548832131552641073,
            "name" : "nsfw-commands"
        },
        "channel_mentions" : [],
        "content" : "Oof",
        "id" : 548835195407564820,
        "mention_everyone" : false,
        "mentions" : [],
        "pinned" : false,
        "role_mentions" : [],
        "timestamp" : "2019-02-23 11:55:07",
        "tts" : false
    },
    {
        "author" : {
            "bot" : false,
            "discriminator" : "9877",
            "display_name" : "panda",
            "id" : 516826373663227908,
            "name" : "Enrique"
        },
        "channel" : {
            "id" : 548832131552641073,
            "name" : "nsfw-commands"
        },
        "channel_mentions" : [],
        "content" : ">>nsfw",
        "id" : 548835177615327235,
        "mention_everyone" : false,
        "mentions" : [],
        "pinned" : false,
        "role_mentions" : [],
        "timestamp" : "2019-02-23 11:55:03",
        "tts" : false
    }
]