[
    {
        "author" : {
            "bot" : true,
            "discriminator" : "8760",
            "display_name" : "Slayer",
            "id" : 204255221017214977,
            "name" : "YAGPDB.xyz"
        },
        "channel" : {
            "id" : 541687690635247636,
            "name" : "\ud83c\udfa8color-roles\u272a"
        },
        "channel_mentions" : [],
        "content" : "**Role Menu: Colors**\nReact to give yourself a role.\n\n\ud83d\udd32 : `Grey`\n\n\ud83c\udfd0 : `Violet`\n\n\ud83d\udccd : `Pink`\n\n\ud83d\udc9b : `Yellow`\n\n<:yagpdb:542421342834655243> : `Neon Orange`\n\n<:yagpdb:542421343279513601> : `Neon Yellow`\n\n\ud83d\udd34 : `Blood Red`\n\n\ud83d\udc19 : `Purple`\n\n\ud83d\udd36 : `Orange`\n\n\ud83c\udf51 : `Peach`\n\n\ud83c\udf32 : `Green`\n\n\ud83c\udfad : `Mint`\n\n\ud83d\udd37 : `Blue`\n\n\ud83c\udf00 : `Cyan`\n\n\ud83c\udff3 : `White`\n\n\ud83c\udff4 : `Black`",
        "id" : 544572734185799701,
        "mention_everyone" : false,
        "mentions" : [],
        "pinned" : false,
        "role_mentions" : [],
        "timestamp" : "2019-02-11 17:37:37",
        "tts" : false
    }
]