[
    {
        "author" : {
            "bot" : false,
            "discriminator" : "2896",
            "display_name" : "Yasashiiii",
            "id" : 464812379218247700,
            "name" : "Yasashiiii"
        },
        "channel" : {
            "id" : 542223083075797003,
            "name" : "\ud83d\udcc1coding-\u2742"
        },
        "channel_mentions" : [],
        "content" : "<@107955179483054080> just do basic stuff I started out by learning python idk why but I find it\u2019s pretty easy for beginners",
        "id" : 548280606057037824,
        "mention_everyone" : false,
        "mentions" : [
            {
                "bot" : false,
                "discriminator" : "5039",
                "display_name" : "Lily",
                "id" : 107955179483054080,
                "name" : "Lily"
            }
        ],
        "pinned" : false,
        "role_mentions" : [],
        "timestamp" : "2019-02-21 23:11:23",
        "tts" : false
    },
    {
        "author" : {
            "bot" : false,
            "discriminator" : "5039",
            "display_name" : "Lily",
            "id" : 107955179483054080,
            "name" : "Lily"
        },
        "channel" : {
            "id" : 542223083075797003,
            "name" : "\ud83d\udcc1coding-\u2742"
        },
        "channel_mentions" : [],
        "content" : "Wat",
        "id" : 548231206223872017,
        "mention_everyone" : false,
        "mentions" : [],
        "pinned" : false,
        "role_mentions" : [],
        "timestamp" : "2019-02-21 19:55:05",
        "tts" : false
    },
    {
        "author" : {
            "bot" : false,
            "discriminator" : "9382",
            "display_name" : "master2u",
            "id" : 104055495878283264,
            "name" : "master2u"
        },
        "channel" : {
            "id" : 542223083075797003,
            "name" : "\ud83d\udcc1coding-\u2742"
        },
        "channel_mentions" : [],
        "content" : "there is a simple code.",
        "id" : 547997150559338507,
        "mention_everyone" : false,
        "mentions" : [],
        "pinned" : false,
        "role_mentions" : [],
        "timestamp" : "2019-02-21 04:25:01",
        "tts" : false
    },
    {
        "author" : {
            "bot" : false,
            "discriminator" : "9382",
            "display_name" : "master2u",
            "id" : 104055495878283264,
            "name" : "master2u"
        },
        "channel" : {
            "id" : 542223083075797003,
            "name" : "\ud83d\udcc1coding-\u2742"
        },
        "channel_mentions" : [],
        "content" : "# include <iostream>\nusing namespace std;\n\nint main()\n{\n    char op;\n    float num1, num2;\n\n    cout << \"Enter operator either + or - or * or /: \";\n    cin >> op;\n\n    cout << \"Enter two operands: \";\n    cin >> num1 >> num2;\n\n    switch(op)\n    {\n        case '+':\n            cout << num1+num2;\n            break;\n\n        case '-':\n            cout << num1-num2;\n            break;\n\n        case '*':\n            cout << num1*num2;\n            break;\n\n        case '/':\n            cout << num1/num2;\n            break;\n\n        default:\n            // If the operator is other than +, -, * or /, error message is shown\n            cout << \"Error! operator is not correct\";\n            break;\n    }\n\n    return 0;\n}",
        "id" : 547997080178655272,
        "mention_everyone" : false,
        "mentions" : [],
        "pinned" : false,
        "role_mentions" : [],
        "timestamp" : "2019-02-21 04:24:45",
        "tts" : false
    },
    {
        "author" : {
            "bot" : false,
            "discriminator" : "5039",
            "display_name" : "Lily",
            "id" : 107955179483054080,
            "name" : "Lily"
        },
        "channel" : {
            "id" : 542223083075797003,
            "name" : "\ud83d\udcc1coding-\u2742"
        },
        "channel_mentions" : [],
        "content" : "I'm wanting to get into coding honestly, but it seems really tedious to get into and start doing the more fun tasks",
        "id" : 547945825578385413,
        "mention_everyone" : false,
        "mentions" : [],
        "pinned" : false,
        "role_mentions" : [],
        "timestamp" : "2019-02-21 01:01:05",
        "tts" : false
    },
    {
        "author" : {
            "bot" : true,
            "discriminator" : "8530",
            "display_name" : "\u03a3 Sigma",
            "id" : 216437513709944832,
            "name" : "Sigma"
        },
        "channel" : {
            "id" : 542223083075797003,
            "name" : "\ud83d\udcc1coding-\u2742"
        },
        "channel_mentions" : [],
        "content" : "",
        "id" : 547610539656740866,
        "mention_everyone" : false,
        "mentions" : [],
        "pinned" : false,
        "role_mentions" : [],
        "timestamp" : "2019-02-20 02:48:46",
        "tts" : false
    },
    {
        "author" : {
            "bot" : false,
            "discriminator" : "6315",
            "display_name" : "AlwayzMeShubh",
            "id" : 500497938943049729,
            "name" : "AlwayzMeShubh"
        },
        "channel" : {
            "id" : 542223083075797003,
            "name" : "\ud83d\udcc1coding-\u2742"
        },
        "channel_mentions" : [],
        "content" : "Dm me I got good things to show you",
        "id" : 547456714132422697,
        "mention_everyone" : false,
        "mentions" : [],
        "pinned" : false,
        "role_mentions" : [],
        "timestamp" : "2019-02-19 16:37:31",
        "tts" : false
    },
    {
        "author" : {
            "bot" : false,
            "discriminator" : "6315",
            "display_name" : "AlwayzMeShubh",
            "id" : 500497938943049729,
            "name" : "AlwayzMeShubh"
        },
        "channel" : {
            "id" : 542223083075797003,
            "name" : "\ud83d\udcc1coding-\u2742"
        },
        "channel_mentions" : [],
        "content" : "\ud83d\udc4c",
        "id" : 547456673451606037,
        "mention_everyone" : false,
        "mentions" : [],
        "pinned" : false,
        "role_mentions" : [],
        "timestamp" : "2019-02-19 16:37:22",
        "tts" : false
    },
    {
        "author" : {
            "bot" : false,
            "discriminator" : "5638",
            "display_name" : "Simon Max",
            "id" : 533989850399899665,
            "name" : "JacquesMax"
        },
        "channel" : {
            "id" : 542223083075797003,
            "name" : "\ud83d\udcc1coding-\u2742"
        },
        "channel_mentions" : [],
        "content" : ":)",
        "id" : 547456647799242776,
        "mention_everyone" : false,
        "mentions" : [],
        "pinned" : false,
        "role_mentions" : [],
        "timestamp" : "2019-02-19 16:37:16",
        "tts" : false
    },
    {
        "author" : {
            "bot" : false,
            "discriminator" : "6315",
            "display_name" : "AlwayzMeShubh",
            "id" : 500497938943049729,
            "name" : "AlwayzMeShubh"
        },
        "channel" : {
            "id" : 542223083075797003,
            "name" : "\ud83d\udcc1coding-\u2742"
        },
        "channel_mentions" : [],
        "content" : "You helping me to do that?",
        "id" : 547456645274533929,
        "mention_everyone" : false,
        "mentions" : [],
        "pinned" : false,
        "role_mentions" : [],
        "timestamp" : "2019-02-19 16:37:15",
        "tts" : false
    },
    {
        "author" : {
            "bot" : false,
            "discriminator" : "6315",
            "display_name" : "AlwayzMeShubh",
            "id" : 500497938943049729,
            "name" : "AlwayzMeShubh"
        },
        "channel" : {
            "id" : 542223083075797003,
            "name" : "\ud83d\udcc1coding-\u2742"
        },
        "channel_mentions" : [],
        "content" : "Lmao",
        "id" : 547456609555709953,
        "mention_everyone" : false,
        "mentions" : [],
        "pinned" : false,
        "role_mentions" : [],
        "timestamp" : "2019-02-19 16:37:06",
        "tts" : false
    },
    {
        "author" : {
            "bot" : false,
            "discriminator" : "5638",
            "display_name" : "Simon Max",
            "id" : 533989850399899665,
            "name" : "JacquesMax"
        },
        "channel" : {
            "id" : 542223083075797003,
            "name" : "\ud83d\udcc1coding-\u2742"
        },
        "channel_mentions" : [
            {
                "id" : 541692984756928542,
                "name" : "\ud83d\udd27bot-commands\u2741"
            }
        ],
        "content" : "and <#541692984756928542>",
        "id" : 547456583844757519,
        "mention_everyone" : false,
        "mentions" : [],
        "pinned" : false,
        "role_mentions" : [],
        "timestamp" : "2019-02-19 16:37:00",
        "tts" : false
    },
    {
        "author" : {
            "bot" : false,
            "discriminator" : "6315",
            "display_name" : "AlwayzMeShubh",
            "id" : 500497938943049729,
            "name" : "AlwayzMeShubh"
        },
        "channel" : {
            "id" : 542223083075797003,
            "name" : "\ud83d\udcc1coding-\u2742"
        },
        "channel_mentions" : [],
        "content" : "Ik it didn't",
        "id" : 547456574764089359,
        "mention_everyone" : false,
        "mentions" : [],
        "pinned" : false,
        "role_mentions" : [],
        "timestamp" : "2019-02-19 16:36:58",
        "tts" : false
    },
    {
        "author" : {
            "bot" : false,
            "discriminator" : "6315",
            "display_name" : "AlwayzMeShubh",
            "id" : 500497938943049729,
            "name" : "AlwayzMeShubh"
        },
        "channel" : {
            "id" : 542223083075797003,
            "name" : "\ud83d\udcc1coding-\u2742"
        },
        "channel_mentions" : [],
        "content" : "Hahaha",
        "id" : 547456539296923649,
        "mention_everyone" : false,
        "mentions" : [],
        "pinned" : false,
        "role_mentions" : [],
        "timestamp" : "2019-02-19 16:36:50",
        "tts" : false
    },
    {
        "author" : {
            "bot" : false,
            "discriminator" : "5638",
            "display_name" : "Simon Max",
            "id" : 533989850399899665,
            "name" : "JacquesMax"
        },
        "channel" : {
            "id" : 542223083075797003,
            "name" : "\ud83d\udcc1coding-\u2742"
        },
        "channel_mentions" : [],
        "content" : "rip, didn't work",
        "id" : 547456444711305217,
        "mention_everyone" : false,
        "mentions" : [],
        "pinned" : false,
        "role_mentions" : [],
        "timestamp" : "2019-02-19 16:36:27",
        "tts" : false
    },
    {
        "author" : {
            "bot" : true,
            "discriminator" : "9747",
            "display_name" : "Galaxy",
            "id" : 522873674211262466,
            "name" : "Galaxy"
        },
        "channel" : {
            "id" : 542223083075797003,
            "name" : "\ud83d\udcc1coding-\u2742"
        },
        "channel_mentions" : [],
        "content" : "",
        "id" : 547455621650448385,
        "mention_everyone" : false,
        "mentions" : [],
        "pinned" : false,
        "role_mentions" : [],
        "timestamp" : "2019-02-19 16:33:11",
        "tts" : false
    },
    {
        "author" : {
            "bot" : false,
            "discriminator" : "6315",
            "display_name" : "AlwayzMeShubh",
            "id" : 500497938943049729,
            "name" : "AlwayzMeShubh"
        },
        "channel" : {
            "id" : 542223083075797003,
            "name" : "\ud83d\udcc1coding-\u2742"
        },
        "channel_mentions" : [],
        "content" : "/getroles",
        "id" : 547455620421517323,
        "mention_everyone" : false,
        "mentions" : [],
        "pinned" : false,
        "role_mentions" : [],
        "timestamp" : "2019-02-19 16:33:11",
        "tts" : false
    },
    {
        "author" : {
            "bot" : true,
            "discriminator" : "9747",
            "display_name" : "Galaxy",
            "id" : 522873674211262466,
            "name" : "Galaxy"
        },
        "channel" : {
            "id" : 542223083075797003,
            "name" : "\ud83d\udcc1coding-\u2742"
        },
        "channel_mentions" : [],
        "content" : "",
        "id" : 547455501466599424,
        "mention_everyone" : false,
        "mentions" : [],
        "pinned" : false,
        "role_mentions" : [],
        "timestamp" : "2019-02-19 16:32:42",
        "tts" : false
    },
    {
        "author" : {
            "bot" : false,
            "discriminator" : "6315",
            "display_name" : "AlwayzMeShubh",
            "id" : 500497938943049729,
            "name" : "AlwayzMeShubh"
        },
        "channel" : {
            "id" : 542223083075797003,
            "name" : "\ud83d\udcc1coding-\u2742"
        },
        "channel_mentions" : [],
        "content" : "/rinfo",
        "id" : 547455500711624725,
        "mention_everyone" : false,
        "mentions" : [],
        "pinned" : false,
        "role_mentions" : [],
        "timestamp" : "2019-02-19 16:32:42",
        "tts" : false
    },
    {
        "author" : {
            "bot" : false,
            "discriminator" : "6315",
            "display_name" : "AlwayzMeShubh",
            "id" : 500497938943049729,
            "name" : "AlwayzMeShubh"
        },
        "channel" : {
            "id" : 542223083075797003,
            "name" : "\ud83d\udcc1coding-\u2742"
        },
        "channel_mentions" : [],
        "content" : "/help",
        "id" : 547454053345656832,
        "mention_everyone" : false,
        "mentions" : [],
        "pinned" : false,
        "role_mentions" : [],
        "timestamp" : "2019-02-19 16:26:57",
        "tts" : false
    },
    {
        "author" : {
            "bot" : false,
            "discriminator" : "5638",
            "display_name" : "Simon Max",
            "id" : 533989850399899665,
            "name" : "JacquesMax"
        },
        "channel" : {
            "id" : 542223083075797003,
            "name" : "\ud83d\udcc1coding-\u2742"
        },
        "channel_mentions" : [],
        "content" : "Since most of the time you would need to give the full sys path for a command to work",
        "id" : 546361851223736325,
        "mention_everyone" : false,
        "mentions" : [],
        "pinned" : false,
        "role_mentions" : [],
        "timestamp" : "2019-02-16 16:06:56",
        "tts" : false
    },
    {
        "author" : {
            "bot" : false,
            "discriminator" : "5638",
            "display_name" : "Simon Max",
            "id" : 533989850399899665,
            "name" : "JacquesMax"
        },
        "channel" : {
            "id" : 542223083075797003,
            "name" : "\ud83d\udcc1coding-\u2742"
        },
        "channel_mentions" : [],
        "content" : "Depends on the person",
        "id" : 546361715961626624,
        "mention_everyone" : false,
        "mentions" : [],
        "pinned" : false,
        "role_mentions" : [],
        "timestamp" : "2019-02-16 16:06:23",
        "tts" : false
    },
    {
        "author" : {
            "bot" : false,
            "discriminator" : "6254",
            "display_name" : "T4HM-Death",
            "id" : 458604845322993688,
            "name" : "T4HM-Death"
        },
        "channel" : {
            "id" : 542223083075797003,
            "name" : "\ud83d\udcc1coding-\u2742"
        },
        "channel_mentions" : [],
        "content" : "It\u2019s really easy to learn",
        "id" : 546361456724148224,
        "mention_everyone" : false,
        "mentions" : [],
        "pinned" : false,
        "role_mentions" : [],
        "timestamp" : "2019-02-16 16:05:22",
        "tts" : false
    },
    {
        "author" : {
            "bot" : false,
            "discriminator" : "6254",
            "display_name" : "T4HM-Death",
            "id" : 458604845322993688,
            "name" : "T4HM-Death"
        },
        "channel" : {
            "id" : 542223083075797003,
            "name" : "\ud83d\udcc1coding-\u2742"
        },
        "channel_mentions" : [],
        "content" : "I know python",
        "id" : 546361428215332864,
        "mention_everyone" : false,
        "mentions" : [],
        "pinned" : false,
        "role_mentions" : [],
        "timestamp" : "2019-02-16 16:05:15",
        "tts" : false
    },
    {
        "author" : {
            "bot" : false,
            "discriminator" : "5638",
            "display_name" : "Simon Max",
            "id" : 533989850399899665,
            "name" : "JacquesMax"
        },
        "channel" : {
            "id" : 542223083075797003,
            "name" : "\ud83d\udcc1coding-\u2742"
        },
        "channel_mentions" : [],
        "content" : "but maybe over time",
        "id" : 546092760776572985,
        "mention_everyone" : false,
        "mentions" : [],
        "pinned" : false,
        "role_mentions" : [],
        "timestamp" : "2019-02-15 22:17:40",
        "tts" : false
    },
    {
        "author" : {
            "bot" : false,
            "discriminator" : "5638",
            "display_name" : "Simon Max",
            "id" : 533989850399899665,
            "name" : "JacquesMax"
        },
        "channel" : {
            "id" : 542223083075797003,
            "name" : "\ud83d\udcc1coding-\u2742"
        },
        "channel_mentions" : [],
        "content" : "nah. too difficult if u never did anything more realistic",
        "id" : 546092722491228226,
        "mention_everyone" : false,
        "mentions" : [],
        "pinned" : false,
        "role_mentions" : [],
        "timestamp" : "2019-02-15 22:17:30",
        "tts" : false
    },
    {
        "author" : {
            "bot" : false,
            "discriminator" : "5100",
            "display_name" : "Rebby",
            "id" : 513489971257147417,
            "name" : "Rebby"
        },
        "channel" : {
            "id" : 542223083075797003,
            "name" : "\ud83d\udcc1coding-\u2742"
        },
        "channel_mentions" : [],
        "content" : "should i learn python?",
        "id" : 546092504584552456,
        "mention_everyone" : false,
        "mentions" : [],
        "pinned" : false,
        "role_mentions" : [],
        "timestamp" : "2019-02-15 22:16:39",
        "tts" : false
    },
    {
        "author" : {
            "bot" : false,
            "discriminator" : "5638",
            "display_name" : "Simon Max",
            "id" : 533989850399899665,
            "name" : "JacquesMax"
        },
        "channel" : {
            "id" : 542223083075797003,
            "name" : "\ud83d\udcc1coding-\u2742"
        },
        "channel_mentions" : [],
        "content" : "only different library names",
        "id" : 546091964295282717,
        "mention_everyone" : false,
        "mentions" : [],
        "pinned" : false,
        "role_mentions" : [],
        "timestamp" : "2019-02-15 22:14:30",
        "tts" : false
    },
    {
        "author" : {
            "bot" : false,
            "discriminator" : "5638",
            "display_name" : "Simon Max",
            "id" : 533989850399899665,
            "name" : "JacquesMax"
        },
        "channel" : {
            "id" : 542223083075797003,
            "name" : "\ud83d\udcc1coding-\u2742"
        },
        "channel_mentions" : [],
        "content" : "the others are more or less identical",
        "id" : 546091936977780776,
        "mention_everyone" : false,
        "mentions" : [],
        "pinned" : false,
        "role_mentions" : [],
        "timestamp" : "2019-02-15 22:14:23",
        "tts" : false
    },
    {
        "author" : {
            "bot" : false,
            "discriminator" : "5100",
            "display_name" : "Rebby",
            "id" : 513489971257147417,
            "name" : "Rebby"
        },
        "channel" : {
            "id" : 542223083075797003,
            "name" : "\ud83d\udcc1coding-\u2742"
        },
        "channel_mentions" : [],
        "content" : "if you are saying",
        "id" : 546091838239670335,
        "mention_everyone" : false,
        "mentions" : [],
        "pinned" : false,
        "role_mentions" : [],
        "timestamp" : "2019-02-15 22:14:00",
        "tts" : false
    },
    {
        "author" : {
            "bot" : false,
            "discriminator" : "5638",
            "display_name" : "Simon Max",
            "id" : 533989850399899665,
            "name" : "JacquesMax"
        },
        "channel" : {
            "id" : 542223083075797003,
            "name" : "\ud83d\udcc1coding-\u2742"
        },
        "channel_mentions" : [],
        "content" : "C++ is all u need from there",
        "id" : 546091440305078291,
        "mention_everyone" : false,
        "mentions" : [],
        "pinned" : false,
        "role_mentions" : [],
        "timestamp" : "2019-02-15 22:12:25",
        "tts" : false
    },
    {
        "author" : {
            "bot" : false,
            "discriminator" : "5100",
            "display_name" : "Rebby",
            "id" : 513489971257147417,
            "name" : "Rebby"
        },
        "channel" : {
            "id" : 542223083075797003,
            "name" : "\ud83d\udcc1coding-\u2742"
        },
        "channel_mentions" : [],
        "content" : "i'm thinking of learning C, C++ and C#",
        "id" : 546091404103909386,
        "mention_everyone" : false,
        "mentions" : [],
        "pinned" : false,
        "role_mentions" : [],
        "timestamp" : "2019-02-15 22:12:16",
        "tts" : false
    },
    {
        "author" : {
            "bot" : false,
            "discriminator" : "5638",
            "display_name" : "Simon Max",
            "id" : 533989850399899665,
            "name" : "JacquesMax"
        },
        "channel" : {
            "id" : 542223083075797003,
            "name" : "\ud83d\udcc1coding-\u2742"
        },
        "channel_mentions" : [],
        "content" : "a little php & ruby too",
        "id" : 546091386714456082,
        "mention_everyone" : false,
        "mentions" : [],
        "pinned" : false,
        "role_mentions" : [],
        "timestamp" : "2019-02-15 22:12:12",
        "tts" : false
    },
    {
        "author" : {
            "bot" : false,
            "discriminator" : "5638",
            "display_name" : "Simon Max",
            "id" : 533989850399899665,
            "name" : "JacquesMax"
        },
        "channel" : {
            "id" : 542223083075797003,
            "name" : "\ud83d\udcc1coding-\u2742"
        },
        "channel_mentions" : [],
        "content" : "but overall favorite would be python",
        "id" : 546091281118396416,
        "mention_everyone" : false,
        "mentions" : [],
        "pinned" : false,
        "role_mentions" : [],
        "timestamp" : "2019-02-15 22:11:47",
        "tts" : false
    },
    {
        "author" : {
            "bot" : false,
            "discriminator" : "5638",
            "display_name" : "Simon Max",
            "id" : 533989850399899665,
            "name" : "JacquesMax"
        },
        "channel" : {
            "id" : 542223083075797003,
            "name" : "\ud83d\udcc1coding-\u2742"
        },
        "channel_mentions" : [],
        "content" : "lately playing around with java and opencv",
        "id" : 546091228815425613,
        "mention_everyone" : false,
        "mentions" : [],
        "pinned" : false,
        "role_mentions" : [],
        "timestamp" : "2019-02-15 22:11:34",
        "tts" : false
    },
    {
        "author" : {
            "bot" : false,
            "discriminator" : "5329",
            "display_name" : "ThugSavitar\u4e0a\u5e1d",
            "id" : 381159728363077633,
            "name" : "ThugSavitar\u4e0a\u5e1d"
        },
        "channel" : {
            "id" : 542223083075797003,
            "name" : "\ud83d\udcc1coding-\u2742"
        },
        "channel_mentions" : [],
        "content" : "\ud83d\ude02 \ud83d\ude02 \ud83d\ude02 \ud83d\ude02",
        "id" : 546091199816007691,
        "mention_everyone" : false,
        "mentions" : [],
        "pinned" : false,
        "role_mentions" : [],
        "timestamp" : "2019-02-15 22:11:27",
        "tts" : false
    },
    {
        "author" : {
            "bot" : false,
            "discriminator" : "5100",
            "display_name" : "Rebby",
            "id" : 513489971257147417,
            "name" : "Rebby"
        },
        "channel" : {
            "id" : 542223083075797003,
            "name" : "\ud83d\udcc1coding-\u2742"
        },
        "channel_mentions" : [],
        "content" : "yes",
        "id" : 546091053996834838,
        "mention_everyone" : false,
        "mentions" : [],
        "pinned" : false,
        "role_mentions" : [],
        "timestamp" : "2019-02-15 22:10:53",
        "tts" : false
    },
    {
        "author" : {
            "bot" : false,
            "discriminator" : "5638",
            "display_name" : "Simon Max",
            "id" : 533989850399899665,
            "name" : "JacquesMax"
        },
        "channel" : {
            "id" : 542223083075797003,
            "name" : "\ud83d\udcc1coding-\u2742"
        },
        "channel_mentions" : [],
        "content" : "me?",
        "id" : 546091029397504013,
        "mention_everyone" : false,
        "mentions" : [],
        "pinned" : false,
        "role_mentions" : [],
        "timestamp" : "2019-02-15 22:10:47",
        "tts" : false
    },
    {
        "author" : {
            "bot" : false,
            "discriminator" : "5100",
            "display_name" : "Rebby",
            "id" : 513489971257147417,
            "name" : "Rebby"
        },
        "channel" : {
            "id" : 542223083075797003,
            "name" : "\ud83d\udcc1coding-\u2742"
        },
        "channel_mentions" : [],
        "content" : "what programming languages do you know?",
        "id" : 546090981523718174,
        "mention_everyone" : false,
        "mentions" : [],
        "pinned" : false,
        "role_mentions" : [],
        "timestamp" : "2019-02-15 22:10:35",
        "tts" : false
    },
    {
        "author" : {
            "bot" : false,
            "discriminator" : "5638",
            "display_name" : "Simon Max",
            "id" : 533989850399899665,
            "name" : "JacquesMax"
        },
        "channel" : {
            "id" : 542223083075797003,
            "name" : "\ud83d\udcc1coding-\u2742"
        },
        "channel_mentions" : [],
        "content" : "i know way too much about it and computers",
        "id" : 546090754842296320,
        "mention_everyone" : false,
        "mentions" : [],
        "pinned" : false,
        "role_mentions" : [],
        "timestamp" : "2019-02-15 22:09:41",
        "tts" : false
    },
    {
        "author" : {
            "bot" : false,
            "discriminator" : "9877",
            "display_name" : "panda",
            "id" : 516826373663227908,
            "name" : "Enrique"
        },
        "channel" : {
            "id" : 542223083075797003,
            "name" : "\ud83d\udcc1coding-\u2742"
        },
        "channel_mentions" : [],
        "content" : "I know nothing about coding",
        "id" : 546090704246669332,
        "mention_everyone" : false,
        "mentions" : [],
        "pinned" : false,
        "role_mentions" : [],
        "timestamp" : "2019-02-15 22:09:29",
        "tts" : false
    },
    {
        "author" : {
            "bot" : false,
            "discriminator" : "5638",
            "display_name" : "Simon Max",
            "id" : 533989850399899665,
            "name" : "JacquesMax"
        },
        "channel" : {
            "id" : 542223083075797003,
            "name" : "\ud83d\udcc1coding-\u2742"
        },
        "channel_mentions" : [],
        "content" : "<@513489971257147417> ?",
        "id" : 546090654309154837,
        "mention_everyone" : false,
        "mentions" : [],
        "pinned" : false,
        "role_mentions" : [],
        "timestamp" : "2019-02-15 22:09:17",
        "tts" : false
    },
    {
        "author" : {
            "bot" : false,
            "discriminator" : "9877",
            "display_name" : "panda",
            "id" : 516826373663227908,
            "name" : "Enrique"
        },
        "channel" : {
            "id" : 542223083075797003,
            "name" : "\ud83d\udcc1coding-\u2742"
        },
        "channel_mentions" : [],
        "content" : "Shut up",
        "id" : 546090642938396692,
        "mention_everyone" : false,
        "mentions" : [],
        "pinned" : false,
        "role_mentions" : [],
        "timestamp" : "2019-02-15 22:09:15",
        "tts" : false
    },
    {
        "author" : {
            "bot" : false,
            "discriminator" : "5329",
            "display_name" : "ThugSavitar\u4e0a\u5e1d",
            "id" : 381159728363077633,
            "name" : "ThugSavitar\u4e0a\u5e1d"
        },
        "channel" : {
            "id" : 542223083075797003,
            "name" : "\ud83d\udcc1coding-\u2742"
        },
        "channel_mentions" : [],
        "content" : "for no reason",
        "id" : 546090619957673985,
        "mention_everyone" : false,
        "mentions" : [],
        "pinned" : false,
        "role_mentions" : [],
        "timestamp" : "2019-02-15 22:09:09",
        "tts" : false
    },
    {
        "author" : {
            "bot" : false,
            "discriminator" : "5329",
            "display_name" : "ThugSavitar\u4e0a\u5e1d",
            "id" : 381159728363077633,
            "name" : "ThugSavitar\u4e0a\u5e1d"
        },
        "channel" : {
            "id" : 542223083075797003,
            "name" : "\ud83d\udcc1coding-\u2742"
        },
        "channel_mentions" : [],
        "content" : "nope",
        "id" : 546090601398140961,
        "mention_everyone" : false,
        "mentions" : [],
        "pinned" : false,
        "role_mentions" : [],
        "timestamp" : "2019-02-15 22:09:05",
        "tts" : false
    },
    {
        "author" : {
            "bot" : false,
            "discriminator" : "5638",
            "display_name" : "Simon Max",
            "id" : 533989850399899665,
            "name" : "JacquesMax"
        },
        "channel" : {
            "id" : 542223083075797003,
            "name" : "\ud83d\udcc1coding-\u2742"
        },
        "channel_mentions" : [],
        "content" : "maybe u just said something that offended her",
        "id" : 546090554174341160,
        "mention_everyone" : false,
        "mentions" : [],
        "pinned" : false,
        "role_mentions" : [],
        "timestamp" : "2019-02-15 22:08:53",
        "tts" : false
    },
    {
        "author" : {
            "bot" : false,
            "discriminator" : "5329",
            "display_name" : "ThugSavitar\u4e0a\u5e1d",
            "id" : 381159728363077633,
            "name" : "ThugSavitar\u4e0a\u5e1d"
        },
        "channel" : {
            "id" : 542223083075797003,
            "name" : "\ud83d\udcc1coding-\u2742"
        },
        "channel_mentions" : [],
        "content" : "for no reason",
        "id" : 546090184454832139,
        "mention_everyone" : false,
        "mentions" : [],
        "pinned" : false,
        "role_mentions" : [],
        "timestamp" : "2019-02-15 22:07:25",
        "tts" : false
    },
    {
        "author" : {
            "bot" : false,
            "discriminator" : "5638",
            "display_name" : "Simon Max",
            "id" : 533989850399899665,
            "name" : "JacquesMax"
        },
        "channel" : {
            "id" : 542223083075797003,
            "name" : "\ud83d\udcc1coding-\u2742"
        },
        "channel_mentions" : [],
        "content" : "for no reason?",
        "id" : 546090153953853442,
        "mention_everyone" : false,
        "mentions" : [],
        "pinned" : false,
        "role_mentions" : [],
        "timestamp" : "2019-02-15 22:07:18",
        "tts" : false
    },
    {
        "author" : {
            "bot" : false,
            "discriminator" : "5329",
            "display_name" : "ThugSavitar\u4e0a\u5e1d",
            "id" : 381159728363077633,
            "name" : "ThugSavitar\u4e0a\u5e1d"
        },
        "channel" : {
            "id" : 542223083075797003,
            "name" : "\ud83d\udcc1coding-\u2742"
        },
        "channel_mentions" : [],
        "content" : "oof",
        "id" : 546090087843364903,
        "mention_everyone" : false,
        "mentions" : [],
        "pinned" : false,
        "role_mentions" : [],
        "timestamp" : "2019-02-15 22:07:02",
        "tts" : false
    },
    {
        "author" : {
            "bot" : false,
            "discriminator" : "5329",
            "display_name" : "ThugSavitar\u4e0a\u5e1d",
            "id" : 381159728363077633,
            "name" : "ThugSavitar\u4e0a\u5e1d"
        },
        "channel" : {
            "id" : 542223083075797003,
            "name" : "\ud83d\udcc1coding-\u2742"
        },
        "channel_mentions" : [],
        "content" : "and you know how to block me",
        "id" : 546090068796899359,
        "mention_everyone" : false,
        "mentions" : [],
        "pinned" : false,
        "role_mentions" : [],
        "timestamp" : "2019-02-15 22:06:58",
        "tts" : false
    },
    {
        "author" : {
            "bot" : false,
            "discriminator" : "5100",
            "display_name" : "Rebby",
            "id" : 513489971257147417,
            "name" : "Rebby"
        },
        "channel" : {
            "id" : 542223083075797003,
            "name" : "\ud83d\udcc1coding-\u2742"
        },
        "channel_mentions" : [],
        "content" : "i already know PHP, HTML5, CSS3 and JavaScript",
        "id" : 546089895157039131,
        "mention_everyone" : false,
        "mentions" : [],
        "pinned" : false,
        "role_mentions" : [],
        "timestamp" : "2019-02-15 22:06:16",
        "tts" : false
    },
    {
        "author" : {
            "bot" : false,
            "discriminator" : "5329",
            "display_name" : "ThugSavitar\u4e0a\u5e1d",
            "id" : 381159728363077633,
            "name" : "ThugSavitar\u4e0a\u5e1d"
        },
        "channel" : {
            "id" : 542223083075797003,
            "name" : "\ud83d\udcc1coding-\u2742"
        },
        "channel_mentions" : [],
        "content" : "simon pm me",
        "id" : 546089841776001043,
        "mention_everyone" : false,
        "mentions" : [],
        "pinned" : false,
        "role_mentions" : [],
        "timestamp" : "2019-02-15 22:06:04",
        "tts" : false
    },
    {
        "author" : {
            "bot" : false,
            "discriminator" : "5638",
            "display_name" : "Simon Max",
            "id" : 533989850399899665,
            "name" : "JacquesMax"
        },
        "channel" : {
            "id" : 542223083075797003,
            "name" : "\ud83d\udcc1coding-\u2742"
        },
        "channel_mentions" : [],
        "content" : "know already some things or wanna learn?",
        "id" : 546089793344241788,
        "mention_everyone" : false,
        "mentions" : [],
        "pinned" : false,
        "role_mentions" : [],
        "timestamp" : "2019-02-15 22:05:52",
        "tts" : false
    },
    {
        "author" : {
            "bot" : false,
            "discriminator" : "5100",
            "display_name" : "Rebby",
            "id" : 513489971257147417,
            "name" : "Rebby"
        },
        "channel" : {
            "id" : 542223083075797003,
            "name" : "\ud83d\udcc1coding-\u2742"
        },
        "channel_mentions" : [],
        "content" : "yes",
        "id" : 546089740454199336,
        "mention_everyone" : false,
        "mentions" : [],
        "pinned" : false,
        "role_mentions" : [],
        "timestamp" : "2019-02-15 22:05:39",
        "tts" : false
    },
    {
        "author" : {
            "bot" : false,
            "discriminator" : "5638",
            "display_name" : "Simon Max",
            "id" : 533989850399899665,
            "name" : "JacquesMax"
        },
        "channel" : {
            "id" : 542223083075797003,
            "name" : "\ud83d\udcc1coding-\u2742"
        },
        "channel_mentions" : [],
        "content" : "so u interested in coding? <@513489971257147417>",
        "id" : 546089718526377989,
        "mention_everyone" : false,
        "mentions" : [],
        "pinned" : false,
        "role_mentions" : [],
        "timestamp" : "2019-02-15 22:05:34",
        "tts" : false
    },
    {
        "author" : {
            "bot" : false,
            "discriminator" : "5638",
            "display_name" : "Simon Max",
            "id" : 533989850399899665,
            "name" : "JacquesMax"
        },
        "channel" : {
            "id" : 542223083075797003,
            "name" : "\ud83d\udcc1coding-\u2742"
        },
        "channel_mentions" : [],
        "content" : "hi Thug",
        "id" : 546089594274447380,
        "mention_everyone" : false,
        "mentions" : [],
        "pinned" : false,
        "role_mentions" : [],
        "timestamp" : "2019-02-15 22:05:05",
        "tts" : false
    },
    {
        "author" : {
            "bot" : false,
            "discriminator" : "5638",
            "display_name" : "Simon Max",
            "id" : 533989850399899665,
            "name" : "JacquesMax"
        },
        "channel" : {
            "id" : 542223083075797003,
            "name" : "\ud83d\udcc1coding-\u2742"
        },
        "channel_mentions" : [],
        "content" : ":3",
        "id" : 546089559839211550,
        "mention_everyone" : false,
        "mentions" : [],
        "pinned" : false,
        "role_mentions" : [],
        "timestamp" : "2019-02-15 22:04:56",
        "tts" : false
    },
    {
        "author" : {
            "bot" : false,
            "discriminator" : "5329",
            "display_name" : "ThugSavitar\u4e0a\u5e1d",
            "id" : 381159728363077633,
            "name" : "ThugSavitar\u4e0a\u5e1d"
        },
        "channel" : {
            "id" : 542223083075797003,
            "name" : "\ud83d\udcc1coding-\u2742"
        },
        "channel_mentions" : [],
        "content" : "<:PepeYikes:542421343350816772>",
        "id" : 546089555447644160,
        "mention_everyone" : false,
        "mentions" : [],
        "pinned" : false,
        "role_mentions" : [],
        "timestamp" : "2019-02-15 22:04:55",
        "tts" : false
    },
    {
        "author" : {
            "bot" : false,
            "discriminator" : "5638",
            "display_name" : "Simon Max",
            "id" : 533989850399899665,
            "name" : "JacquesMax"
        },
        "channel" : {
            "id" : 542223083075797003,
            "name" : "\ud83d\udcc1coding-\u2742"
        },
        "channel_mentions" : [],
        "content" : "here the moon and some clouds",
        "id" : 546089552490528812,
        "mention_everyone" : false,
        "mentions" : [],
        "pinned" : false,
        "role_mentions" : [],
        "timestamp" : "2019-02-15 22:04:55",
        "tts" : false
    },
    {
        "author" : {
            "bot" : false,
            "discriminator" : "5100",
            "display_name" : "Rebby",
            "id" : 513489971257147417,
            "name" : "Rebby"
        },
        "channel" : {
            "id" : 542223083075797003,
            "name" : "\ud83d\udcc1coding-\u2742"
        },
        "channel_mentions" : [],
        "content" : "the sky",
        "id" : 546089513114533918,
        "mention_everyone" : false,
        "mentions" : [],
        "pinned" : false,
        "role_mentions" : [],
        "timestamp" : "2019-02-15 22:04:45",
        "tts" : false
    },
    {
        "author" : {
            "bot" : false,
            "discriminator" : "5638",
            "display_name" : "Simon Max",
            "id" : 533989850399899665,
            "name" : "JacquesMax"
        },
        "channel" : {
            "id" : 542223083075797003,
            "name" : "\ud83d\udcc1coding-\u2742"
        },
        "channel_mentions" : [],
        "content" : "what's up?",
        "id" : 546089482533863424,
        "mention_everyone" : false,
        "mentions" : [],
        "pinned" : false,
        "role_mentions" : [],
        "timestamp" : "2019-02-15 22:04:38",
        "tts" : false
    },
    {
        "author" : {
            "bot" : false,
            "discriminator" : "5100",
            "display_name" : "Rebby",
            "id" : 513489971257147417,
            "name" : "Rebby"
        },
        "channel" : {
            "id" : 542223083075797003,
            "name" : "\ud83d\udcc1coding-\u2742"
        },
        "channel_mentions" : [],
        "content" : "hi",
        "id" : 546089464137777162,
        "mention_everyone" : false,
        "mentions" : [],
        "pinned" : false,
        "role_mentions" : [],
        "timestamp" : "2019-02-15 22:04:34",
        "tts" : false
    },
    {
        "author" : {
            "bot" : false,
            "discriminator" : "5638",
            "display_name" : "Simon Max",
            "id" : 533989850399899665,
            "name" : "JacquesMax"
        },
        "channel" : {
            "id" : 542223083075797003,
            "name" : "\ud83d\udcc1coding-\u2742"
        },
        "channel_mentions" : [],
        "content" : "hi",
        "id" : 546089450237853716,
        "mention_everyone" : false,
        "mentions" : [],
        "pinned" : false,
        "role_mentions" : [],
        "timestamp" : "2019-02-15 22:04:30",
        "tts" : false
    },
    {
        "author" : {
            "bot" : false,
            "discriminator" : "5100",
            "display_name" : "Rebby",
            "id" : 513489971257147417,
            "name" : "Rebby"
        },
        "channel" : {
            "id" : 542223083075797003,
            "name" : "\ud83d\udcc1coding-\u2742"
        },
        "channel_mentions" : [],
        "content" : "is someone here?",
        "id" : 546089413260869652,
        "mention_everyone" : false,
        "mentions" : [],
        "pinned" : false,
        "role_mentions" : [],
        "timestamp" : "2019-02-15 22:04:21",
        "tts" : false
    },
    {
        "author" : {
            "bot" : false,
            "discriminator" : "8773",
            "display_name" : "Spartanslayer9001",
            "id" : 396047335232241665,
            "name" : "Spartanslayer9001"
        },
        "channel" : {
            "id" : 542223083075797003,
            "name" : "\ud83d\udcc1coding-\u2742"
        },
        "channel_mentions" : [],
        "content" : "Lol.",
        "id" : 544952788459847710,
        "mention_everyone" : false,
        "mentions" : [],
        "pinned" : false,
        "role_mentions" : [],
        "timestamp" : "2019-02-12 18:47:49",
        "tts" : false
    },
    {
        "author" : {
            "bot" : false,
            "discriminator" : "0530",
            "display_name" : "Isolated Boy",
            "id" : 540503510614147087,
            "name" : "Isolated Boy"
        },
        "channel" : {
            "id" : 542223083075797003,
            "name" : "\ud83d\udcc1coding-\u2742"
        },
        "channel_mentions" : [],
        "content" : "k",
        "id" : 544952540975071232,
        "mention_everyone" : false,
        "mentions" : [],
        "pinned" : false,
        "role_mentions" : [],
        "timestamp" : "2019-02-12 18:46:50",
        "tts" : false
    },
    {
        "author" : {
            "bot" : false,
            "discriminator" : "0530",
            "display_name" : "Isolated Boy",
            "id" : 540503510614147087,
            "name" : "Isolated Boy"
        },
        "channel" : {
            "id" : 542223083075797003,
            "name" : "\ud83d\udcc1coding-\u2742"
        },
        "channel_mentions" : [],
        "content" : "Lol",
        "id" : 544952537292210178,
        "mention_everyone" : false,
        "mentions" : [],
        "pinned" : false,
        "role_mentions" : [],
        "timestamp" : "2019-02-12 18:46:49",
        "tts" : false
    },
    {
        "author" : {
            "bot" : false,
            "discriminator" : "9119",
            "display_name" : "Syuri",
            "id" : 232124053220098048,
            "name" : "Syuri"
        },
        "channel" : {
            "id" : 542223083075797003,
            "name" : "\ud83d\udcc1coding-\u2742"
        },
        "channel_mentions" : [],
        "content" : "done",
        "id" : 544952433764466722,
        "mention_everyone" : false,
        "mentions" : [],
        "pinned" : false,
        "role_mentions" : [],
        "timestamp" : "2019-02-12 18:46:24",
        "tts" : false
    },
    {
        "author" : {
            "bot" : false,
            "discriminator" : "9119",
            "display_name" : "Syuri",
            "id" : 232124053220098048,
            "name" : "Syuri"
        },
        "channel" : {
            "id" : 542223083075797003,
            "name" : "\ud83d\udcc1coding-\u2742"
        },
        "channel_mentions" : [],
        "content" : "*stabs you*",
        "id" : 544952410200735784,
        "mention_everyone" : false,
        "mentions" : [],
        "pinned" : false,
        "role_mentions" : [],
        "timestamp" : "2019-02-12 18:46:19",
        "tts" : false
    },
    {
        "author" : {
            "bot" : false,
            "discriminator" : "9119",
            "display_name" : "Syuri",
            "id" : 232124053220098048,
            "name" : "Syuri"
        },
        "channel" : {
            "id" : 542223083075797003,
            "name" : "\ud83d\udcc1coding-\u2742"
        },
        "channel_mentions" : [],
        "content" : "/give diamond_sword",
        "id" : 544952379762671626,
        "mention_everyone" : false,
        "mentions" : [],
        "pinned" : false,
        "role_mentions" : [],
        "timestamp" : "2019-02-12 18:46:12",
        "tts" : false
    },
    {
        "author" : {
            "bot" : false,
            "discriminator" : "9119",
            "display_name" : "Syuri",
            "id" : 232124053220098048,
            "name" : "Syuri"
        },
        "channel" : {
            "id" : 542223083075797003,
            "name" : "\ud83d\udcc1coding-\u2742"
        },
        "channel_mentions" : [],
        "content" : "no",
        "id" : 544952357281202202,
        "mention_everyone" : false,
        "mentions" : [],
        "pinned" : false,
        "role_mentions" : [],
        "timestamp" : "2019-02-12 18:46:06",
        "tts" : false
    },
    {
        "author" : {
            "bot" : false,
            "discriminator" : "0530",
            "display_name" : "Isolated Boy",
            "id" : 540503510614147087,
            "name" : "Isolated Boy"
        },
        "channel" : {
            "id" : 542223083075797003,
            "name" : "\ud83d\udcc1coding-\u2742"
        },
        "channel_mentions" : [],
        "content" : "Yep",
        "id" : 544934104140087297,
        "mention_everyone" : false,
        "mentions" : [],
        "pinned" : false,
        "role_mentions" : [],
        "timestamp" : "2019-02-12 17:33:34",
        "tts" : false
    },
    {
        "author" : {
            "bot" : false,
            "discriminator" : "7884",
            "display_name" : "Mr big dick no soul",
            "id" : 210382421428928513,
            "name" : "Kazumi"
        },
        "channel" : {
            "id" : 542223083075797003,
            "name" : "\ud83d\udcc1coding-\u2742"
        },
        "channel_mentions" : [],
        "content" : "<@540503510614147087> visual basic and visual studio are good starts",
        "id" : 544934044715188264,
        "mention_everyone" : false,
        "mentions" : [
            {
                "bot" : false,
                "discriminator" : "0530",
                "display_name" : "Isolated Boy",
                "id" : 540503510614147087,
                "name" : "Isolated Boy"
            }
        ],
        "pinned" : false,
        "role_mentions" : [],
        "timestamp" : "2019-02-12 17:33:20",
        "tts" : false
    },
    {
        "author" : {
            "bot" : false,
            "discriminator" : "9119",
            "display_name" : "Syuri",
            "id" : 232124053220098048,
            "name" : "Syuri"
        },
        "channel" : {
            "id" : 542223083075797003,
            "name" : "\ud83d\udcc1coding-\u2742"
        },
        "channel_mentions" : [],
        "content" : "/gamemode 1",
        "id" : 544713540213407754,
        "mention_everyone" : false,
        "mentions" : [],
        "pinned" : false,
        "role_mentions" : [],
        "timestamp" : "2019-02-12 02:57:08",
        "tts" : false
    },
    {
        "author" : {
            "bot" : false,
            "discriminator" : "8810",
            "display_name" : "overdrive",
            "id" : 499992142048002049,
            "name" : "overdrive"
        },
        "channel" : {
            "id" : 542223083075797003,
            "name" : "\ud83d\udcc1coding-\u2742"
        },
        "channel_mentions" : [],
        "content" : "I dont actually have that skill",
        "id" : 544632230513999873,
        "mention_everyone" : false,
        "mentions" : [],
        "pinned" : false,
        "role_mentions" : [],
        "timestamp" : "2019-02-11 21:34:02",
        "tts" : false
    },
    {
        "author" : {
            "bot" : true,
            "discriminator" : "8792",
            "display_name" : "Tatsumaki",
            "id" : 172002275412279296,
            "name" : "Tatsumaki"
        },
        "channel" : {
            "id" : 542223083075797003,
            "name" : "\ud83d\udcc1coding-\u2742"
        },
        "channel_mentions" : [],
        "content" : "\ud83c\udd99  |  **overdrive leveled up!**",
        "id" : 544632190873370679,
        "mention_everyone" : false,
        "mentions" : [],
        "pinned" : false,
        "role_mentions" : [],
        "timestamp" : "2019-02-11 21:33:53",
        "tts" : false
    },
    {
        "author" : {
            "bot" : false,
            "discriminator" : "8810",
            "display_name" : "overdrive",
            "id" : 499992142048002049,
            "name" : "overdrive"
        },
        "channel" : {
            "id" : 542223083075797003,
            "name" : "\ud83d\udcc1coding-\u2742"
        },
        "channel_mentions" : [],
        "content" : "I was joking",
        "id" : 544632188482879489,
        "mention_everyone" : false,
        "mentions" : [],
        "pinned" : false,
        "role_mentions" : [],
        "timestamp" : "2019-02-11 21:33:52",
        "tts" : false
    },
    {
        "author" : {
            "bot" : false,
            "discriminator" : "3673",
            "display_name" : "Emerald\u2122",
            "id" : 494651352098799618,
            "name" : "Emerald\u2122"
        },
        "channel" : {
            "id" : 542223083075797003,
            "name" : "\ud83d\udcc1coding-\u2742"
        },
        "channel_mentions" : [],
        "content" : "pings",
        "id" : 544629934073708556,
        "mention_everyone" : false,
        "mentions" : [],
        "pinned" : false,
        "role_mentions" : [],
        "timestamp" : "2019-02-11 21:24:55",
        "tts" : false
    },
    {
        "author" : {
            "bot" : false,
            "discriminator" : "3673",
            "display_name" : "Emerald\u2122",
            "id" : 494651352098799618,
            "name" : "Emerald\u2122"
        },
        "channel" : {
            "id" : 542223083075797003,
            "name" : "\ud83d\udcc1coding-\u2742"
        },
        "channel_mentions" : [],
        "content" : "why so many",
        "id" : 544629924410032152,
        "mention_everyone" : false,
        "mentions" : [],
        "pinned" : false,
        "role_mentions" : [],
        "timestamp" : "2019-02-11 21:24:52",
        "tts" : false
    },
    {
        "author" : {
            "bot" : false,
            "discriminator" : "4087",
            "display_name" : "A Fruit",
            "id" : 423967732787183617,
            "name" : "A Fruit"
        },
        "channel" : {
            "id" : 542223083075797003,
            "name" : "\ud83d\udcc1coding-\u2742"
        },
        "channel_mentions" : [],
        "content" : "Jesus!",
        "id" : 544629739042635799,
        "mention_everyone" : false,
        "mentions" : [],
        "pinned" : false,
        "role_mentions" : [],
        "timestamp" : "2019-02-11 21:24:08",
        "tts" : false
    },
    {
        "author" : {
            "bot" : false,
            "discriminator" : "8773",
            "display_name" : "Spartanslayer9001",
            "id" : 396047335232241665,
            "name" : "Spartanslayer9001"
        },
        "channel" : {
            "id" : 542223083075797003,
            "name" : "\ud83d\udcc1coding-\u2742"
        },
        "channel_mentions" : [],
        "content" : "Yup.",
        "id" : 544629698940895252,
        "mention_everyone" : false,
        "mentions" : [],
        "pinned" : false,
        "role_mentions" : [],
        "timestamp" : "2019-02-11 21:23:58",
        "tts" : false
    },
    {
        "author" : {
            "bot" : false,
            "discriminator" : "4087",
            "display_name" : "A Fruit",
            "id" : 423967732787183617,
            "name" : "A Fruit"
        },
        "channel" : {
            "id" : 542223083075797003,
            "name" : "\ud83d\udcc1coding-\u2742"
        },
        "channel_mentions" : [],
        "content" : "So it was them????",
        "id" : 544629686878076979,
        "mention_everyone" : false,
        "mentions" : [],
        "pinned" : false,
        "role_mentions" : [],
        "timestamp" : "2019-02-11 21:23:56",
        "tts" : false
    },
    {
        "author" : {
            "bot" : false,
            "discriminator" : "8773",
            "display_name" : "Spartanslayer9001",
            "id" : 396047335232241665,
            "name" : "Spartanslayer9001"
        },
        "channel" : {
            "id" : 542223083075797003,
            "name" : "\ud83d\udcc1coding-\u2742"
        },
        "channel_mentions" : [],
        "content" : "He's not doing it from a script.",
        "id" : 544629678594588676,
        "mention_everyone" : false,
        "mentions" : [],
        "pinned" : false,
        "role_mentions" : [],
        "timestamp" : "2019-02-11 21:23:54",
        "tts" : false
    },
    {
        "author" : {
            "bot" : false,
            "discriminator" : "0530",
            "display_name" : "Isolated Boy",
            "id" : 540503510614147087,
            "name" : "Isolated Boy"
        },
        "channel" : {
            "id" : 542223083075797003,
            "name" : "\ud83d\udcc1coding-\u2742"
        },
        "channel_mentions" : [],
        "content" : "Lmfao",
        "id" : 544629480841412614,
        "mention_everyone" : false,
        "mentions" : [],
        "pinned" : false,
        "role_mentions" : [],
        "timestamp" : "2019-02-11 21:23:06",
        "tts" : false
    },
    {
        "author" : {
            "bot" : false,
            "discriminator" : "8773",
            "display_name" : "Spartanslayer9001",
            "id" : 396047335232241665,
            "name" : "Spartanslayer9001"
        },
        "channel" : {
            "id" : 542223083075797003,
            "name" : "\ud83d\udcc1coding-\u2742"
        },
        "channel_mentions" : [],
        "content" : "Banned.",
        "id" : 544629450189307915,
        "mention_everyone" : false,
        "mentions" : [],
        "pinned" : false,
        "role_mentions" : [],
        "timestamp" : "2019-02-11 21:22:59",
        "tts" : false
    },
    {
        "author" : {
            "bot" : false,
            "discriminator" : "0530",
            "display_name" : "Isolated Boy",
            "id" : 540503510614147087,
            "name" : "Isolated Boy"
        },
        "channel" : {
            "id" : 542223083075797003,
            "name" : "\ud83d\udcc1coding-\u2742"
        },
        "channel_mentions" : [],
        "content" : "Tf",
        "id" : 544629421638680696,
        "mention_everyone" : false,
        "mentions" : [],
        "pinned" : false,
        "role_mentions" : [],
        "timestamp" : "2019-02-11 21:22:52",
        "tts" : false
    },
    {
        "author" : {
            "bot" : false,
            "discriminator" : "0530",
            "display_name" : "Isolated Boy",
            "id" : 540503510614147087,
            "name" : "Isolated Boy"
        },
        "channel" : {
            "id" : 542223083075797003,
            "name" : "\ud83d\udcc1coding-\u2742"
        },
        "channel_mentions" : [],
        "content" : "Wow",
        "id" : 544629412663132181,
        "mention_everyone" : false,
        "mentions" : [],
        "pinned" : false,
        "role_mentions" : [],
        "timestamp" : "2019-02-11 21:22:50",
        "tts" : false
    },
    {
        "author" : {
            "bot" : false,
            "discriminator" : "4087",
            "display_name" : "A Fruit",
            "id" : 423967732787183617,
            "name" : "A Fruit"
        },
        "channel" : {
            "id" : 542223083075797003,
            "name" : "\ud83d\udcc1coding-\u2742"
        },
        "channel_mentions" : [],
        "content" : "Everyone",
        "id" : 544626630945931264,
        "mention_everyone" : false,
        "mentions" : [],
        "pinned" : false,
        "role_mentions" : [],
        "timestamp" : "2019-02-11 21:11:47",
        "tts" : false
    },
    {
        "author" : {
            "bot" : false,
            "discriminator" : "4087",
            "display_name" : "A Fruit",
            "id" : 423967732787183617,
            "name" : "A Fruit"
        },
        "channel" : {
            "id" : 542223083075797003,
            "name" : "\ud83d\udcc1coding-\u2742"
        },
        "channel_mentions" : [],
        "content" : "ating",
        "id" : 544626612944109568,
        "mention_everyone" : false,
        "mentions" : [],
        "pinned" : false,
        "role_mentions" : [],
        "timestamp" : "2019-02-11 21:11:43",
        "tts" : false
    },
    {
        "author" : {
            "bot" : false,
            "discriminator" : "4087",
            "display_name" : "A Fruit",
            "id" : 423967732787183617,
            "name" : "A Fruit"
        },
        "channel" : {
            "id" : 542223083075797003,
            "name" : "\ud83d\udcc1coding-\u2742"
        },
        "channel_mentions" : [],
        "content" : "<@499992142048002049> stop",
        "id" : 544626590261182474,
        "mention_everyone" : false,
        "mentions" : [
            {
                "bot" : false,
                "discriminator" : "8810",
                "display_name" : "overdrive",
                "id" : 499992142048002049,
                "name" : "overdrive"
            }
        ],
        "pinned" : false,
        "role_mentions" : [],
        "timestamp" : "2019-02-11 21:11:37",
        "tts" : false
    },
    {
        "author" : {
            "bot" : false,
            "discriminator" : "9877",
            "display_name" : "panda",
            "id" : 516826373663227908,
            "name" : "Enrique"
        },
        "channel" : {
            "id" : 542223083075797003,
            "name" : "\ud83d\udcc1coding-\u2742"
        },
        "channel_mentions" : [],
        "content" : "<:blobhyperthink:542421343006752788>",
        "id" : 544625552414212098,
        "mention_everyone" : false,
        "mentions" : [],
        "pinned" : false,
        "role_mentions" : [],
        "timestamp" : "2019-02-11 21:07:30",
        "tts" : false
    },
    {
        "author" : {
            "bot" : false,
            "discriminator" : "9877",
            "display_name" : "panda",
            "id" : 516826373663227908,
            "name" : "Enrique"
        },
        "channel" : {
            "id" : 542223083075797003,
            "name" : "\ud83d\udcc1coding-\u2742"
        },
        "channel_mentions" : [],
        "content" : "That means your grandpa is sav",
        "id" : 544625508105584640,
        "mention_everyone" : false,
        "mentions" : [],
        "pinned" : false,
        "role_mentions" : [],
        "timestamp" : "2019-02-11 21:07:19",
        "tts" : false
    },
    {
        "author" : {
            "bot" : false,
            "discriminator" : "9877",
            "display_name" : "panda",
            "id" : 516826373663227908,
            "name" : "Enrique"
        },
        "channel" : {
            "id" : 542223083075797003,
            "name" : "\ud83d\udcc1coding-\u2742"
        },
        "channel_mentions" : [],
        "content" : "Oof",
        "id" : 544625455811264542,
        "mention_everyone" : false,
        "mentions" : [],
        "pinned" : false,
        "role_mentions" : [],
        "timestamp" : "2019-02-11 21:07:07",
        "tts" : false
    },
    {
        "author" : {
            "bot" : false,
            "discriminator" : "9877",
            "display_name" : "panda",
            "id" : 516826373663227908,
            "name" : "Enrique"
        },
        "channel" : {
            "id" : 542223083075797003,
            "name" : "\ud83d\udcc1coding-\u2742"
        },
        "channel_mentions" : [],
        "content" : "Lol",
        "id" : 544625408998637571,
        "mention_everyone" : false,
        "mentions" : [],
        "pinned" : false,
        "role_mentions" : [],
        "timestamp" : "2019-02-11 21:06:56",
        "tts" : false
    },
    {
        "author" : {
            "bot" : false,
            "discriminator" : "9877",
            "display_name" : "panda",
            "id" : 516826373663227908,
            "name" : "Enrique"
        },
        "channel" : {
            "id" : 542223083075797003,
            "name" : "\ud83d\udcc1coding-\u2742"
        },
        "channel_mentions" : [],
        "content" : "Read mate",
        "id" : 544625345798733825,
        "mention_everyone" : false,
        "mentions" : [],
        "pinned" : false,
        "role_mentions" : [],
        "timestamp" : "2019-02-11 21:06:41",
        "tts" : false
    },
    {
        "author" : {
            "bot" : false,
            "discriminator" : "0530",
            "display_name" : "Isolated Boy",
            "id" : 540503510614147087,
            "name" : "Isolated Boy"
        },
        "channel" : {
            "id" : 542223083075797003,
            "name" : "\ud83d\udcc1coding-\u2742"
        },
        "channel_mentions" : [],
        "content" : "Oh",
        "id" : 544625273824346124,
        "mention_everyone" : false,
        "mentions" : [],
        "pinned" : false,
        "role_mentions" : [],
        "timestamp" : "2019-02-11 21:06:23",
        "tts" : false
    },
    {
        "author" : {
            "bot" : false,
            "discriminator" : "8810",
            "display_name" : "overdrive",
            "id" : 499992142048002049,
            "name" : "overdrive"
        },
        "channel" : {
            "id" : 542223083075797003,
            "name" : "\ud83d\udcc1coding-\u2742"
        },
        "channel_mentions" : [],
        "content" : "i used a code",
        "id" : 544625242299957268,
        "mention_everyone" : false,
        "mentions" : [],
        "pinned" : false,
        "role_mentions" : [],
        "timestamp" : "2019-02-11 21:06:16",
        "tts" : false
    },
    {
        "author" : {
            "bot" : false,
            "discriminator" : "9877",
            "display_name" : "panda",
            "id" : 516826373663227908,
            "name" : "Enrique"
        },
        "channel" : {
            "id" : 542223083075797003,
            "name" : "\ud83d\udcc1coding-\u2742"
        },
        "channel_mentions" : [],
        "content" : "Oof",
        "id" : 544625228886573058,
        "mention_everyone" : false,
        "mentions" : [],
        "pinned" : false,
        "role_mentions" : [],
        "timestamp" : "2019-02-11 21:06:13",
        "tts" : false
    },
    {
        "author" : {
            "bot" : false,
            "discriminator" : "8810",
            "display_name" : "overdrive",
            "id" : 499992142048002049,
            "name" : "overdrive"
        },
        "channel" : {
            "id" : 542223083075797003,
            "name" : "\ud83d\udcc1coding-\u2742"
        },
        "channel_mentions" : [],
        "content" : "everyone got pinged",
        "id" : 544625212289974274,
        "mention_everyone" : false,
        "mentions" : [],
        "pinned" : false,
        "role_mentions" : [],
        "timestamp" : "2019-02-11 21:06:09",
        "tts" : false
    },
    {
        "author" : {
            "bot" : false,
            "discriminator" : "8810",
            "display_name" : "overdrive",
            "id" : 499992142048002049,
            "name" : "overdrive"
        },
        "channel" : {
            "id" : 542223083075797003,
            "name" : "\ud83d\udcc1coding-\u2742"
        },
        "channel_mentions" : [],
        "content" : "<@!423967732787183617> i coded it",
        "id" : 544625202387222528,
        "mention_everyone" : false,
        "mentions" : [
            {
                "bot" : false,
                "discriminator" : "4087",
                "display_name" : "A Fruit",
                "id" : 423967732787183617,
                "name" : "A Fruit"
            }
        ],
        "pinned" : false,
        "role_mentions" : [],
        "timestamp" : "2019-02-11 21:06:06",
        "tts" : false
    },
    {
        "author" : {
            "bot" : false,
            "discriminator" : "0530",
            "display_name" : "Isolated Boy",
            "id" : 540503510614147087,
            "name" : "Isolated Boy"
        },
        "channel" : {
            "id" : 542223083075797003,
            "name" : "\ud83d\udcc1coding-\u2742"
        },
        "channel_mentions" : [],
        "content" : "Stop pinging everyone",
        "id" : 544625176478744577,
        "mention_everyone" : false,
        "mentions" : [],
        "pinned" : false,
        "role_mentions" : [],
        "timestamp" : "2019-02-11 21:06:00",
        "tts" : false
    },
    {
        "author" : {
            "bot" : false,
            "discriminator" : "8810",
            "display_name" : "overdrive",
            "id" : 499992142048002049,
            "name" : "overdrive"
        },
        "channel" : {
            "id" : 542223083075797003,
            "name" : "\ud83d\udcc1coding-\u2742"
        },
        "channel_mentions" : [],
        "content" : "PICK C+++",
        "id" : 544625149786324992,
        "mention_everyone" : false,
        "mentions" : [],
        "pinned" : false,
        "role_mentions" : [],
        "timestamp" : "2019-02-11 21:05:54",
        "tts" : false
    },
    {
        "author" : {
            "bot" : false,
            "discriminator" : "4087",
            "display_name" : "A Fruit",
            "id" : 423967732787183617,
            "name" : "A Fruit"
        },
        "channel" : {
            "id" : 542223083075797003,
            "name" : "\ud83d\udcc1coding-\u2742"
        },
        "channel_mentions" : [],
        "content" : "Why did discord say I was mentioned",
        "id" : 544625147605155892,
        "mention_everyone" : false,
        "mentions" : [],
        "pinned" : false,
        "role_mentions" : [],
        "timestamp" : "2019-02-11 21:05:53",
        "tts" : false
    },
    {
        "author" : {
            "bot" : false,
            "discriminator" : "8810",
            "display_name" : "overdrive",
            "id" : 499992142048002049,
            "name" : "overdrive"
        },
        "channel" : {
            "id" : 542223083075797003,
            "name" : "\ud83d\udcc1coding-\u2742"
        },
        "channel_mentions" : [],
        "content" : "C++",
        "id" : 544625134707933194,
        "mention_everyone" : false,
        "mentions" : [],
        "pinned" : false,
        "role_mentions" : [],
        "timestamp" : "2019-02-11 21:05:50",
        "tts" : false
    },
    {
        "author" : {
            "bot" : false,
            "discriminator" : "3468",
            "display_name" : "cross_senpai",
            "id" : 539720886371090432,
            "name" : "cross_senpai"
        },
        "channel" : {
            "id" : 542223083075797003,
            "name" : "\ud83d\udcc1coding-\u2742"
        },
        "channel_mentions" : [],
        "content" : ".??",
        "id" : 544625096963129431,
        "mention_everyone" : false,
        "mentions" : [],
        "pinned" : false,
        "role_mentions" : [],
        "timestamp" : "2019-02-11 21:05:41",
        "tts" : false
    },
    {
        "author" : {
            "bot" : false,
            "discriminator" : "4087",
            "display_name" : "A Fruit",
            "id" : 423967732787183617,
            "name" : "A Fruit"
        },
        "channel" : {
            "id" : 542223083075797003,
            "name" : "\ud83d\udcc1coding-\u2742"
        },
        "channel_mentions" : [],
        "content" : "????",
        "id" : 544625033914351616,
        "mention_everyone" : false,
        "mentions" : [],
        "pinned" : false,
        "role_mentions" : [],
        "timestamp" : "2019-02-11 21:05:26",
        "tts" : false
    },
    {
        "author" : {
            "bot" : false,
            "discriminator" : "0530",
            "display_name" : "Isolated Boy",
            "id" : 540503510614147087,
            "name" : "Isolated Boy"
        },
        "channel" : {
            "id" : 542223083075797003,
            "name" : "\ud83d\udcc1coding-\u2742"
        },
        "channel_mentions" : [],
        "content" : "Ik",
        "id" : 544625021763453066,
        "mention_everyone" : false,
        "mentions" : [],
        "pinned" : false,
        "role_mentions" : [],
        "timestamp" : "2019-02-11 21:05:23",
        "tts" : false
    },
    {
        "author" : {
            "bot" : false,
            "discriminator" : "2896",
            "display_name" : "Yasashiiii",
            "id" : 464812379218247700,
            "name" : "Yasashiiii"
        },
        "channel" : {
            "id" : 542223083075797003,
            "name" : "\ud83d\udcc1coding-\u2742"
        },
        "channel_mentions" : [],
        "content" : "python quite easy",
        "id" : 544625002612391936,
        "mention_everyone" : false,
        "mentions" : [],
        "pinned" : false,
        "role_mentions" : [],
        "timestamp" : "2019-02-11 21:05:19",
        "tts" : false
    },
    {
        "author" : {
            "bot" : false,
            "discriminator" : "0530",
            "display_name" : "Isolated Boy",
            "id" : 540503510614147087,
            "name" : "Isolated Boy"
        },
        "channel" : {
            "id" : 542223083075797003,
            "name" : "\ud83d\udcc1coding-\u2742"
        },
        "channel_mentions" : [],
        "content" : "???",
        "id" : 544624974925922314,
        "mention_everyone" : false,
        "mentions" : [],
        "pinned" : false,
        "role_mentions" : [],
        "timestamp" : "2019-02-11 21:05:12",
        "tts" : false
    },
    {
        "author" : {
            "bot" : false,
            "discriminator" : "7884",
            "display_name" : "Mr big dick no soul",
            "id" : 210382421428928513,
            "name" : "Kazumi"
        },
        "channel" : {
            "id" : 542223083075797003,
            "name" : "\ud83d\udcc1coding-\u2742"
        },
        "channel_mentions" : [],
        "content" : "A IDE",
        "id" : 544576410027556864,
        "mention_everyone" : false,
        "mentions" : [],
        "pinned" : false,
        "role_mentions" : [],
        "timestamp" : "2019-02-11 17:52:13",
        "tts" : false
    },
    {
        "author" : {
            "bot" : false,
            "discriminator" : "7884",
            "display_name" : "Mr big dick no soul",
            "id" : 210382421428928513,
            "name" : "Kazumi"
        },
        "channel" : {
            "id" : 542223083075797003,
            "name" : "\ud83d\udcc1coding-\u2742"
        },
        "channel_mentions" : [],
        "content" : "Pick a language",
        "id" : 544576396828344350,
        "mention_everyone" : false,
        "mentions" : [],
        "pinned" : false,
        "role_mentions" : [],
        "timestamp" : "2019-02-11 17:52:10",
        "tts" : false
    },
    {
        "author" : {
            "bot" : false,
            "discriminator" : "7884",
            "display_name" : "Mr big dick no soul",
            "id" : 210382421428928513,
            "name" : "Kazumi"
        },
        "channel" : {
            "id" : 542223083075797003,
            "name" : "\ud83d\udcc1coding-\u2742"
        },
        "channel_mentions" : [],
        "content" : "Depends on what you want to do",
        "id" : 544576369489870848,
        "mention_everyone" : false,
        "mentions" : [],
        "pinned" : false,
        "role_mentions" : [],
        "timestamp" : "2019-02-11 17:52:04",
        "tts" : false
    },
    {
        "author" : {
            "bot" : false,
            "discriminator" : "5747",
            "display_name" : "\udb40\udcaa\udb40\udcaa\udb40\udcaa\udb40\udcaa\udb40\udcaa\udb40\udcaa\udb40\udcaa\udb40\udcaa",
            "id" : 462780380206858240,
            "name" : "\udb40\udcaa\udb40\udcaa\udb40\udcaa\udb40\udcaa\udb40\udcaa\udb40\udcaa\udb40\udcaa\udb40\udcaa"
        },
        "channel" : {
            "id" : 542223083075797003,
            "name" : "\ud83d\udcc1coding-\u2742"
        },
        "channel_mentions" : [],
        "content" : "How do I code",
        "id" : 544366729116254243,
        "mention_everyone" : false,
        "mentions" : [],
        "pinned" : false,
        "role_mentions" : [],
        "timestamp" : "2019-02-11 03:59:02",
        "tts" : false
    },
    {
        "author" : {
            "bot" : false,
            "discriminator" : "0530",
            "display_name" : "Isolated Boy",
            "id" : 540503510614147087,
            "name" : "Isolated Boy"
        },
        "channel" : {
            "id" : 542223083075797003,
            "name" : "\ud83d\udcc1coding-\u2742"
        },
        "channel_mentions" : [],
        "content" : "Boi",
        "id" : 544145113316851713,
        "mention_everyone" : false,
        "mentions" : [],
        "pinned" : false,
        "role_mentions" : [],
        "timestamp" : "2019-02-10 13:18:24",
        "tts" : false
    },
    {
        "author" : {
            "bot" : false,
            "discriminator" : "2896",
            "display_name" : "Yasashiiii",
            "id" : 464812379218247700,
            "name" : "Yasashiiii"
        },
        "channel" : {
            "id" : 542223083075797003,
            "name" : "\ud83d\udcc1coding-\u2742"
        },
        "channel_mentions" : [],
        "content" : "Oof",
        "id" : 544145083667185677,
        "mention_everyone" : false,
        "mentions" : [],
        "pinned" : false,
        "role_mentions" : [],
        "timestamp" : "2019-02-10 13:18:17",
        "tts" : false
    },
    {
        "author" : {
            "bot" : false,
            "discriminator" : "0530",
            "display_name" : "Isolated Boy",
            "id" : 540503510614147087,
            "name" : "Isolated Boy"
        },
        "channel" : {
            "id" : 542223083075797003,
            "name" : "\ud83d\udcc1coding-\u2742"
        },
        "channel_mentions" : [],
        "content" : "Lol",
        "id" : 544034183819952138,
        "mention_everyone" : false,
        "mentions" : [],
        "pinned" : false,
        "role_mentions" : [],
        "timestamp" : "2019-02-10 05:57:37",
        "tts" : false
    },
    {
        "author" : {
            "bot" : false,
            "discriminator" : "7884",
            "display_name" : "Mr big dick no soul",
            "id" : 210382421428928513,
            "name" : "Kazumi"
        },
        "channel" : {
            "id" : 542223083075797003,
            "name" : "\ud83d\udcc1coding-\u2742"
        },
        "channel_mentions" : [],
        "content" : "I'm no pro but I am learning C# and know a bit of VB",
        "id" : 544013825872101377,
        "mention_everyone" : false,
        "mentions" : [],
        "pinned" : false,
        "role_mentions" : [],
        "timestamp" : "2019-02-10 04:36:43",
        "tts" : false
    },
    {
        "author" : {
            "bot" : false,
            "discriminator" : "7884",
            "display_name" : "Mr big dick no soul",
            "id" : 210382421428928513,
            "name" : "Kazumi"
        },
        "channel" : {
            "id" : 542223083075797003,
            "name" : "\ud83d\udcc1coding-\u2742"
        },
        "channel_mentions" : [],
        "content" : "Oh a coding channel eh?",
        "id" : 544013741029588992,
        "mention_everyone" : false,
        "mentions" : [],
        "pinned" : false,
        "role_mentions" : [],
        "timestamp" : "2019-02-10 04:36:23",
        "tts" : false
    }
]