[
    {
        "author" : {
            "bot" : false,
            "discriminator" : "7666",
            "display_name" : "KingUzy",
            "id" : 425390983342063638,
            "name" : "KingUzy"
        },
        "channel" : {
            "id" : 541693198821490708,
            "name" : "art\u2741"
        },
        "channel_mentions" : [],
        "content" : "",
        "id" : 550717776654893107,
        "mention_everyone" : false,
        "mentions" : [],
        "pinned" : false,
        "role_mentions" : [],
        "timestamp" : "2019-02-28 16:35:49",
        "tts" : false
    },
    {
        "author" : {
            "bot" : false,
            "discriminator" : "7666",
            "display_name" : "KingUzy",
            "id" : 425390983342063638,
            "name" : "KingUzy"
        },
        "channel" : {
            "id" : 541693198821490708,
            "name" : "art\u2741"
        },
        "channel_mentions" : [],
        "content" : "",
        "id" : 550717767704379395,
        "mention_everyone" : false,
        "mentions" : [],
        "pinned" : false,
        "role_mentions" : [],
        "timestamp" : "2019-02-28 16:35:47",
        "tts" : false
    },
    {
        "author" : {
            "bot" : false,
            "discriminator" : "7666",
            "display_name" : "KingUzy",
            "id" : 425390983342063638,
            "name" : "KingUzy"
        },
        "channel" : {
            "id" : 541693198821490708,
            "name" : "art\u2741"
        },
        "channel_mentions" : [],
        "content" : "",
        "id" : 550717756593537068,
        "mention_everyone" : false,
        "mentions" : [],
        "pinned" : false,
        "role_mentions" : [],
        "timestamp" : "2019-02-28 16:35:45",
        "tts" : false
    },
    {
        "author" : {
            "bot" : false,
            "discriminator" : "7666",
            "display_name" : "KingUzy",
            "id" : 425390983342063638,
            "name" : "KingUzy"
        },
        "channel" : {
            "id" : 541693198821490708,
            "name" : "art\u2741"
        },
        "channel_mentions" : [],
        "content" : "",
        "id" : 550717746132811806,
        "mention_everyone" : false,
        "mentions" : [],
        "pinned" : false,
        "role_mentions" : [],
        "timestamp" : "2019-02-28 16:35:42",
        "tts" : false
    },
    {
        "author" : {
            "bot" : false,
            "discriminator" : "7666",
            "display_name" : "KingUzy",
            "id" : 425390983342063638,
            "name" : "KingUzy"
        },
        "channel" : {
            "id" : 541693198821490708,
            "name" : "art\u2741"
        },
        "channel_mentions" : [],
        "content" : "",
        "id" : 550717736712536066,
        "mention_everyone" : false,
        "mentions" : [],
        "pinned" : false,
        "role_mentions" : [],
        "timestamp" : "2019-02-28 16:35:40",
        "tts" : false
    },
    {
        "author" : {
            "bot" : false,
            "discriminator" : "7666",
            "display_name" : "KingUzy",
            "id" : 425390983342063638,
            "name" : "KingUzy"
        },
        "channel" : {
            "id" : 541693198821490708,
            "name" : "art\u2741"
        },
        "channel_mentions" : [],
        "content" : "",
        "id" : 550717733374001167,
        "mention_everyone" : false,
        "mentions" : [],
        "pinned" : false,
        "role_mentions" : [],
        "timestamp" : "2019-02-28 16:35:39",
        "tts" : false
    },
    {
        "author" : {
            "bot" : false,
            "discriminator" : "7666",
            "display_name" : "KingUzy",
            "id" : 425390983342063638,
            "name" : "KingUzy"
        },
        "channel" : {
            "id" : 541693198821490708,
            "name" : "art\u2741"
        },
        "channel_mentions" : [],
        "content" : "",
        "id" : 550717726877024267,
        "mention_everyone" : false,
        "mentions" : [],
        "pinned" : false,
        "role_mentions" : [],
        "timestamp" : "2019-02-28 16:35:37",
        "tts" : false
    },
    {
        "author" : {
            "bot" : false,
            "discriminator" : "7666",
            "display_name" : "KingUzy",
            "id" : 425390983342063638,
            "name" : "KingUzy"
        },
        "channel" : {
            "id" : 541693198821490708,
            "name" : "art\u2741"
        },
        "channel_mentions" : [],
        "content" : "",
        "id" : 550717718081568768,
        "mention_everyone" : false,
        "mentions" : [],
        "pinned" : false,
        "role_mentions" : [],
        "timestamp" : "2019-02-28 16:35:35",
        "tts" : false
    },
    {
        "author" : {
            "bot" : false,
            "discriminator" : "7666",
            "display_name" : "KingUzy",
            "id" : 425390983342063638,
            "name" : "KingUzy"
        },
        "channel" : {
            "id" : 541693198821490708,
            "name" : "art\u2741"
        },
        "channel_mentions" : [],
        "content" : "",
        "id" : 550717710481227796,
        "mention_everyone" : false,
        "mentions" : [],
        "pinned" : false,
        "role_mentions" : [],
        "timestamp" : "2019-02-28 16:35:34",
        "tts" : false
    },
    {
        "author" : {
            "bot" : false,
            "discriminator" : "7666",
            "display_name" : "KingUzy",
            "id" : 425390983342063638,
            "name" : "KingUzy"
        },
        "channel" : {
            "id" : 541693198821490708,
            "name" : "art\u2741"
        },
        "channel_mentions" : [],
        "content" : "found them",
        "id" : 550717688725372958,
        "mention_everyone" : false,
        "mentions" : [],
        "pinned" : false,
        "role_mentions" : [],
        "timestamp" : "2019-02-28 16:35:28",
        "tts" : false
    },
    {
        "author" : {
            "bot" : false,
            "discriminator" : "6905",
            "display_name" : "\u2661Sarah\u2661",
            "id" : 513683415527194635,
            "name" : "\u2661Sarah\u2661"
        },
        "channel" : {
            "id" : 541693198821490708,
            "name" : "art\u2741"
        },
        "channel_mentions" : [],
        "content" : "another piece of art i will never finish",
        "id" : 550427709063430148,
        "mention_everyone" : false,
        "mentions" : [],
        "pinned" : false,
        "role_mentions" : [],
        "timestamp" : "2019-02-27 21:23:12",
        "tts" : false
    },
    {
        "author" : {
            "bot" : false,
            "discriminator" : "6905",
            "display_name" : "\u2661Sarah\u2661",
            "id" : 513683415527194635,
            "name" : "\u2661Sarah\u2661"
        },
        "channel" : {
            "id" : 541693198821490708,
            "name" : "art\u2741"
        },
        "channel_mentions" : [],
        "content" : "",
        "id" : 550427695025225728,
        "mention_everyone" : false,
        "mentions" : [],
        "pinned" : false,
        "role_mentions" : [],
        "timestamp" : "2019-02-27 21:23:08",
        "tts" : false
    },
    {
        "author" : {
            "bot" : false,
            "discriminator" : "5503",
            "display_name" : "k_ducky123",
            "id" : 394179855702294529,
            "name" : "k_ducky123"
        },
        "channel" : {
            "id" : 541693198821490708,
            "name" : "art\u2741"
        },
        "channel_mentions" : [],
        "content" : "Yea I like it",
        "id" : 549802686787354634,
        "mention_everyone" : false,
        "mentions" : [],
        "pinned" : false,
        "role_mentions" : [],
        "timestamp" : "2019-02-26 03:59:35",
        "tts" : false
    },
    {
        "author" : {
            "bot" : false,
            "discriminator" : "6173",
            "display_name" : "Archer",
            "id" : 526536767550259202,
            "name" : "Enjoy Ice"
        },
        "channel" : {
            "id" : 541693198821490708,
            "name" : "art\u2741"
        },
        "channel_mentions" : [],
        "content" : "And you say mine is good    Smh \ud83d\ude12",
        "id" : 549802075773599754,
        "mention_everyone" : false,
        "mentions" : [],
        "pinned" : false,
        "role_mentions" : [],
        "timestamp" : "2019-02-26 03:57:09",
        "tts" : false
    },
    {
        "author" : {
            "bot" : false,
            "discriminator" : "5503",
            "display_name" : "k_ducky123",
            "id" : 394179855702294529,
            "name" : "k_ducky123"
        },
        "channel" : {
            "id" : 541693198821490708,
            "name" : "art\u2741"
        },
        "channel_mentions" : [],
        "content" : "",
        "id" : 549801963378835460,
        "mention_everyone" : false,
        "mentions" : [],
        "pinned" : false,
        "role_mentions" : [],
        "timestamp" : "2019-02-26 03:56:42",
        "tts" : false
    },
    {
        "author" : {
            "bot" : false,
            "discriminator" : "6173",
            "display_name" : "Archer",
            "id" : 526536767550259202,
            "name" : "Enjoy Ice"
        },
        "channel" : {
            "id" : 541693198821490708,
            "name" : "art\u2741"
        },
        "channel_mentions" : [],
        "content" : "I wouldn\u2019t be able to do that if I tried",
        "id" : 549801723649064970,
        "mention_everyone" : false,
        "mentions" : [],
        "pinned" : false,
        "role_mentions" : [],
        "timestamp" : "2019-02-26 03:55:45",
        "tts" : false
    },
    {
        "author" : {
            "bot" : false,
            "discriminator" : "6173",
            "display_name" : "Archer",
            "id" : 526536767550259202,
            "name" : "Enjoy Ice"
        },
        "channel" : {
            "id" : 541693198821490708,
            "name" : "art\u2741"
        },
        "channel_mentions" : [],
        "content" : "That\u2019s insane",
        "id" : 549801670402637826,
        "mention_everyone" : false,
        "mentions" : [],
        "pinned" : false,
        "role_mentions" : [],
        "timestamp" : "2019-02-26 03:55:33",
        "tts" : false
    },
    {
        "author" : {
            "bot" : false,
            "discriminator" : "5503",
            "display_name" : "k_ducky123",
            "id" : 394179855702294529,
            "name" : "k_ducky123"
        },
        "channel" : {
            "id" : 541693198821490708,
            "name" : "art\u2741"
        },
        "channel_mentions" : [],
        "content" : "Here\u2019s a thing I did a couple weeks ago",
        "id" : 549801613817282562,
        "mention_everyone" : false,
        "mentions" : [],
        "pinned" : false,
        "role_mentions" : [],
        "timestamp" : "2019-02-26 03:55:19",
        "tts" : false
    },
    {
        "author" : {
            "bot" : false,
            "discriminator" : "6173",
            "display_name" : "Archer",
            "id" : 526536767550259202,
            "name" : "Enjoy Ice"
        },
        "channel" : {
            "id" : 541693198821490708,
            "name" : "art\u2741"
        },
        "channel_mentions" : [],
        "content" : "Well, thank you then \ud83d\udc4c\ud83c\udffc",
        "id" : 549801533609345025,
        "mention_everyone" : false,
        "mentions" : [],
        "pinned" : false,
        "role_mentions" : [],
        "timestamp" : "2019-02-26 03:55:00",
        "tts" : false
    },
    {
        "author" : {
            "bot" : false,
            "discriminator" : "4404",
            "display_name" : "NorbitKage",
            "id" : 421911703949672462,
            "name" : "\u2119\ud835\udd6a\ud835\udd63\ud835\udd56"
        },
        "channel" : {
            "id" : 541693198821490708,
            "name" : "art\u2741"
        },
        "channel_mentions" : [],
        "content" : "-_-",
        "id" : 549801424842653701,
        "mention_everyone" : false,
        "mentions" : [],
        "pinned" : false,
        "role_mentions" : [],
        "timestamp" : "2019-02-26 03:54:34",
        "tts" : false
    },
    {
        "author" : {
            "bot" : false,
            "discriminator" : "6173",
            "display_name" : "Archer",
            "id" : 526536767550259202,
            "name" : "Enjoy Ice"
        },
        "channel" : {
            "id" : 541693198821490708,
            "name" : "art\u2741"
        },
        "channel_mentions" : [],
        "content" : "\ud83d\ude12",
        "id" : 549801409197899789,
        "mention_everyone" : false,
        "mentions" : [],
        "pinned" : false,
        "role_mentions" : [],
        "timestamp" : "2019-02-26 03:54:30",
        "tts" : false
    },
    {
        "author" : {
            "bot" : false,
            "discriminator" : "5503",
            "display_name" : "k_ducky123",
            "id" : 394179855702294529,
            "name" : "k_ducky123"
        },
        "channel" : {
            "id" : 541693198821490708,
            "name" : "art\u2741"
        },
        "channel_mentions" : [],
        "content" : "I like it",
        "id" : 549801408795377685,
        "mention_everyone" : false,
        "mentions" : [],
        "pinned" : false,
        "role_mentions" : [],
        "timestamp" : "2019-02-26 03:54:30",
        "tts" : false
    },
    {
        "author" : {
            "bot" : false,
            "discriminator" : "4404",
            "display_name" : "NorbitKage",
            "id" : 421911703949672462,
            "name" : "\u2119\ud835\udd6a\ud835\udd63\ud835\udd56"
        },
        "channel" : {
            "id" : 541693198821490708,
            "name" : "art\u2741"
        },
        "channel_mentions" : [],
        "content" : "NO ITS NOT.",
        "id" : 549801406555750403,
        "mention_everyone" : false,
        "mentions" : [],
        "pinned" : false,
        "role_mentions" : [],
        "timestamp" : "2019-02-26 03:54:30",
        "tts" : false
    },
    {
        "author" : {
            "bot" : false,
            "discriminator" : "6173",
            "display_name" : "Archer",
            "id" : 526536767550259202,
            "name" : "Enjoy Ice"
        },
        "channel" : {
            "id" : 541693198821490708,
            "name" : "art\u2741"
        },
        "channel_mentions" : [],
        "content" : "It is bad though",
        "id" : 549801384564883526,
        "mention_everyone" : false,
        "mentions" : [],
        "pinned" : false,
        "role_mentions" : [],
        "timestamp" : "2019-02-26 03:54:24",
        "tts" : false
    },
    {
        "author" : {
            "bot" : false,
            "discriminator" : "5503",
            "display_name" : "k_ducky123",
            "id" : 394179855702294529,
            "name" : "k_ducky123"
        },
        "channel" : {
            "id" : 541693198821490708,
            "name" : "art\u2741"
        },
        "channel_mentions" : [],
        "content" : "\u201cWhile I\u2019m so bad smh\u201d YOUR ART IS GREAT",
        "id" : 549801318672367650,
        "mention_everyone" : false,
        "mentions" : [],
        "pinned" : false,
        "role_mentions" : [],
        "timestamp" : "2019-02-26 03:54:09",
        "tts" : false
    },
    {
        "author" : {
            "bot" : false,
            "discriminator" : "4404",
            "display_name" : "NorbitKage",
            "id" : 421911703949672462,
            "name" : "\u2119\ud835\udd6a\ud835\udd63\ud835\udd56"
        },
        "channel" : {
            "id" : 541693198821490708,
            "name" : "art\u2741"
        },
        "channel_mentions" : [],
        "content" : "https://images-ext-2.discordapp.net/external/Qlr6K9NMSzSf69vfy_QFhNteEavnJkHGKGlyXUc-4vQ/https/cdn.discordapp.com/attachments/437061868843171843/508823264634732546/IMG_20181104_200121.jpg?width=400&height=225",
        "id" : 549801305867026446,
        "mention_everyone" : false,
        "mentions" : [],
        "pinned" : false,
        "role_mentions" : [],
        "timestamp" : "2019-02-26 03:54:06",
        "tts" : false
    },
    {
        "author" : {
            "bot" : false,
            "discriminator" : "6173",
            "display_name" : "Archer",
            "id" : 526536767550259202,
            "name" : "Enjoy Ice"
        },
        "channel" : {
            "id" : 541693198821490708,
            "name" : "art\u2741"
        },
        "channel_mentions" : [],
        "content" : "Dammmmnnnn he **DUMMY THICC**",
        "id" : 549801165802569740,
        "mention_everyone" : false,
        "mentions" : [],
        "pinned" : false,
        "role_mentions" : [],
        "timestamp" : "2019-02-26 03:53:32",
        "tts" : false
    },
    {
        "author" : {
            "bot" : false,
            "discriminator" : "4404",
            "display_name" : "NorbitKage",
            "id" : 421911703949672462,
            "name" : "\u2119\ud835\udd6a\ud835\udd63\ud835\udd56"
        },
        "channel" : {
            "id" : 541693198821490708,
            "name" : "art\u2741"
        },
        "channel_mentions" : [],
        "content" : "Neat.",
        "id" : 549801082348634129,
        "mention_everyone" : false,
        "mentions" : [],
        "pinned" : false,
        "role_mentions" : [],
        "timestamp" : "2019-02-26 03:53:12",
        "tts" : false
    },
    {
        "author" : {
            "bot" : false,
            "discriminator" : "4404",
            "display_name" : "NorbitKage",
            "id" : 421911703949672462,
            "name" : "\u2119\ud835\udd6a\ud835\udd63\ud835\udd56"
        },
        "channel" : {
            "id" : 541693198821490708,
            "name" : "art\u2741"
        },
        "channel_mentions" : [],
        "content" : "Little off, but nice.",
        "id" : 549801062844989441,
        "mention_everyone" : false,
        "mentions" : [],
        "pinned" : false,
        "role_mentions" : [],
        "timestamp" : "2019-02-26 03:53:08",
        "tts" : false
    },
    {
        "author" : {
            "bot" : false,
            "discriminator" : "3910",
            "display_name" : "kiwi",
            "id" : 483464519629406208,
            "name" : "kiwi"
        },
        "channel" : {
            "id" : 541693198821490708,
            "name" : "art\u2741"
        },
        "channel_mentions" : [],
        "content" : "",
        "id" : 549801056398475274,
        "mention_everyone" : false,
        "mentions" : [],
        "pinned" : false,
        "role_mentions" : [],
        "timestamp" : "2019-02-26 03:53:06",
        "tts" : false
    },
    {
        "author" : {
            "bot" : false,
            "discriminator" : "3910",
            "display_name" : "kiwi",
            "id" : 483464519629406208,
            "name" : "kiwi"
        },
        "channel" : {
            "id" : 541693198821490708,
            "name" : "art\u2741"
        },
        "channel_mentions" : [],
        "content" : "Bootiful",
        "id" : 549800997476761620,
        "mention_everyone" : false,
        "mentions" : [],
        "pinned" : false,
        "role_mentions" : [],
        "timestamp" : "2019-02-26 03:52:52",
        "tts" : false
    },
    {
        "author" : {
            "bot" : false,
            "discriminator" : "4404",
            "display_name" : "NorbitKage",
            "id" : 421911703949672462,
            "name" : "\u2119\ud835\udd6a\ud835\udd63\ud835\udd56"
        },
        "channel" : {
            "id" : 541693198821490708,
            "name" : "art\u2741"
        },
        "channel_mentions" : [],
        "content" : "Oof.",
        "id" : 549800995534798878,
        "mention_everyone" : false,
        "mentions" : [],
        "pinned" : false,
        "role_mentions" : [],
        "timestamp" : "2019-02-26 03:52:52",
        "tts" : false
    },
    {
        "author" : {
            "bot" : false,
            "discriminator" : "6173",
            "display_name" : "Archer",
            "id" : 526536767550259202,
            "name" : "Enjoy Ice"
        },
        "channel" : {
            "id" : 541693198821490708,
            "name" : "art\u2741"
        },
        "channel_mentions" : [],
        "content" : "",
        "id" : 549800965096603668,
        "mention_everyone" : false,
        "mentions" : [],
        "pinned" : false,
        "role_mentions" : [],
        "timestamp" : "2019-02-26 03:52:44",
        "tts" : false
    },
    {
        "author" : {
            "bot" : false,
            "discriminator" : "3910",
            "display_name" : "kiwi",
            "id" : 483464519629406208,
            "name" : "kiwi"
        },
        "channel" : {
            "id" : 541693198821490708,
            "name" : "art\u2741"
        },
        "channel_mentions" : [],
        "content" : "Anime",
        "id" : 549800938185949184,
        "mention_everyone" : false,
        "mentions" : [],
        "pinned" : false,
        "role_mentions" : [],
        "timestamp" : "2019-02-26 03:52:38",
        "tts" : false
    },
    {
        "author" : {
            "bot" : false,
            "discriminator" : "4404",
            "display_name" : "NorbitKage",
            "id" : 421911703949672462,
            "name" : "\u2119\ud835\udd6a\ud835\udd63\ud835\udd56"
        },
        "channel" : {
            "id" : 541693198821490708,
            "name" : "art\u2741"
        },
        "channel_mentions" : [],
        "content" : "I used YouTube to help.",
        "id" : 549800929910587402,
        "mention_everyone" : false,
        "mentions" : [],
        "pinned" : false,
        "role_mentions" : [],
        "timestamp" : "2019-02-26 03:52:36",
        "tts" : false
    },
    {
        "author" : {
            "bot" : false,
            "discriminator" : "3910",
            "display_name" : "kiwi",
            "id" : 483464519629406208,
            "name" : "kiwi"
        },
        "channel" : {
            "id" : 541693198821490708,
            "name" : "art\u2741"
        },
        "channel_mentions" : [],
        "content" : "Im not good at drawing anine",
        "id" : 549800916325367819,
        "mention_everyone" : false,
        "mentions" : [],
        "pinned" : false,
        "role_mentions" : [],
        "timestamp" : "2019-02-26 03:52:33",
        "tts" : false
    },
    {
        "author" : {
            "bot" : false,
            "discriminator" : "6173",
            "display_name" : "Archer",
            "id" : 526536767550259202,
            "name" : "Enjoy Ice"
        },
        "channel" : {
            "id" : 541693198821490708,
            "name" : "art\u2741"
        },
        "channel_mentions" : [],
        "content" : "This is mine",
        "id" : 549800880757800961,
        "mention_everyone" : false,
        "mentions" : [],
        "pinned" : false,
        "role_mentions" : [],
        "timestamp" : "2019-02-26 03:52:24",
        "tts" : false
    },
    {
        "author" : {
            "bot" : false,
            "discriminator" : "4404",
            "display_name" : "NorbitKage",
            "id" : 421911703949672462,
            "name" : "\u2119\ud835\udd6a\ud835\udd63\ud835\udd56"
        },
        "channel" : {
            "id" : 541693198821490708,
            "name" : "art\u2741"
        },
        "channel_mentions" : [],
        "content" : "Thx.",
        "id" : 549800869584044042,
        "mention_everyone" : false,
        "mentions" : [],
        "pinned" : false,
        "role_mentions" : [],
        "timestamp" : "2019-02-26 03:52:22",
        "tts" : false
    },
    {
        "author" : {
            "bot" : false,
            "discriminator" : "5503",
            "display_name" : "k_ducky123",
            "id" : 394179855702294529,
            "name" : "k_ducky123"
        },
        "channel" : {
            "id" : 541693198821490708,
            "name" : "art\u2741"
        },
        "channel_mentions" : [],
        "content" : "That\u2019s hawt",
        "id" : 549800859727429644,
        "mention_everyone" : false,
        "mentions" : [],
        "pinned" : false,
        "role_mentions" : [],
        "timestamp" : "2019-02-26 03:52:19",
        "tts" : false
    },
    {
        "author" : {
            "bot" : false,
            "discriminator" : "5503",
            "display_name" : "k_ducky123",
            "id" : 394179855702294529,
            "name" : "k_ducky123"
        },
        "channel" : {
            "id" : 541693198821490708,
            "name" : "art\u2741"
        },
        "channel_mentions" : [],
        "content" : "Lol",
        "id" : 549800836553768975,
        "mention_everyone" : false,
        "mentions" : [],
        "pinned" : false,
        "role_mentions" : [],
        "timestamp" : "2019-02-26 03:52:14",
        "tts" : false
    },
    {
        "author" : {
            "bot" : false,
            "discriminator" : "3910",
            "display_name" : "kiwi",
            "id" : 483464519629406208,
            "name" : "kiwi"
        },
        "channel" : {
            "id" : 541693198821490708,
            "name" : "art\u2741"
        },
        "channel_mentions" : [],
        "content" : "Thats cool",
        "id" : 549800834465136651,
        "mention_everyone" : false,
        "mentions" : [],
        "pinned" : false,
        "role_mentions" : [],
        "timestamp" : "2019-02-26 03:52:13",
        "tts" : false
    },
    {
        "author" : {
            "bot" : false,
            "discriminator" : "4404",
            "display_name" : "NorbitKage",
            "id" : 421911703949672462,
            "name" : "\u2119\ud835\udd6a\ud835\udd63\ud835\udd56"
        },
        "channel" : {
            "id" : 541693198821490708,
            "name" : "art\u2741"
        },
        "channel_mentions" : [],
        "content" : "https://media.discordapp.net/attachments/400151673810583566/426455354277232660/download.png?width=400&height=300",
        "id" : 549800768195002369,
        "mention_everyone" : false,
        "mentions" : [],
        "pinned" : false,
        "role_mentions" : [],
        "timestamp" : "2019-02-26 03:51:57",
        "tts" : false
    },
    {
        "author" : {
            "bot" : false,
            "discriminator" : "6173",
            "display_name" : "Archer",
            "id" : 526536767550259202,
            "name" : "Enjoy Ice"
        },
        "channel" : {
            "id" : 541693198821490708,
            "name" : "art\u2741"
        },
        "channel_mentions" : [],
        "content" : "While I\u2019m so bad smh",
        "id" : 549800628264763393,
        "mention_everyone" : false,
        "mentions" : [],
        "pinned" : false,
        "role_mentions" : [],
        "timestamp" : "2019-02-26 03:51:24",
        "tts" : false
    },
    {
        "author" : {
            "bot" : false,
            "discriminator" : "6173",
            "display_name" : "Archer",
            "id" : 526536767550259202,
            "name" : "Enjoy Ice"
        },
        "channel" : {
            "id" : 541693198821490708,
            "name" : "art\u2741"
        },
        "channel_mentions" : [],
        "content" : "Why is everyone so good at drawing",
        "id" : 549800584446869524,
        "mention_everyone" : false,
        "mentions" : [],
        "pinned" : false,
        "role_mentions" : [],
        "timestamp" : "2019-02-26 03:51:14",
        "tts" : false
    },
    {
        "author" : {
            "bot" : false,
            "discriminator" : "5503",
            "display_name" : "k_ducky123",
            "id" : 394179855702294529,
            "name" : "k_ducky123"
        },
        "channel" : {
            "id" : 541693198821490708,
            "name" : "art\u2741"
        },
        "channel_mentions" : [],
        "content" : "",
        "id" : 549800498904170508,
        "mention_everyone" : false,
        "mentions" : [],
        "pinned" : false,
        "role_mentions" : [],
        "timestamp" : "2019-02-26 03:50:53",
        "tts" : false
    },
    {
        "author" : {
            "bot" : false,
            "discriminator" : "4404",
            "display_name" : "NorbitKage",
            "id" : 421911703949672462,
            "name" : "\u2119\ud835\udd6a\ud835\udd63\ud835\udd56"
        },
        "channel" : {
            "id" : 541693198821490708,
            "name" : "art\u2741"
        },
        "channel_mentions" : [],
        "content" : "Nice.",
        "id" : 549800445661675545,
        "mention_everyone" : false,
        "mentions" : [],
        "pinned" : false,
        "role_mentions" : [],
        "timestamp" : "2019-02-26 03:50:41",
        "tts" : false
    },
    {
        "author" : {
            "bot" : false,
            "discriminator" : "3910",
            "display_name" : "kiwi",
            "id" : 483464519629406208,
            "name" : "kiwi"
        },
        "channel" : {
            "id" : 541693198821490708,
            "name" : "art\u2741"
        },
        "channel_mentions" : [],
        "content" : "",
        "id" : 549800139964022805,
        "mention_everyone" : false,
        "mentions" : [],
        "pinned" : false,
        "role_mentions" : [],
        "timestamp" : "2019-02-26 03:49:28",
        "tts" : false
    },
    {
        "author" : {
            "bot" : false,
            "discriminator" : "3910",
            "display_name" : "kiwi",
            "id" : 483464519629406208,
            "name" : "kiwi"
        },
        "channel" : {
            "id" : 541693198821490708,
            "name" : "art\u2741"
        },
        "channel_mentions" : [],
        "content" : "",
        "id" : 549797814243426305,
        "mention_everyone" : false,
        "mentions" : [],
        "pinned" : false,
        "role_mentions" : [],
        "timestamp" : "2019-02-26 03:40:13",
        "tts" : false
    },
    {
        "author" : {
            "bot" : false,
            "discriminator" : "3910",
            "display_name" : "kiwi",
            "id" : 483464519629406208,
            "name" : "kiwi"
        },
        "channel" : {
            "id" : 541693198821490708,
            "name" : "art\u2741"
        },
        "channel_mentions" : [],
        "content" : "",
        "id" : 549797591202660365,
        "mention_everyone" : false,
        "mentions" : [],
        "pinned" : false,
        "role_mentions" : [],
        "timestamp" : "2019-02-26 03:39:20",
        "tts" : false
    },
    {
        "author" : {
            "bot" : false,
            "discriminator" : "5503",
            "display_name" : "k_ducky123",
            "id" : 394179855702294529,
            "name" : "k_ducky123"
        },
        "channel" : {
            "id" : 541693198821490708,
            "name" : "art\u2741"
        },
        "channel_mentions" : [],
        "content" : "",
        "id" : 549797478510231562,
        "mention_everyone" : false,
        "mentions" : [],
        "pinned" : false,
        "role_mentions" : [],
        "timestamp" : "2019-02-26 03:38:53",
        "tts" : false
    },
    {
        "author" : {
            "bot" : false,
            "discriminator" : "3910",
            "display_name" : "kiwi",
            "id" : 483464519629406208,
            "name" : "kiwi"
        },
        "channel" : {
            "id" : 541693198821490708,
            "name" : "art\u2741"
        },
        "channel_mentions" : [],
        "content" : "",
        "id" : 549797291041751056,
        "mention_everyone" : false,
        "mentions" : [],
        "pinned" : false,
        "role_mentions" : [],
        "timestamp" : "2019-02-26 03:38:08",
        "tts" : false
    },
    {
        "author" : {
            "bot" : false,
            "discriminator" : "3910",
            "display_name" : "kiwi",
            "id" : 483464519629406208,
            "name" : "kiwi"
        },
        "channel" : {
            "id" : 541693198821490708,
            "name" : "art\u2741"
        },
        "channel_mentions" : [],
        "content" : "",
        "id" : 549791383217766400,
        "mention_everyone" : false,
        "mentions" : [],
        "pinned" : false,
        "role_mentions" : [],
        "timestamp" : "2019-02-26 03:14:40",
        "tts" : false
    },
    {
        "author" : {
            "bot" : false,
            "discriminator" : "9877",
            "display_name" : "Panda1",
            "id" : 516826373663227908,
            "name" : "Panda1"
        },
        "channel" : {
            "id" : 541693198821490708,
            "name" : "art\u2741"
        },
        "channel_mentions" : [],
        "content" : "I helped that story",
        "id" : 549708683269898240,
        "mention_everyone" : false,
        "mentions" : [],
        "pinned" : false,
        "role_mentions" : [],
        "timestamp" : "2019-02-25 21:46:03",
        "tts" : false
    },
    {
        "author" : {
            "bot" : false,
            "discriminator" : "9877",
            "display_name" : "Panda1",
            "id" : 516826373663227908,
            "name" : "Panda1"
        },
        "channel" : {
            "id" : 541693198821490708,
            "name" : "art\u2741"
        },
        "channel_mentions" : [],
        "content" : "Oof",
        "id" : 549708655373844510,
        "mention_everyone" : false,
        "mentions" : [],
        "pinned" : false,
        "role_mentions" : [],
        "timestamp" : "2019-02-25 21:45:56",
        "tts" : false
    },
    {
        "author" : {
            "bot" : false,
            "discriminator" : "0636",
            "display_name" : "milk",
            "id" : 489213493103296512,
            "name" : "` Another 6 hours to go!"
        },
        "channel" : {
            "id" : 541693198821490708,
            "name" : "art\u2741"
        },
        "channel_mentions" : [],
        "content" : "-10/0",
        "id" : 549634630408732693,
        "mention_everyone" : false,
        "mentions" : [],
        "pinned" : false,
        "role_mentions" : [],
        "timestamp" : "2019-02-25 16:51:47",
        "tts" : false
    },
    {
        "author" : {
            "bot" : false,
            "discriminator" : "2704",
            "display_name" : "arboretum",
            "id" : 406566177310244864,
            "name" : "ack"
        },
        "channel" : {
            "id" : 541693198821490708,
            "name" : "art\u2741"
        },
        "channel_mentions" : [],
        "content" : "My masterpiece",
        "id" : 549632395452612628,
        "mention_everyone" : false,
        "mentions" : [],
        "pinned" : false,
        "role_mentions" : [],
        "timestamp" : "2019-02-25 16:42:54",
        "tts" : false
    },
    {
        "author" : {
            "bot" : false,
            "discriminator" : "0636",
            "display_name" : "milk",
            "id" : 489213493103296512,
            "name" : "` Another 6 hours to go!"
        },
        "channel" : {
            "id" : 541693198821490708,
            "name" : "art\u2741"
        },
        "channel_mentions" : [],
        "content" : "no it's not h o r r i b l e",
        "id" : 549631811169550337,
        "mention_everyone" : false,
        "mentions" : [],
        "pinned" : false,
        "role_mentions" : [],
        "timestamp" : "2019-02-25 16:40:35",
        "tts" : false
    },
    {
        "author" : {
            "bot" : false,
            "discriminator" : "4087",
            "display_name" : "Fruit",
            "id" : 423967732787183617,
            "name" : "Fruit"
        },
        "channel" : {
            "id" : 541693198821490708,
            "name" : "art\u2741"
        },
        "channel_mentions" : [],
        "content" : "Not nice, the story is horrible",
        "id" : 549631713270300673,
        "mention_everyone" : false,
        "mentions" : [],
        "pinned" : false,
        "role_mentions" : [],
        "timestamp" : "2019-02-25 16:40:12",
        "tts" : false
    },
    {
        "author" : {
            "bot" : false,
            "discriminator" : "2217",
            "display_name" : "HYPEMODE",
            "id" : 249314960394420224,
            "name" : "HYPEMODE"
        },
        "channel" : {
            "id" : 541693198821490708,
            "name" : "art\u2741"
        },
        "channel_mentions" : [],
        "content" : "nice",
        "id" : 549631651827679242,
        "mention_everyone" : false,
        "mentions" : [],
        "pinned" : false,
        "role_mentions" : [],
        "timestamp" : "2019-02-25 16:39:57",
        "tts" : false
    },
    {
        "author" : {
            "bot" : false,
            "discriminator" : "4087",
            "display_name" : "Fruit",
            "id" : 423967732787183617,
            "name" : "Fruit"
        },
        "channel" : {
            "id" : 541693198821490708,
            "name" : "art\u2741"
        },
        "channel_mentions" : [],
        "content" : "I made that all on the top of my head",
        "id" : 549631625193848832,
        "mention_everyone" : false,
        "mentions" : [],
        "pinned" : false,
        "role_mentions" : [],
        "timestamp" : "2019-02-25 16:39:51",
        "tts" : false
    },
    {
        "author" : {
            "bot" : false,
            "discriminator" : "6173",
            "display_name" : "Archer",
            "id" : 526536767550259202,
            "name" : "Enjoy Ice"
        },
        "channel" : {
            "id" : 541693198821490708,
            "name" : "art\u2741"
        },
        "channel_mentions" : [],
        "content" : "<@!423967732787183617> your story seems good so far though",
        "id" : 549631541572272129,
        "mention_everyone" : false,
        "mentions" : [
            {
                "bot" : false,
                "discriminator" : "4087",
                "display_name" : "Fruit",
                "id" : 423967732787183617,
                "name" : "Fruit"
            }
        ],
        "pinned" : false,
        "role_mentions" : [],
        "timestamp" : "2019-02-25 16:39:31",
        "tts" : false
    },
    {
        "author" : {
            "bot" : false,
            "discriminator" : "6173",
            "display_name" : "Archer",
            "id" : 526536767550259202,
            "name" : "Enjoy Ice"
        },
        "channel" : {
            "id" : 541693198821490708,
            "name" : "art\u2741"
        },
        "channel_mentions" : [],
        "content" : "milk, your quite unique I guess \ud83d\ude02",
        "id" : 549631474589237282,
        "mention_everyone" : false,
        "mentions" : [],
        "pinned" : false,
        "role_mentions" : [],
        "timestamp" : "2019-02-25 16:39:15",
        "tts" : false
    },
    {
        "author" : {
            "bot" : false,
            "discriminator" : "0636",
            "display_name" : "milk",
            "id" : 489213493103296512,
            "name" : "` Another 6 hours to go!"
        },
        "channel" : {
            "id" : 541693198821490708,
            "name" : "art\u2741"
        },
        "channel_mentions" : [],
        "content" : "Hell you can copy all of my thoughts of that story if you want it was for school for a narrative test",
        "id" : 549631462241075200,
        "mention_everyone" : false,
        "mentions" : [],
        "pinned" : false,
        "role_mentions" : [],
        "timestamp" : "2019-02-25 16:39:12",
        "tts" : false
    },
    {
        "author" : {
            "bot" : false,
            "discriminator" : "0636",
            "display_name" : "milk",
            "id" : 489213493103296512,
            "name" : "` Another 6 hours to go!"
        },
        "channel" : {
            "id" : 541693198821490708,
            "name" : "art\u2741"
        },
        "channel_mentions" : [],
        "content" : "Oh nah, your story will be better.  <@423967732787183617>",
        "id" : 549631311179022337,
        "mention_everyone" : false,
        "mentions" : [
            {
                "bot" : false,
                "discriminator" : "4087",
                "display_name" : "Fruit",
                "id" : 423967732787183617,
                "name" : "Fruit"
            }
        ],
        "pinned" : false,
        "role_mentions" : [],
        "timestamp" : "2019-02-25 16:38:36",
        "tts" : false
    },
    {
        "author" : {
            "bot" : false,
            "discriminator" : "0636",
            "display_name" : "milk",
            "id" : 489213493103296512,
            "name" : "` Another 6 hours to go!"
        },
        "channel" : {
            "id" : 541693198821490708,
            "name" : "art\u2741"
        },
        "channel_mentions" : [],
        "content" : "then had to go in a cave called spice cave or pundant cave? She had to get spices for the spaghetti by asking the spice goddess for spices",
        "id" : 549631221760655361,
        "mention_everyone" : false,
        "mentions" : [],
        "pinned" : false,
        "role_mentions" : [],
        "timestamp" : "2019-02-25 16:38:14",
        "tts" : false
    },
    {
        "author" : {
            "bot" : false,
            "discriminator" : "4087",
            "display_name" : "Fruit",
            "id" : 423967732787183617,
            "name" : "Fruit"
        },
        "channel" : {
            "id" : 541693198821490708,
            "name" : "art\u2741"
        },
        "channel_mentions" : [],
        "content" : "Sounds way better than my story...",
        "id" : 549631155549372430,
        "mention_everyone" : false,
        "mentions" : [],
        "pinned" : false,
        "role_mentions" : [],
        "timestamp" : "2019-02-25 16:37:59",
        "tts" : false
    },
    {
        "author" : {
            "bot" : false,
            "discriminator" : "6173",
            "display_name" : "Archer",
            "id" : 526536767550259202,
            "name" : "Enjoy Ice"
        },
        "channel" : {
            "id" : 541693198821490708,
            "name" : "art\u2741"
        },
        "channel_mentions" : [],
        "content" : "Her \u201cepic spaghetti\u201d?",
        "id" : 549631076616765441,
        "mention_everyone" : false,
        "mentions" : [],
        "pinned" : false,
        "role_mentions" : [],
        "timestamp" : "2019-02-25 16:37:40",
        "tts" : false
    },
    {
        "author" : {
            "bot" : false,
            "discriminator" : "6173",
            "display_name" : "Archer",
            "id" : 526536767550259202,
            "name" : "Enjoy Ice"
        },
        "channel" : {
            "id" : 541693198821490708,
            "name" : "art\u2741"
        },
        "channel_mentions" : [],
        "content" : "Lmao",
        "id" : 549630932248821771,
        "mention_everyone" : false,
        "mentions" : [],
        "pinned" : false,
        "role_mentions" : [],
        "timestamp" : "2019-02-25 16:37:05",
        "tts" : false
    },
    {
        "author" : {
            "bot" : false,
            "discriminator" : "0636",
            "display_name" : "milk",
            "id" : 489213493103296512,
            "name" : "` Another 6 hours to go!"
        },
        "channel" : {
            "id" : 541693198821490708,
            "name" : "art\u2741"
        },
        "channel_mentions" : [],
        "content" : "A girl was out to find all the ingredients for her epic spaghetti",
        "id" : 549630899193643008,
        "mention_everyone" : false,
        "mentions" : [],
        "pinned" : false,
        "role_mentions" : [],
        "timestamp" : "2019-02-25 16:36:58",
        "tts" : false
    },
    {
        "author" : {
            "bot" : false,
            "discriminator" : "0636",
            "display_name" : "milk",
            "id" : 489213493103296512,
            "name" : "` Another 6 hours to go!"
        },
        "channel" : {
            "id" : 541693198821490708,
            "name" : "art\u2741"
        },
        "channel_mentions" : [],
        "content" : "really different",
        "id" : 549630795019714560,
        "mention_everyone" : false,
        "mentions" : [],
        "pinned" : false,
        "role_mentions" : [],
        "timestamp" : "2019-02-25 16:36:33",
        "tts" : false
    },
    {
        "author" : {
            "bot" : false,
            "discriminator" : "0636",
            "display_name" : "milk",
            "id" : 489213493103296512,
            "name" : "` Another 6 hours to go!"
        },
        "channel" : {
            "id" : 541693198821490708,
            "name" : "art\u2741"
        },
        "channel_mentions" : [],
        "content" : "I had made a story similar to this kind of",
        "id" : 549630754322251787,
        "mention_everyone" : false,
        "mentions" : [],
        "pinned" : false,
        "role_mentions" : [],
        "timestamp" : "2019-02-25 16:36:23",
        "tts" : false
    },
    {
        "author" : {
            "bot" : false,
            "discriminator" : "0636",
            "display_name" : "milk",
            "id" : 489213493103296512,
            "name" : "` Another 6 hours to go!"
        },
        "channel" : {
            "id" : 541693198821490708,
            "name" : "art\u2741"
        },
        "channel_mentions" : [],
        "content" : "Sounds good so far",
        "id" : 549630679239884843,
        "mention_everyone" : false,
        "mentions" : [],
        "pinned" : false,
        "role_mentions" : [],
        "timestamp" : "2019-02-25 16:36:05",
        "tts" : false
    },
    {
        "author" : {
            "bot" : false,
            "discriminator" : "4087",
            "display_name" : "Fruit",
            "id" : 423967732787183617,
            "name" : "Fruit"
        },
        "channel" : {
            "id" : 541693198821490708,
            "name" : "art\u2741"
        },
        "channel_mentions" : [],
        "content" : "My story based off this drawing, it isn't finished yet.",
        "id" : 549630069274968084,
        "mention_everyone" : false,
        "mentions" : [],
        "pinned" : false,
        "role_mentions" : [],
        "timestamp" : "2019-02-25 16:33:40",
        "tts" : false
    },
    {
        "author" : {
            "bot" : false,
            "discriminator" : "6173",
            "display_name" : "Archer",
            "id" : 526536767550259202,
            "name" : "Enjoy Ice"
        },
        "channel" : {
            "id" : 541693198821490708,
            "name" : "art\u2741"
        },
        "channel_mentions" : [],
        "content" : "<:pepeOK:542421343199559681>",
        "id" : 549616704817332244,
        "mention_everyone" : false,
        "mentions" : [],
        "pinned" : false,
        "role_mentions" : [],
        "timestamp" : "2019-02-25 15:40:33",
        "tts" : false
    },
    {
        "author" : {
            "bot" : false,
            "discriminator" : "8773",
            "display_name" : "Spartan",
            "id" : 396047335232241665,
            "name" : "Spartanslayer9001"
        },
        "channel" : {
            "id" : 541693198821490708,
            "name" : "art\u2741"
        },
        "channel_mentions" : [],
        "content" : "Nice art.",
        "id" : 549616623728984084,
        "mention_everyone" : false,
        "mentions" : [],
        "pinned" : false,
        "role_mentions" : [],
        "timestamp" : "2019-02-25 15:40:14",
        "tts" : false
    },
    {
        "author" : {
            "bot" : false,
            "discriminator" : "4087",
            "display_name" : "Fruit",
            "id" : 423967732787183617,
            "name" : "Fruit"
        },
        "channel" : {
            "id" : 541693198821490708,
            "name" : "art\u2741"
        },
        "channel_mentions" : [],
        "content" : "Good job",
        "id" : 549616569286918145,
        "mention_everyone" : false,
        "mentions" : [],
        "pinned" : false,
        "role_mentions" : [],
        "timestamp" : "2019-02-25 15:40:01",
        "tts" : false
    },
    {
        "author" : {
            "bot" : false,
            "discriminator" : "6173",
            "display_name" : "Archer",
            "id" : 526536767550259202,
            "name" : "Enjoy Ice"
        },
        "channel" : {
            "id" : 541693198821490708,
            "name" : "art\u2741"
        },
        "channel_mentions" : [],
        "content" : "",
        "id" : 549616372229996544,
        "mention_everyone" : false,
        "mentions" : [],
        "pinned" : false,
        "role_mentions" : [],
        "timestamp" : "2019-02-25 15:39:14",
        "tts" : false
    },
    {
        "author" : {
            "bot" : false,
            "discriminator" : "0026",
            "display_name" : "Isolated Boy",
            "id" : 540503510614147087,
            "name" : "\udb40\udc00\udb40\udc00\udb40\udc00\udb40\udc00 \udb40\udc00\udb40\udc00\udb40\udc00\udb40\udc00 \udb40\udc00\udb40\udc00"
        },
        "channel" : {
            "id" : 541693198821490708,
            "name" : "art\u2741"
        },
        "channel_mentions" : [],
        "content" : "\ud83d\udc4c",
        "id" : 549616330631020545,
        "mention_everyone" : false,
        "mentions" : [],
        "pinned" : false,
        "role_mentions" : [],
        "timestamp" : "2019-02-25 15:39:04",
        "tts" : false
    },
    {
        "author" : {
            "bot" : false,
            "discriminator" : "6173",
            "display_name" : "Archer",
            "id" : 526536767550259202,
            "name" : "Enjoy Ice"
        },
        "channel" : {
            "id" : 541693198821490708,
            "name" : "art\u2741"
        },
        "channel_mentions" : [],
        "content" : "I\u2019m going to share",
        "id" : 549616301325287454,
        "mention_everyone" : false,
        "mentions" : [],
        "pinned" : false,
        "role_mentions" : [],
        "timestamp" : "2019-02-25 15:38:57",
        "tts" : false
    },
    {
        "author" : {
            "bot" : false,
            "discriminator" : "4087",
            "display_name" : "Fruit",
            "id" : 423967732787183617,
            "name" : "Fruit"
        },
        "channel" : {
            "id" : 541693198821490708,
            "name" : "art\u2741"
        },
        "channel_mentions" : [],
        "content" : "Thanks",
        "id" : 549616251849408532,
        "mention_everyone" : false,
        "mentions" : [],
        "pinned" : false,
        "role_mentions" : [],
        "timestamp" : "2019-02-25 15:38:45",
        "tts" : false
    },
    {
        "author" : {
            "bot" : false,
            "discriminator" : "0026",
            "display_name" : "Isolated Boy",
            "id" : 540503510614147087,
            "name" : "\udb40\udc00\udb40\udc00\udb40\udc00\udb40\udc00 \udb40\udc00\udb40\udc00\udb40\udc00\udb40\udc00 \udb40\udc00\udb40\udc00"
        },
        "channel" : {
            "id" : 541693198821490708,
            "name" : "art\u2741"
        },
        "channel_mentions" : [],
        "content" : "Nice",
        "id" : 549616072244985876,
        "mention_everyone" : false,
        "mentions" : [],
        "pinned" : false,
        "role_mentions" : [],
        "timestamp" : "2019-02-25 15:38:02",
        "tts" : false
    },
    {
        "author" : {
            "bot" : false,
            "discriminator" : "4087",
            "display_name" : "Fruit",
            "id" : 423967732787183617,
            "name" : "Fruit"
        },
        "channel" : {
            "id" : 541693198821490708,
            "name" : "art\u2741"
        },
        "channel_mentions" : [],
        "content" : "The hair is so messed up in the first one \ud83d\ude05",
        "id" : 549615669142880271,
        "mention_everyone" : false,
        "mentions" : [],
        "pinned" : false,
        "role_mentions" : [],
        "timestamp" : "2019-02-25 15:36:26",
        "tts" : false
    },
    {
        "author" : {
            "bot" : false,
            "discriminator" : "4087",
            "display_name" : "Fruit",
            "id" : 423967732787183617,
            "name" : "Fruit"
        },
        "channel" : {
            "id" : 541693198821490708,
            "name" : "art\u2741"
        },
        "channel_mentions" : [],
        "content" : "Little doodles I've made recently",
        "id" : 549615584875249679,
        "mention_everyone" : false,
        "mentions" : [],
        "pinned" : false,
        "role_mentions" : [],
        "timestamp" : "2019-02-25 15:36:06",
        "tts" : false
    },
    {
        "author" : {
            "bot" : false,
            "discriminator" : "6978",
            "display_name" : "Bacon",
            "id" : 204231919418867712,
            "name" : "Bacon"
        },
        "channel" : {
            "id" : 541693198821490708,
            "name" : "art\u2741"
        },
        "channel_mentions" : [],
        "content" : "Nice",
        "id" : 549206763183013890,
        "mention_everyone" : false,
        "mentions" : [],
        "pinned" : false,
        "role_mentions" : [],
        "timestamp" : "2019-02-24 12:31:36",
        "tts" : false
    },
    {
        "author" : {
            "bot" : false,
            "discriminator" : "0636",
            "display_name" : "milk",
            "id" : 489213493103296512,
            "name" : "` Another 6 hours to go!"
        },
        "channel" : {
            "id" : 541693198821490708,
            "name" : "art\u2741"
        },
        "channel_mentions" : [],
        "content" : "Looks really good",
        "id" : 549206507388928010,
        "mention_everyone" : false,
        "mentions" : [],
        "pinned" : false,
        "role_mentions" : [],
        "timestamp" : "2019-02-24 12:30:35",
        "tts" : false
    },
    {
        "author" : {
            "bot" : false,
            "discriminator" : "6905",
            "display_name" : "\u2661Sarah\u2661",
            "id" : 513683415527194635,
            "name" : "\u2661Sarah\u2661"
        },
        "channel" : {
            "id" : 541693198821490708,
            "name" : "art\u2741"
        },
        "channel_mentions" : [],
        "content" : "",
        "id" : 549206477148127232,
        "mention_everyone" : false,
        "mentions" : [],
        "pinned" : false,
        "role_mentions" : [],
        "timestamp" : "2019-02-24 12:30:27",
        "tts" : false
    },
    {
        "author" : {
            "bot" : false,
            "discriminator" : "0100",
            "display_name" : "Cole",
            "id" : 148127736227954689,
            "name" : "Cole"
        },
        "channel" : {
            "id" : 541693198821490708,
            "name" : "art\u2741"
        },
        "channel_mentions" : [],
        "content" : "holy fuck",
        "id" : 549189039958261779,
        "mention_everyone" : false,
        "mentions" : [],
        "pinned" : false,
        "role_mentions" : [],
        "timestamp" : "2019-02-24 11:21:10",
        "tts" : false
    },
    {
        "author" : {
            "bot" : false,
            "discriminator" : "6905",
            "display_name" : "\u2661Sarah\u2661",
            "id" : 513683415527194635,
            "name" : "\u2661Sarah\u2661"
        },
        "channel" : {
            "id" : 541693198821490708,
            "name" : "art\u2741"
        },
        "channel_mentions" : [],
        "content" : "a picture says a thousand words \ud83d\ude02",
        "id" : 549189014788505631,
        "mention_everyone" : false,
        "mentions" : [],
        "pinned" : false,
        "role_mentions" : [],
        "timestamp" : "2019-02-24 11:21:04",
        "tts" : false
    },
    {
        "author" : {
            "bot" : false,
            "discriminator" : "6905",
            "display_name" : "\u2661Sarah\u2661",
            "id" : 513683415527194635,
            "name" : "\u2661Sarah\u2661"
        },
        "channel" : {
            "id" : 541693198821490708,
            "name" : "art\u2741"
        },
        "channel_mentions" : [],
        "content" : "",
        "id" : 549189007586623489,
        "mention_everyone" : false,
        "mentions" : [],
        "pinned" : false,
        "role_mentions" : [],
        "timestamp" : "2019-02-24 11:21:02",
        "tts" : false
    },
    {
        "author" : {
            "bot" : false,
            "discriminator" : "6393",
            "display_name" : "Arcee is b0red af",
            "id" : 240304591093104640,
            "name" : "Arcee is b0red af"
        },
        "channel" : {
            "id" : 541693198821490708,
            "name" : "art\u2741"
        },
        "channel_mentions" : [],
        "content" : "",
        "id" : 549104778634985483,
        "mention_everyone" : false,
        "mentions" : [],
        "pinned" : false,
        "role_mentions" : [],
        "timestamp" : "2019-02-24 05:46:21",
        "tts" : false
    },
    {
        "author" : {
            "bot" : false,
            "discriminator" : "6393",
            "display_name" : "Arcee is b0red af",
            "id" : 240304591093104640,
            "name" : "Arcee is b0red af"
        },
        "channel" : {
            "id" : 541693198821490708,
            "name" : "art\u2741"
        },
        "channel_mentions" : [],
        "content" : "",
        "id" : 549104759685251084,
        "mention_everyone" : false,
        "mentions" : [],
        "pinned" : false,
        "role_mentions" : [],
        "timestamp" : "2019-02-24 05:46:16",
        "tts" : false
    },
    {
        "author" : {
            "bot" : false,
            "discriminator" : "6393",
            "display_name" : "Arcee is b0red af",
            "id" : 240304591093104640,
            "name" : "Arcee is b0red af"
        },
        "channel" : {
            "id" : 541693198821490708,
            "name" : "art\u2741"
        },
        "channel_mentions" : [],
        "content" : "",
        "id" : 549104720426565633,
        "mention_everyone" : false,
        "mentions" : [],
        "pinned" : false,
        "role_mentions" : [],
        "timestamp" : "2019-02-24 05:46:07",
        "tts" : false
    },
    {
        "author" : {
            "bot" : false,
            "discriminator" : "6393",
            "display_name" : "Arcee is b0red af",
            "id" : 240304591093104640,
            "name" : "Arcee is b0red af"
        },
        "channel" : {
            "id" : 541693198821490708,
            "name" : "art\u2741"
        },
        "channel_mentions" : [],
        "content" : "",
        "id" : 549104700385919000,
        "mention_everyone" : false,
        "mentions" : [],
        "pinned" : false,
        "role_mentions" : [],
        "timestamp" : "2019-02-24 05:46:02",
        "tts" : false
    },
    {
        "author" : {
            "bot" : true,
            "discriminator" : "4288",
            "display_name" : "Amazing",
            "id" : 431837317246877698,
            "name" : "Amazing"
        },
        "channel" : {
            "id" : 541693198821490708,
            "name" : "art\u2741"
        },
        "channel_mentions" : [],
        "content" : "",
        "id" : 549048451485401112,
        "mention_everyone" : false,
        "mentions" : [],
        "pinned" : false,
        "role_mentions" : [],
        "timestamp" : "2019-02-24 02:02:31",
        "tts" : false
    },
    {
        "author" : {
            "bot" : false,
            "discriminator" : "7729",
            "display_name" : "Kermit",
            "id" : 393152363688493056,
            "name" : "Kermit"
        },
        "channel" : {
            "id" : 541693198821490708,
            "name" : "art\u2741"
        },
        "channel_mentions" : [],
        "content" : "",
        "id" : 549048447131713552,
        "mention_everyone" : false,
        "mentions" : [],
        "pinned" : false,
        "role_mentions" : [],
        "timestamp" : "2019-02-24 02:02:30",
        "tts" : false
    },
    {
        "author" : {
            "bot" : false,
            "discriminator" : "7729",
            "display_name" : "Kermit",
            "id" : 393152363688493056,
            "name" : "Kermit"
        },
        "channel" : {
            "id" : 541693198821490708,
            "name" : "art\u2741"
        },
        "channel_mentions" : [],
        "content" : "\ud83d\udc95",
        "id" : 549047995484864522,
        "mention_everyone" : false,
        "mentions" : [],
        "pinned" : false,
        "role_mentions" : [],
        "timestamp" : "2019-02-24 02:00:42",
        "tts" : false
    },
    {
        "author" : {
            "bot" : false,
            "discriminator" : "7729",
            "display_name" : "Kermit",
            "id" : 393152363688493056,
            "name" : "Kermit"
        },
        "channel" : {
            "id" : 541693198821490708,
            "name" : "art\u2741"
        },
        "channel_mentions" : [],
        "content" : "thx",
        "id" : 549046405054857237,
        "mention_everyone" : false,
        "mentions" : [],
        "pinned" : false,
        "role_mentions" : [],
        "timestamp" : "2019-02-24 01:54:23",
        "tts" : false
    },
    {
        "author" : {
            "bot" : false,
            "discriminator" : "4404",
            "display_name" : "NorbitKage",
            "id" : 421911703949672462,
            "name" : "\u2119\ud835\udd6a\ud835\udd63\ud835\udd56"
        },
        "channel" : {
            "id" : 541693198821490708,
            "name" : "art\u2741"
        },
        "channel_mentions" : [],
        "content" : "\ud83d\udc4d",
        "id" : 549046378928537600,
        "mention_everyone" : false,
        "mentions" : [],
        "pinned" : false,
        "role_mentions" : [],
        "timestamp" : "2019-02-24 01:54:17",
        "tts" : false
    },
    {
        "author" : {
            "bot" : false,
            "discriminator" : "7729",
            "display_name" : "Kermit",
            "id" : 393152363688493056,
            "name" : "Kermit"
        },
        "channel" : {
            "id" : 541693198821490708,
            "name" : "art\u2741"
        },
        "channel_mentions" : [],
        "content" : "",
        "id" : 549042533078925313,
        "mention_everyone" : false,
        "mentions" : [],
        "pinned" : false,
        "role_mentions" : [],
        "timestamp" : "2019-02-24 01:39:00",
        "tts" : false
    },
    {
        "author" : {
            "bot" : false,
            "discriminator" : "9877",
            "display_name" : "Panda1",
            "id" : 516826373663227908,
            "name" : "Panda1"
        },
        "channel" : {
            "id" : 541693198821490708,
            "name" : "art\u2741"
        },
        "channel_mentions" : [],
        "content" : "\ud83d\udc4d",
        "id" : 547385203925057537,
        "mention_everyone" : false,
        "mentions" : [],
        "pinned" : false,
        "role_mentions" : [],
        "timestamp" : "2019-02-19 11:53:22",
        "tts" : false
    },
    {
        "author" : {
            "bot" : false,
            "discriminator" : "5503",
            "display_name" : "k_ducky123",
            "id" : 394179855702294529,
            "name" : "k_ducky123"
        },
        "channel" : {
            "id" : 541693198821490708,
            "name" : "art\u2741"
        },
        "channel_mentions" : [],
        "content" : "",
        "id" : 547329412601872386,
        "mention_everyone" : false,
        "mentions" : [],
        "pinned" : false,
        "role_mentions" : [],
        "timestamp" : "2019-02-19 08:11:40",
        "tts" : false
    },
    {
        "author" : {
            "bot" : false,
            "discriminator" : "9877",
            "display_name" : "Panda1",
            "id" : 516826373663227908,
            "name" : "Panda1"
        },
        "channel" : {
            "id" : 541693198821490708,
            "name" : "art\u2741"
        },
        "channel_mentions" : [],
        "content" : "\ud83d\udc4d",
        "id" : 547303660019908629,
        "mention_everyone" : false,
        "mentions" : [],
        "pinned" : false,
        "role_mentions" : [],
        "timestamp" : "2019-02-19 06:29:20",
        "tts" : false
    },
    {
        "author" : {
            "bot" : false,
            "discriminator" : "5503",
            "display_name" : "k_ducky123",
            "id" : 394179855702294529,
            "name" : "k_ducky123"
        },
        "channel" : {
            "id" : 541693198821490708,
            "name" : "art\u2741"
        },
        "channel_mentions" : [],
        "content" : "",
        "id" : 547303596304236564,
        "mention_everyone" : false,
        "mentions" : [],
        "pinned" : false,
        "role_mentions" : [],
        "timestamp" : "2019-02-19 06:29:05",
        "tts" : false
    },
    {
        "author" : {
            "bot" : false,
            "discriminator" : "5503",
            "display_name" : "k_ducky123",
            "id" : 394179855702294529,
            "name" : "k_ducky123"
        },
        "channel" : {
            "id" : 541693198821490708,
            "name" : "art\u2741"
        },
        "channel_mentions" : [],
        "content" : "old animatic",
        "id" : 547299095149150209,
        "mention_everyone" : false,
        "mentions" : [],
        "pinned" : false,
        "role_mentions" : [],
        "timestamp" : "2019-02-19 06:11:12",
        "tts" : false
    },
    {
        "author" : {
            "bot" : false,
            "discriminator" : "9877",
            "display_name" : "Panda1",
            "id" : 516826373663227908,
            "name" : "Panda1"
        },
        "channel" : {
            "id" : 541693198821490708,
            "name" : "art\u2741"
        },
        "channel_mentions" : [],
        "content" : "I see it",
        "id" : 547296005545263104,
        "mention_everyone" : false,
        "mentions" : [],
        "pinned" : false,
        "role_mentions" : [],
        "timestamp" : "2019-02-19 05:58:55",
        "tts" : false
    },
    {
        "author" : {
            "bot" : false,
            "discriminator" : "4087",
            "display_name" : "Fruit",
            "id" : 423967732787183617,
            "name" : "Fruit"
        },
        "channel" : {
            "id" : 541693198821490708,
            "name" : "art\u2741"
        },
        "channel_mentions" : [],
        "content" : "Found it",
        "id" : 547295859264716829,
        "mention_everyone" : false,
        "mentions" : [],
        "pinned" : false,
        "role_mentions" : [],
        "timestamp" : "2019-02-19 05:58:21",
        "tts" : false
    },
    {
        "author" : {
            "bot" : false,
            "discriminator" : "5503",
            "display_name" : "k_ducky123",
            "id" : 394179855702294529,
            "name" : "k_ducky123"
        },
        "channel" : {
            "id" : 541693198821490708,
            "name" : "art\u2741"
        },
        "channel_mentions" : [],
        "content" : "<@423967732787183617> <@!516826373663227908>",
        "id" : 547295351103553547,
        "mention_everyone" : false,
        "mentions" : [
            {
                "bot" : false,
                "discriminator" : "4087",
                "display_name" : "Fruit",
                "id" : 423967732787183617,
                "name" : "Fruit"
            }
        ],
        "pinned" : false,
        "role_mentions" : [],
        "timestamp" : "2019-02-19 05:56:19",
        "tts" : false
    },
    {
        "author" : {
            "bot" : false,
            "discriminator" : "9877",
            "display_name" : "Panda1",
            "id" : 516826373663227908,
            "name" : "Panda1"
        },
        "channel" : {
            "id" : 541693198821490708,
            "name" : "art\u2741"
        },
        "channel_mentions" : [],
        "content" : "Im leaving now",
        "id" : 546824028254502932,
        "mention_everyone" : false,
        "mentions" : [],
        "pinned" : false,
        "role_mentions" : [],
        "timestamp" : "2019-02-17 22:43:27",
        "tts" : false
    },
    {
        "author" : {
            "bot" : false,
            "discriminator" : "9877",
            "display_name" : "Panda1",
            "id" : 516826373663227908,
            "name" : "Panda1"
        },
        "channel" : {
            "id" : 541693198821490708,
            "name" : "art\u2741"
        },
        "channel_mentions" : [],
        "content" : "Ok duck",
        "id" : 546824007064879124,
        "mention_everyone" : false,
        "mentions" : [],
        "pinned" : false,
        "role_mentions" : [],
        "timestamp" : "2019-02-17 22:43:22",
        "tts" : false
    },
    {
        "author" : {
            "bot" : false,
            "discriminator" : "9877",
            "display_name" : "Panda1",
            "id" : 516826373663227908,
            "name" : "Panda1"
        },
        "channel" : {
            "id" : 541693198821490708,
            "name" : "art\u2741"
        },
        "channel_mentions" : [],
        "content" : "<:PepeKMS:542421343312805899>",
        "id" : 546823995748515909,
        "mention_everyone" : false,
        "mentions" : [],
        "pinned" : false,
        "role_mentions" : [],
        "timestamp" : "2019-02-17 22:43:20",
        "tts" : false
    },
    {
        "author" : {
            "bot" : false,
            "discriminator" : "9877",
            "display_name" : "Panda1",
            "id" : 516826373663227908,
            "name" : "Panda1"
        },
        "channel" : {
            "id" : 541693198821490708,
            "name" : "art\u2741"
        },
        "channel_mentions" : [],
        "content" : "\ud83d\ude2d",
        "id" : 546823990627270657,
        "mention_everyone" : false,
        "mentions" : [],
        "pinned" : false,
        "role_mentions" : [],
        "timestamp" : "2019-02-17 22:43:18",
        "tts" : false
    },
    {
        "author" : {
            "bot" : false,
            "discriminator" : "5503",
            "display_name" : "k_ducky123",
            "id" : 394179855702294529,
            "name" : "k_ducky123"
        },
        "channel" : {
            "id" : 541693198821490708,
            "name" : "art\u2741"
        },
        "channel_mentions" : [],
        "content" : "Rip",
        "id" : 546823957601452102,
        "mention_everyone" : false,
        "mentions" : [],
        "pinned" : false,
        "role_mentions" : [],
        "timestamp" : "2019-02-17 22:43:10",
        "tts" : false
    },
    {
        "author" : {
            "bot" : false,
            "discriminator" : "9877",
            "display_name" : "Panda1",
            "id" : 516826373663227908,
            "name" : "Panda1"
        },
        "channel" : {
            "id" : 541693198821490708,
            "name" : "art\u2741"
        },
        "channel_mentions" : [],
        "content" : "Im kidding",
        "id" : 546823930510311453,
        "mention_everyone" : false,
        "mentions" : [],
        "pinned" : false,
        "role_mentions" : [],
        "timestamp" : "2019-02-17 22:43:04",
        "tts" : false
    },
    {
        "author" : {
            "bot" : false,
            "discriminator" : "9877",
            "display_name" : "Panda1",
            "id" : 516826373663227908,
            "name" : "Panda1"
        },
        "channel" : {
            "id" : 541693198821490708,
            "name" : "art\u2741"
        },
        "channel_mentions" : [],
        "content" : "Were am I im about to cry lol",
        "id" : 546823916891406348,
        "mention_everyone" : false,
        "mentions" : [],
        "pinned" : false,
        "role_mentions" : [],
        "timestamp" : "2019-02-17 22:43:01",
        "tts" : false
    },
    {
        "author" : {
            "bot" : false,
            "discriminator" : "5503",
            "display_name" : "k_ducky123",
            "id" : 394179855702294529,
            "name" : "k_ducky123"
        },
        "channel" : {
            "id" : 541693198821490708,
            "name" : "art\u2741"
        },
        "channel_mentions" : [],
        "content" : "Those are mi friends",
        "id" : 546823826034655244,
        "mention_everyone" : false,
        "mentions" : [],
        "pinned" : false,
        "role_mentions" : [],
        "timestamp" : "2019-02-17 22:42:39",
        "tts" : false
    },
    {
        "author" : {
            "bot" : false,
            "discriminator" : "9877",
            "display_name" : "Panda1",
            "id" : 516826373663227908,
            "name" : "Panda1"
        },
        "channel" : {
            "id" : 541693198821490708,
            "name" : "art\u2741"
        },
        "channel_mentions" : [],
        "content" : "Lol",
        "id" : 546823797911715861,
        "mention_everyone" : false,
        "mentions" : [],
        "pinned" : false,
        "role_mentions" : [],
        "timestamp" : "2019-02-17 22:42:32",
        "tts" : false
    },
    {
        "author" : {
            "bot" : false,
            "discriminator" : "9877",
            "display_name" : "Panda1",
            "id" : 516826373663227908,
            "name" : "Panda1"
        },
        "channel" : {
            "id" : 541693198821490708,
            "name" : "art\u2741"
        },
        "channel_mentions" : [],
        "content" : "Nichi",
        "id" : 546823790294990868,
        "mention_everyone" : false,
        "mentions" : [],
        "pinned" : false,
        "role_mentions" : [],
        "timestamp" : "2019-02-17 22:42:31",
        "tts" : false
    },
    {
        "author" : {
            "bot" : false,
            "discriminator" : "5503",
            "display_name" : "k_ducky123",
            "id" : 394179855702294529,
            "name" : "k_ducky123"
        },
        "channel" : {
            "id" : 541693198821490708,
            "name" : "art\u2741"
        },
        "channel_mentions" : [],
        "content" : "Ye",
        "id" : 546823742484119558,
        "mention_everyone" : false,
        "mentions" : [],
        "pinned" : false,
        "role_mentions" : [],
        "timestamp" : "2019-02-17 22:42:19",
        "tts" : false
    },
    {
        "author" : {
            "bot" : false,
            "discriminator" : "9877",
            "display_name" : "Panda1",
            "id" : 516826373663227908,
            "name" : "Panda1"
        },
        "channel" : {
            "id" : 541693198821490708,
            "name" : "art\u2741"
        },
        "channel_mentions" : [],
        "content" : "Ducky",
        "id" : 546823727069790210,
        "mention_everyone" : false,
        "mentions" : [],
        "pinned" : false,
        "role_mentions" : [],
        "timestamp" : "2019-02-17 22:42:16",
        "tts" : false
    },
    {
        "author" : {
            "bot" : false,
            "discriminator" : "5503",
            "display_name" : "k_ducky123",
            "id" : 394179855702294529,
            "name" : "k_ducky123"
        },
        "channel" : {
            "id" : 541693198821490708,
            "name" : "art\u2741"
        },
        "channel_mentions" : [],
        "content" : "",
        "id" : 546823663014510615,
        "mention_everyone" : false,
        "mentions" : [],
        "pinned" : false,
        "role_mentions" : [],
        "timestamp" : "2019-02-17 22:42:00",
        "tts" : false
    },
    {
        "author" : {
            "bot" : false,
            "discriminator" : "9877",
            "display_name" : "Panda1",
            "id" : 516826373663227908,
            "name" : "Panda1"
        },
        "channel" : {
            "id" : 541693198821490708,
            "name" : "art\u2741"
        },
        "channel_mentions" : [],
        "content" : "Lol",
        "id" : 546823658014900227,
        "mention_everyone" : false,
        "mentions" : [],
        "pinned" : false,
        "role_mentions" : [],
        "timestamp" : "2019-02-17 22:41:59",
        "tts" : false
    },
    {
        "author" : {
            "bot" : false,
            "discriminator" : "5503",
            "display_name" : "k_ducky123",
            "id" : 394179855702294529,
            "name" : "k_ducky123"
        },
        "channel" : {
            "id" : 541693198821490708,
            "name" : "art\u2741"
        },
        "channel_mentions" : [],
        "content" : "OOf I forgot to upload my sketch here",
        "id" : 546823639706894348,
        "mention_everyone" : false,
        "mentions" : [],
        "pinned" : false,
        "role_mentions" : [],
        "timestamp" : "2019-02-17 22:41:55",
        "tts" : false
    },
    {
        "author" : {
            "bot" : false,
            "discriminator" : "9877",
            "display_name" : "Panda1",
            "id" : 516826373663227908,
            "name" : "Panda1"
        },
        "channel" : {
            "id" : 541693198821490708,
            "name" : "art\u2741"
        },
        "channel_mentions" : [],
        "content" : "Thx",
        "id" : 546823615375605770,
        "mention_everyone" : false,
        "mentions" : [],
        "pinned" : false,
        "role_mentions" : [],
        "timestamp" : "2019-02-17 22:41:49",
        "tts" : false
    },
    {
        "author" : {
            "bot" : false,
            "discriminator" : "5503",
            "display_name" : "k_ducky123",
            "id" : 394179855702294529,
            "name" : "k_ducky123"
        },
        "channel" : {
            "id" : 541693198821490708,
            "name" : "art\u2741"
        },
        "channel_mentions" : [],
        "content" : "It looks nice",
        "id" : 546823597331841034,
        "mention_everyone" : false,
        "mentions" : [],
        "pinned" : false,
        "role_mentions" : [],
        "timestamp" : "2019-02-17 22:41:45",
        "tts" : false
    },
    {
        "author" : {
            "bot" : false,
            "discriminator" : "9877",
            "display_name" : "Panda1",
            "id" : 516826373663227908,
            "name" : "Panda1"
        },
        "channel" : {
            "id" : 541693198821490708,
            "name" : "art\u2741"
        },
        "channel_mentions" : [],
        "content" : "<@394179855702294529> sorry I know you are on do not disturb but what do you think",
        "id" : 546823477852897309,
        "mention_everyone" : false,
        "mentions" : [],
        "pinned" : false,
        "role_mentions" : [],
        "timestamp" : "2019-02-17 22:41:16",
        "tts" : false
    },
    {
        "author" : {
            "bot" : false,
            "discriminator" : "9877",
            "display_name" : "Panda1",
            "id" : 516826373663227908,
            "name" : "Panda1"
        },
        "channel" : {
            "id" : 541693198821490708,
            "name" : "art\u2741"
        },
        "channel_mentions" : [],
        "content" : "",
        "id" : 546823259757215754,
        "mention_everyone" : false,
        "mentions" : [],
        "pinned" : false,
        "role_mentions" : [],
        "timestamp" : "2019-02-17 22:40:24",
        "tts" : false
    },
    {
        "author" : {
            "bot" : false,
            "discriminator" : "9877",
            "display_name" : "Panda1",
            "id" : 516826373663227908,
            "name" : "Panda1"
        },
        "channel" : {
            "id" : 541693198821490708,
            "name" : "art\u2741"
        },
        "channel_mentions" : [],
        "content" : "Just colored the heart",
        "id" : 546823214521909248,
        "mention_everyone" : false,
        "mentions" : [],
        "pinned" : false,
        "role_mentions" : [],
        "timestamp" : "2019-02-17 22:40:13",
        "tts" : false
    },
    {
        "author" : {
            "bot" : false,
            "discriminator" : "1410",
            "display_name" : "Naruto Uzumaki",
            "id" : 427933518354448387,
            "name" : "Naruto Uzumaki"
        },
        "channel" : {
            "id" : 541693198821490708,
            "name" : "art\u2741"
        },
        "channel_mentions" : [],
        "content" : "Great job",
        "id" : 546822861441073162,
        "mention_everyone" : false,
        "mentions" : [],
        "pinned" : false,
        "role_mentions" : [],
        "timestamp" : "2019-02-17 22:38:49",
        "tts" : false
    },
    {
        "author" : {
            "bot" : false,
            "discriminator" : "9877",
            "display_name" : "Panda1",
            "id" : 516826373663227908,
            "name" : "Panda1"
        },
        "channel" : {
            "id" : 541693198821490708,
            "name" : "art\u2741"
        },
        "channel_mentions" : [],
        "content" : "",
        "id" : 545841090356576266,
        "mention_everyone" : false,
        "mentions" : [],
        "pinned" : false,
        "role_mentions" : [],
        "timestamp" : "2019-02-15 05:37:37",
        "tts" : false
    },
    {
        "author" : {
            "bot" : false,
            "discriminator" : "4087",
            "display_name" : "Fruit",
            "id" : 423967732787183617,
            "name" : "Fruit"
        },
        "channel" : {
            "id" : 541693198821490708,
            "name" : "art\u2741"
        },
        "channel_mentions" : [],
        "content" : "A thonk I made for one of the other servers I'm in",
        "id" : 544544192559448124,
        "mention_everyone" : false,
        "mentions" : [],
        "pinned" : false,
        "role_mentions" : [],
        "timestamp" : "2019-02-11 15:44:12",
        "tts" : false
    },
    {
        "author" : {
            "bot" : false,
            "discriminator" : "4087",
            "display_name" : "Fruit",
            "id" : 423967732787183617,
            "name" : "Fruit"
        },
        "channel" : {
            "id" : 541693198821490708,
            "name" : "art\u2741"
        },
        "channel_mentions" : [],
        "content" : "",
        "id" : 544544099936763925,
        "mention_everyone" : false,
        "mentions" : [],
        "pinned" : false,
        "role_mentions" : [],
        "timestamp" : "2019-02-11 15:43:50",
        "tts" : false
    },
    {
        "author" : {
            "bot" : false,
            "discriminator" : "9877",
            "display_name" : "Panda1",
            "id" : 516826373663227908,
            "name" : "Panda1"
        },
        "channel" : {
            "id" : 541693198821490708,
            "name" : "art\u2741"
        },
        "channel_mentions" : [],
        "content" : "The female demon xD",
        "id" : 544296416424493077,
        "mention_everyone" : false,
        "mentions" : [],
        "pinned" : false,
        "role_mentions" : [],
        "timestamp" : "2019-02-10 23:19:38",
        "tts" : false
    },
    {
        "author" : {
            "bot" : false,
            "discriminator" : "9877",
            "display_name" : "Panda1",
            "id" : 516826373663227908,
            "name" : "Panda1"
        },
        "channel" : {
            "id" : 541693198821490708,
            "name" : "art\u2741"
        },
        "channel_mentions" : [],
        "content" : "Thanks xD",
        "id" : 544296030217306132,
        "mention_everyone" : false,
        "mentions" : [],
        "pinned" : false,
        "role_mentions" : [],
        "timestamp" : "2019-02-10 23:18:06",
        "tts" : false
    },
    {
        "author" : {
            "bot" : false,
            "discriminator" : "5503",
            "display_name" : "k_ducky123",
            "id" : 394179855702294529,
            "name" : "k_ducky123"
        },
        "channel" : {
            "id" : 541693198821490708,
            "name" : "art\u2741"
        },
        "channel_mentions" : [],
        "content" : "very original and helpful lmao",
        "id" : 544295937682571264,
        "mention_everyone" : false,
        "mentions" : [],
        "pinned" : false,
        "role_mentions" : [],
        "timestamp" : "2019-02-10 23:17:44",
        "tts" : false
    },
    {
        "author" : {
            "bot" : false,
            "discriminator" : "9877",
            "display_name" : "Panda1",
            "id" : 516826373663227908,
            "name" : "Panda1"
        },
        "channel" : {
            "id" : 541693198821490708,
            "name" : "art\u2741"
        },
        "channel_mentions" : [],
        "content" : "Name um demon idk",
        "id" : 544286584695160852,
        "mention_everyone" : false,
        "mentions" : [],
        "pinned" : false,
        "role_mentions" : [],
        "timestamp" : "2019-02-10 22:40:34",
        "tts" : false
    },
    {
        "author" : {
            "bot" : false,
            "discriminator" : "9877",
            "display_name" : "Panda1",
            "id" : 516826373663227908,
            "name" : "Panda1"
        },
        "channel" : {
            "id" : 541693198821490708,
            "name" : "art\u2741"
        },
        "channel_mentions" : [],
        "content" : "Hair IDK",
        "id" : 544286431963512866,
        "mention_everyone" : false,
        "mentions" : [],
        "pinned" : false,
        "role_mentions" : [],
        "timestamp" : "2019-02-10 22:39:57",
        "tts" : false
    },
    {
        "author" : {
            "bot" : false,
            "discriminator" : "9877",
            "display_name" : "Panda1",
            "id" : 516826373663227908,
            "name" : "Panda1"
        },
        "channel" : {
            "id" : 541693198821490708,
            "name" : "art\u2741"
        },
        "channel_mentions" : [],
        "content" : "Cool",
        "id" : 544286382894612501,
        "mention_everyone" : false,
        "mentions" : [],
        "pinned" : false,
        "role_mentions" : [],
        "timestamp" : "2019-02-10 22:39:46",
        "tts" : false
    },
    {
        "author" : {
            "bot" : false,
            "discriminator" : "5503",
            "display_name" : "k_ducky123",
            "id" : 394179855702294529,
            "name" : "k_ducky123"
        },
        "channel" : {
            "id" : 541693198821490708,
            "name" : "art\u2741"
        },
        "channel_mentions" : [],
        "content" : "Any Name or hair style suggestions?",
        "id" : 544282351912353804,
        "mention_everyone" : false,
        "mentions" : [],
        "pinned" : false,
        "role_mentions" : [],
        "timestamp" : "2019-02-10 22:23:44",
        "tts" : false
    },
    {
        "author" : {
            "bot" : false,
            "discriminator" : "9877",
            "display_name" : "Panda1",
            "id" : 516826373663227908,
            "name" : "Panda1"
        },
        "channel" : {
            "id" : 541693198821490708,
            "name" : "art\u2741"
        },
        "channel_mentions" : [],
        "content" : "It's good",
        "id" : 543813331845382145,
        "mention_everyone" : false,
        "mentions" : [],
        "pinned" : false,
        "role_mentions" : [],
        "timestamp" : "2019-02-09 15:20:01",
        "tts" : false
    },
    {
        "author" : {
            "bot" : false,
            "discriminator" : "4087",
            "display_name" : "Fruit",
            "id" : 423967732787183617,
            "name" : "Fruit"
        },
        "channel" : {
            "id" : 541693198821490708,
            "name" : "art\u2741"
        },
        "channel_mentions" : [],
        "content" : "",
        "id" : 543811886626373633,
        "mention_everyone" : false,
        "mentions" : [],
        "pinned" : false,
        "role_mentions" : [],
        "timestamp" : "2019-02-09 15:14:17",
        "tts" : false
    },
    {
        "author" : {
            "bot" : false,
            "discriminator" : "4087",
            "display_name" : "Fruit",
            "id" : 423967732787183617,
            "name" : "Fruit"
        },
        "channel" : {
            "id" : 541693198821490708,
            "name" : "art\u2741"
        },
        "channel_mentions" : [],
        "content" : "Good job!",
        "id" : 543806949653741583,
        "mention_everyone" : false,
        "mentions" : [],
        "pinned" : false,
        "role_mentions" : [],
        "timestamp" : "2019-02-09 14:54:40",
        "tts" : false
    },
    {
        "author" : {
            "bot" : false,
            "discriminator" : "9877",
            "display_name" : "Panda1",
            "id" : 516826373663227908,
            "name" : "Panda1"
        },
        "channel" : {
            "id" : 541693198821490708,
            "name" : "art\u2741"
        },
        "channel_mentions" : [],
        "content" : "Lol it's good",
        "id" : 543806660041375759,
        "mention_everyone" : false,
        "mentions" : [],
        "pinned" : false,
        "role_mentions" : [],
        "timestamp" : "2019-02-09 14:53:31",
        "tts" : false
    },
    {
        "author" : {
            "bot" : false,
            "discriminator" : "5503",
            "display_name" : "k_ducky123",
            "id" : 394179855702294529,
            "name" : "k_ducky123"
        },
        "channel" : {
            "id" : 541693198821490708,
            "name" : "art\u2741"
        },
        "channel_mentions" : [],
        "content" : "I made this if me and my friends",
        "id" : 543806381107707925,
        "mention_everyone" : false,
        "mentions" : [],
        "pinned" : false,
        "role_mentions" : [],
        "timestamp" : "2019-02-09 14:52:24",
        "tts" : false
    },
    {
        "author" : {
            "bot" : false,
            "discriminator" : "8773",
            "display_name" : "Spartan",
            "id" : 396047335232241665,
            "name" : "Spartanslayer9001"
        },
        "channel" : {
            "id" : 541693198821490708,
            "name" : "art\u2741"
        },
        "channel_mentions" : [],
        "content" : "No problem.",
        "id" : 543638549170487332,
        "mention_everyone" : false,
        "mentions" : [],
        "pinned" : false,
        "role_mentions" : [],
        "timestamp" : "2019-02-09 03:45:30",
        "tts" : false
    },
    {
        "author" : {
            "bot" : false,
            "discriminator" : "4087",
            "display_name" : "Fruit",
            "id" : 423967732787183617,
            "name" : "Fruit"
        },
        "channel" : {
            "id" : 541693198821490708,
            "name" : "art\u2741"
        },
        "channel_mentions" : [],
        "content" : "Thanks.",
        "id" : 543638489548324874,
        "mention_everyone" : false,
        "mentions" : [],
        "pinned" : false,
        "role_mentions" : [],
        "timestamp" : "2019-02-09 03:45:16",
        "tts" : false
    },
    {
        "author" : {
            "bot" : false,
            "discriminator" : "8773",
            "display_name" : "Spartan",
            "id" : 396047335232241665,
            "name" : "Spartanslayer9001"
        },
        "channel" : {
            "id" : 541693198821490708,
            "name" : "art\u2741"
        },
        "channel_mentions" : [],
        "content" : "Nice art.",
        "id" : 543638416881877001,
        "mention_everyone" : false,
        "mentions" : [],
        "pinned" : false,
        "role_mentions" : [],
        "timestamp" : "2019-02-09 03:44:58",
        "tts" : false
    },
    {
        "author" : {
            "bot" : false,
            "discriminator" : "4087",
            "display_name" : "Fruit",
            "id" : 423967732787183617,
            "name" : "Fruit"
        },
        "channel" : {
            "id" : 541693198821490708,
            "name" : "art\u2741"
        },
        "channel_mentions" : [],
        "content" : "",
        "id" : 543638363761278989,
        "mention_everyone" : false,
        "mentions" : [],
        "pinned" : false,
        "role_mentions" : [],
        "timestamp" : "2019-02-09 03:44:46",
        "tts" : false
    },
    {
        "author" : {
            "bot" : false,
            "discriminator" : "4087",
            "display_name" : "Fruit",
            "id" : 423967732787183617,
            "name" : "Fruit"
        },
        "channel" : {
            "id" : 541693198821490708,
            "name" : "art\u2741"
        },
        "channel_mentions" : [],
        "content" : "Steven Universe trash",
        "id" : 543624886833119234,
        "mention_everyone" : false,
        "mentions" : [],
        "pinned" : false,
        "role_mentions" : [],
        "timestamp" : "2019-02-09 02:51:13",
        "tts" : false
    },
    {
        "author" : {
            "bot" : false,
            "discriminator" : "1413",
            "display_name" : "Joshy",
            "id" : 273840120589713410,
            "name" : "Joshy"
        },
        "channel" : {
            "id" : 541693198821490708,
            "name" : "art\u2741"
        },
        "channel_mentions" : [],
        "content" : "",
        "id" : 543555643030634505,
        "mention_everyone" : false,
        "mentions" : [],
        "pinned" : false,
        "role_mentions" : [],
        "timestamp" : "2019-02-08 22:16:04",
        "tts" : false
    }
]