[
    {
        "author" : {
            "bot" : true,
            "discriminator" : "3970",
            "display_name" : "Galaxy",
            "id" : 534468156056535052,
            "name" : "Galaxy"
        },
        "channel" : {
            "id" : 550323944448589825,
            "name" : "verification-pictures"
        },
        "channel_mentions" : [],
        "content" : "\u2501\u2501\u2501\u2501\u2501\u2501\u2501\u2501\u2501\u2501\u2501\u2501\u2501\u2501\u2501\u2501\u2501\u2501\u2501\u2501\u2501\u2501\u2501\u2501\u2501\u2501\u2501\u2501",
        "id" : 550442402503065600,
        "mention_everyone" : false,
        "mentions" : [],
        "pinned" : false,
        "role_mentions" : [],
        "timestamp" : "2019-02-27 22:21:35",
        "tts" : false
    },
    {
        "author" : {
            "bot" : false,
            "discriminator" : "1090",
            "display_name" : "Human",
            "id" : 232107009434976258,
            "name" : "Human"
        },
        "channel" : {
            "id" : 550323944448589825,
            "name" : "verification-pictures"
        },
        "channel_mentions" : [],
        "content" : "https://i.imgur.com/Xa6ailL.jpg",
        "id" : 550441045519892582,
        "mention_everyone" : false,
        "mentions" : [],
        "pinned" : false,
        "role_mentions" : [],
        "timestamp" : "2019-02-27 22:16:11",
        "tts" : false
    },
    {
        "author" : {
            "bot" : false,
            "discriminator" : "1090",
            "display_name" : "Human",
            "id" : 232107009434976258,
            "name" : "Human"
        },
        "channel" : {
            "id" : 550323944448589825,
            "name" : "verification-pictures"
        },
        "channel_mentions" : [],
        "content" : "https://imgur.com/a/rYdAAUH",
        "id" : 550440945557045258,
        "mention_everyone" : false,
        "mentions" : [],
        "pinned" : false,
        "role_mentions" : [],
        "timestamp" : "2019-02-27 22:15:48",
        "tts" : false
    },
    {
        "author" : {
            "bot" : true,
            "discriminator" : "3970",
            "display_name" : "Galaxy",
            "id" : 534468156056535052,
            "name" : "Galaxy"
        },
        "channel" : {
            "id" : 550323944448589825,
            "name" : "verification-pictures"
        },
        "channel_mentions" : [],
        "content" : "",
        "id" : 550440919770333184,
        "mention_everyone" : false,
        "mentions" : [],
        "pinned" : false,
        "role_mentions" : [],
        "timestamp" : "2019-02-27 22:15:41",
        "tts" : false
    },
    {
        "author" : {
            "bot" : false,
            "discriminator" : "1090",
            "display_name" : "Human",
            "id" : 232107009434976258,
            "name" : "Human"
        },
        "channel" : {
            "id" : 550323944448589825,
            "name" : "verification-pictures"
        },
        "channel_mentions" : [],
        "content" : "Name: <@!526536767550259202>\nID: 526536767550259202",
        "id" : 550440856855904267,
        "mention_everyone" : false,
        "mentions" : [
            {
                "bot" : false,
                "discriminator" : "6173",
                "display_name" : "Archer (CrispyDuck\u2019s Servant)",
                "id" : 526536767550259202,
                "name" : "Enjoy Ice"
            }
        ],
        "pinned" : false,
        "role_mentions" : [],
        "timestamp" : "2019-02-27 22:15:26",
        "tts" : false
    },
    {
        "author" : {
            "bot" : false,
            "discriminator" : "1090",
            "display_name" : "Human",
            "id" : 232107009434976258,
            "name" : "Human"
        },
        "channel" : {
            "id" : 550323944448589825,
            "name" : "verification-pictures"
        },
        "channel_mentions" : [],
        "content" : "-----------------------------------------------------------------------------------------------------",
        "id" : 550440851440926750,
        "mention_everyone" : false,
        "mentions" : [],
        "pinned" : false,
        "role_mentions" : [],
        "timestamp" : "2019-02-27 22:15:25",
        "tts" : false
    },
    {
        "author" : {
            "bot" : false,
            "discriminator" : "1090",
            "display_name" : "Human",
            "id" : 232107009434976258,
            "name" : "Human"
        },
        "channel" : {
            "id" : 550323944448589825,
            "name" : "verification-pictures"
        },
        "channel_mentions" : [],
        "content" : "(Because Discord file-limit sizes)",
        "id" : 550433723397570579,
        "mention_everyone" : false,
        "mentions" : [],
        "pinned" : false,
        "role_mentions" : [],
        "timestamp" : "2019-02-27 21:47:06",
        "tts" : false
    },
    {
        "author" : {
            "bot" : false,
            "discriminator" : "1090",
            "display_name" : "Human",
            "id" : 232107009434976258,
            "name" : "Human"
        },
        "channel" : {
            "id" : 550323944448589825,
            "name" : "verification-pictures"
        },
        "channel_mentions" : [],
        "content" : "https://imgur.com/a/VNfsXQg",
        "id" : 550433672453685270,
        "mention_everyone" : false,
        "mentions" : [],
        "pinned" : false,
        "role_mentions" : [],
        "timestamp" : "2019-02-27 21:46:54",
        "tts" : false
    },
    {
        "author" : {
            "bot" : false,
            "discriminator" : "1090",
            "display_name" : "Human",
            "id" : 232107009434976258,
            "name" : "Human"
        },
        "channel" : {
            "id" : 550323944448589825,
            "name" : "verification-pictures"
        },
        "channel_mentions" : [],
        "content" : "",
        "id" : 550433537023803413,
        "mention_everyone" : false,
        "mentions" : [],
        "pinned" : false,
        "role_mentions" : [],
        "timestamp" : "2019-02-27 21:46:21",
        "tts" : false
    },
    {
        "author" : {
            "bot" : true,
            "discriminator" : "3970",
            "display_name" : "Galaxy",
            "id" : 534468156056535052,
            "name" : "Galaxy"
        },
        "channel" : {
            "id" : 550323944448589825,
            "name" : "verification-pictures"
        },
        "channel_mentions" : [],
        "content" : "",
        "id" : 550433414487212033,
        "mention_everyone" : false,
        "mentions" : [],
        "pinned" : false,
        "role_mentions" : [],
        "timestamp" : "2019-02-27 21:45:52",
        "tts" : false
    },
    {
        "author" : {
            "bot" : false,
            "discriminator" : "1090",
            "display_name" : "Human",
            "id" : 232107009434976258,
            "name" : "Human"
        },
        "channel" : {
            "id" : 550323944448589825,
            "name" : "verification-pictures"
        },
        "channel_mentions" : [],
        "content" : "Name: <@544570669610958848>\nID: 544570669610958848",
        "id" : 550433323223220224,
        "mention_everyone" : false,
        "mentions" : [
            {
                "bot" : false,
                "discriminator" : "5789",
                "display_name" : "Nebby",
                "id" : 544570669610958848,
                "name" : "Nebby"
            }
        ],
        "pinned" : false,
        "role_mentions" : [],
        "timestamp" : "2019-02-27 21:45:30",
        "tts" : false
    }
]