[
    {
        "author" : {
            "bot" : false,
            "discriminator" : "6694",
            "display_name" : "Kevin",
            "id" : 245736944632463362,
            "name" : "Kevinoodle"
        },
        "channel" : {
            "id" : 538210691195076608,
            "name" : "sam-and-kevins-home\ud83c\udfe0"
        },
        "channel_mentions" : [],
        "content" : "",
        "id" : 542589067888558091,
        "mention_everyone" : false,
        "mentions" : [],
        "pinned" : false,
        "role_mentions" : [],
        "timestamp" : "2019-02-06 06:15:14",
        "tts" : false
    },
    {
        "author" : {
            "bot" : false,
            "discriminator" : "7360",
            "display_name" : "\u0274\u026a\u1d18\u1d18\u029f\u1d07\ud83d\udc95",
            "id" : 500329380304650250,
            "name" : "AutisticAussie"
        },
        "channel" : {
            "id" : 538210691195076608,
            "name" : "sam-and-kevins-home\ud83c\udfe0"
        },
        "channel_mentions" : [],
        "content" : "",
        "id" : 538694181598527497,
        "mention_everyone" : false,
        "mentions" : [],
        "pinned" : false,
        "role_mentions" : [],
        "timestamp" : "2019-01-26 12:18:21",
        "tts" : false
    },
    {
        "author" : {
            "bot" : false,
            "discriminator" : "7360",
            "display_name" : "\u0274\u026a\u1d18\u1d18\u029f\u1d07\ud83d\udc95",
            "id" : 500329380304650250,
            "name" : "AutisticAussie"
        },
        "channel" : {
            "id" : 538210691195076608,
            "name" : "sam-and-kevins-home\ud83c\udfe0"
        },
        "channel_mentions" : [],
        "content" : "",
        "id" : 538694122601578516,
        "mention_everyone" : false,
        "mentions" : [],
        "pinned" : false,
        "role_mentions" : [],
        "timestamp" : "2019-01-26 12:18:07",
        "tts" : false
    },
    {
        "author" : {
            "bot" : false,
            "discriminator" : "7360",
            "display_name" : "\u0274\u026a\u1d18\u1d18\u029f\u1d07\ud83d\udc95",
            "id" : 500329380304650250,
            "name" : "AutisticAussie"
        },
        "channel" : {
            "id" : 538210691195076608,
            "name" : "sam-and-kevins-home\ud83c\udfe0"
        },
        "channel_mentions" : [],
        "content" : "",
        "id" : 538694093862338568,
        "mention_everyone" : false,
        "mentions" : [],
        "pinned" : false,
        "role_mentions" : [],
        "timestamp" : "2019-01-26 12:18:00",
        "tts" : false
    },
    {
        "author" : {
            "bot" : false,
            "discriminator" : "7360",
            "display_name" : "\u0274\u026a\u1d18\u1d18\u029f\u1d07\ud83d\udc95",
            "id" : 500329380304650250,
            "name" : "AutisticAussie"
        },
        "channel" : {
            "id" : 538210691195076608,
            "name" : "sam-and-kevins-home\ud83c\udfe0"
        },
        "channel_mentions" : [],
        "content" : "",
        "id" : 538665996383158273,
        "mention_everyone" : false,
        "mentions" : [],
        "pinned" : false,
        "role_mentions" : [],
        "timestamp" : "2019-01-26 10:26:21",
        "tts" : false
    },
    {
        "author" : {
            "bot" : false,
            "discriminator" : "7360",
            "display_name" : "\u0274\u026a\u1d18\u1d18\u029f\u1d07\ud83d\udc95",
            "id" : 500329380304650250,
            "name" : "AutisticAussie"
        },
        "channel" : {
            "id" : 538210691195076608,
            "name" : "sam-and-kevins-home\ud83c\udfe0"
        },
        "channel_mentions" : [],
        "content" : "",
        "id" : 538645305801965589,
        "mention_everyone" : false,
        "mentions" : [],
        "pinned" : false,
        "role_mentions" : [],
        "timestamp" : "2019-01-26 09:04:08",
        "tts" : false
    },
    {
        "author" : {
            "bot" : false,
            "discriminator" : "7360",
            "display_name" : "\u0274\u026a\u1d18\u1d18\u029f\u1d07\ud83d\udc95",
            "id" : 500329380304650250,
            "name" : "AutisticAussie"
        },
        "channel" : {
            "id" : 538210691195076608,
            "name" : "sam-and-kevins-home\ud83c\udfe0"
        },
        "channel_mentions" : [],
        "content" : "",
        "id" : 538643701933801482,
        "mention_everyone" : false,
        "mentions" : [],
        "pinned" : false,
        "role_mentions" : [],
        "timestamp" : "2019-01-26 08:57:46",
        "tts" : false
    },
    {
        "author" : {
            "bot" : false,
            "discriminator" : "6694",
            "display_name" : "Kevin",
            "id" : 245736944632463362,
            "name" : "Kevinoodle"
        },
        "channel" : {
            "id" : 538210691195076608,
            "name" : "sam-and-kevins-home\ud83c\udfe0"
        },
        "channel_mentions" : [],
        "content" : "\ud83d\udcb1",
        "id" : 538627725439533056,
        "mention_everyone" : false,
        "mentions" : [],
        "pinned" : false,
        "role_mentions" : [],
        "timestamp" : "2019-01-26 07:54:16",
        "tts" : false
    },
    {
        "author" : {
            "bot" : false,
            "discriminator" : "7360",
            "display_name" : "\u0274\u026a\u1d18\u1d18\u029f\u1d07\ud83d\udc95",
            "id" : 500329380304650250,
            "name" : "AutisticAussie"
        },
        "channel" : {
            "id" : 538210691195076608,
            "name" : "sam-and-kevins-home\ud83c\udfe0"
        },
        "channel_mentions" : [],
        "content" : "",
        "id" : 538626763857854484,
        "mention_everyone" : false,
        "mentions" : [],
        "pinned" : false,
        "role_mentions" : [],
        "timestamp" : "2019-01-26 07:50:27",
        "tts" : false
    },
    {
        "author" : {
            "bot" : false,
            "discriminator" : "7360",
            "display_name" : "\u0274\u026a\u1d18\u1d18\u029f\u1d07\ud83d\udc95",
            "id" : 500329380304650250,
            "name" : "AutisticAussie"
        },
        "channel" : {
            "id" : 538210691195076608,
            "name" : "sam-and-kevins-home\ud83c\udfe0"
        },
        "channel_mentions" : [],
        "content" : "",
        "id" : 538626538137059348,
        "mention_everyone" : false,
        "mentions" : [],
        "pinned" : false,
        "role_mentions" : [],
        "timestamp" : "2019-01-26 07:49:33",
        "tts" : false
    },
    {
        "author" : {
            "bot" : false,
            "discriminator" : "7360",
            "display_name" : "\u0274\u026a\u1d18\u1d18\u029f\u1d07\ud83d\udc95",
            "id" : 500329380304650250,
            "name" : "AutisticAussie"
        },
        "channel" : {
            "id" : 538210691195076608,
            "name" : "sam-and-kevins-home\ud83c\udfe0"
        },
        "channel_mentions" : [],
        "content" : "",
        "id" : 538626353012932613,
        "mention_everyone" : false,
        "mentions" : [],
        "pinned" : false,
        "role_mentions" : [],
        "timestamp" : "2019-01-26 07:48:49",
        "tts" : false
    },
    {
        "author" : {
            "bot" : false,
            "discriminator" : "7360",
            "display_name" : "\u0274\u026a\u1d18\u1d18\u029f\u1d07\ud83d\udc95",
            "id" : 500329380304650250,
            "name" : "AutisticAussie"
        },
        "channel" : {
            "id" : 538210691195076608,
            "name" : "sam-and-kevins-home\ud83c\udfe0"
        },
        "channel_mentions" : [],
        "content" : "",
        "id" : 538626231277584415,
        "mention_everyone" : false,
        "mentions" : [],
        "pinned" : false,
        "role_mentions" : [],
        "timestamp" : "2019-01-26 07:48:20",
        "tts" : false
    },
    {
        "author" : {
            "bot" : false,
            "discriminator" : "7360",
            "display_name" : "\u0274\u026a\u1d18\u1d18\u029f\u1d07\ud83d\udc95",
            "id" : 500329380304650250,
            "name" : "AutisticAussie"
        },
        "channel" : {
            "id" : 538210691195076608,
            "name" : "sam-and-kevins-home\ud83c\udfe0"
        },
        "channel_mentions" : [],
        "content" : "",
        "id" : 538625986988736512,
        "mention_everyone" : false,
        "mentions" : [],
        "pinned" : false,
        "role_mentions" : [],
        "timestamp" : "2019-01-26 07:47:22",
        "tts" : false
    },
    {
        "author" : {
            "bot" : false,
            "discriminator" : "7360",
            "display_name" : "\u0274\u026a\u1d18\u1d18\u029f\u1d07\ud83d\udc95",
            "id" : 500329380304650250,
            "name" : "AutisticAussie"
        },
        "channel" : {
            "id" : 538210691195076608,
            "name" : "sam-and-kevins-home\ud83c\udfe0"
        },
        "channel_mentions" : [],
        "content" : "So many fucking photos",
        "id" : 538625945825705995,
        "mention_everyone" : false,
        "mentions" : [],
        "pinned" : false,
        "role_mentions" : [],
        "timestamp" : "2019-01-26 07:47:12",
        "tts" : false
    },
    {
        "author" : {
            "bot" : false,
            "discriminator" : "7360",
            "display_name" : "\u0274\u026a\u1d18\u1d18\u029f\u1d07\ud83d\udc95",
            "id" : 500329380304650250,
            "name" : "AutisticAussie"
        },
        "channel" : {
            "id" : 538210691195076608,
            "name" : "sam-and-kevins-home\ud83c\udfe0"
        },
        "channel_mentions" : [],
        "content" : "",
        "id" : 538625903106719744,
        "mention_everyone" : false,
        "mentions" : [],
        "pinned" : false,
        "role_mentions" : [],
        "timestamp" : "2019-01-26 07:47:02",
        "tts" : false
    },
    {
        "author" : {
            "bot" : false,
            "discriminator" : "7360",
            "display_name" : "\u0274\u026a\u1d18\u1d18\u029f\u1d07\ud83d\udc95",
            "id" : 500329380304650250,
            "name" : "AutisticAussie"
        },
        "channel" : {
            "id" : 538210691195076608,
            "name" : "sam-and-kevins-home\ud83c\udfe0"
        },
        "channel_mentions" : [],
        "content" : "",
        "id" : 538625707409145856,
        "mention_everyone" : false,
        "mentions" : [],
        "pinned" : false,
        "role_mentions" : [],
        "timestamp" : "2019-01-26 07:46:15",
        "tts" : false
    },
    {
        "author" : {
            "bot" : false,
            "discriminator" : "7360",
            "display_name" : "\u0274\u026a\u1d18\u1d18\u029f\u1d07\ud83d\udc95",
            "id" : 500329380304650250,
            "name" : "AutisticAussie"
        },
        "channel" : {
            "id" : 538210691195076608,
            "name" : "sam-and-kevins-home\ud83c\udfe0"
        },
        "channel_mentions" : [],
        "content" : "",
        "id" : 538625688597430292,
        "mention_everyone" : false,
        "mentions" : [],
        "pinned" : false,
        "role_mentions" : [],
        "timestamp" : "2019-01-26 07:46:11",
        "tts" : false
    },
    {
        "author" : {
            "bot" : false,
            "discriminator" : "7360",
            "display_name" : "\u0274\u026a\u1d18\u1d18\u029f\u1d07\ud83d\udc95",
            "id" : 500329380304650250,
            "name" : "AutisticAussie"
        },
        "channel" : {
            "id" : 538210691195076608,
            "name" : "sam-and-kevins-home\ud83c\udfe0"
        },
        "channel_mentions" : [],
        "content" : "",
        "id" : 538625623325933588,
        "mention_everyone" : false,
        "mentions" : [],
        "pinned" : false,
        "role_mentions" : [],
        "timestamp" : "2019-01-26 07:45:55",
        "tts" : false
    },
    {
        "author" : {
            "bot" : false,
            "discriminator" : "7360",
            "display_name" : "\u0274\u026a\u1d18\u1d18\u029f\u1d07\ud83d\udc95",
            "id" : 500329380304650250,
            "name" : "AutisticAussie"
        },
        "channel" : {
            "id" : 538210691195076608,
            "name" : "sam-and-kevins-home\ud83c\udfe0"
        },
        "channel_mentions" : [],
        "content" : "",
        "id" : 538625622314844181,
        "mention_everyone" : false,
        "mentions" : [],
        "pinned" : false,
        "role_mentions" : [],
        "timestamp" : "2019-01-26 07:45:55",
        "tts" : false
    },
    {
        "author" : {
            "bot" : false,
            "discriminator" : "7360",
            "display_name" : "\u0274\u026a\u1d18\u1d18\u029f\u1d07\ud83d\udc95",
            "id" : 500329380304650250,
            "name" : "AutisticAussie"
        },
        "channel" : {
            "id" : 538210691195076608,
            "name" : "sam-and-kevins-home\ud83c\udfe0"
        },
        "channel_mentions" : [],
        "content" : "",
        "id" : 538625611997118465,
        "mention_everyone" : false,
        "mentions" : [],
        "pinned" : false,
        "role_mentions" : [],
        "timestamp" : "2019-01-26 07:45:53",
        "tts" : false
    },
    {
        "author" : {
            "bot" : false,
            "discriminator" : "7360",
            "display_name" : "\u0274\u026a\u1d18\u1d18\u029f\u1d07\ud83d\udc95",
            "id" : 500329380304650250,
            "name" : "AutisticAussie"
        },
        "channel" : {
            "id" : 538210691195076608,
            "name" : "sam-and-kevins-home\ud83c\udfe0"
        },
        "channel_mentions" : [],
        "content" : "",
        "id" : 538625434305429507,
        "mention_everyone" : false,
        "mentions" : [],
        "pinned" : false,
        "role_mentions" : [],
        "timestamp" : "2019-01-26 07:45:10",
        "tts" : false
    },
    {
        "author" : {
            "bot" : false,
            "discriminator" : "7360",
            "display_name" : "\u0274\u026a\u1d18\u1d18\u029f\u1d07\ud83d\udc95",
            "id" : 500329380304650250,
            "name" : "AutisticAussie"
        },
        "channel" : {
            "id" : 538210691195076608,
            "name" : "sam-and-kevins-home\ud83c\udfe0"
        },
        "channel_mentions" : [],
        "content" : "",
        "id" : 538625362586763265,
        "mention_everyone" : false,
        "mentions" : [],
        "pinned" : false,
        "role_mentions" : [],
        "timestamp" : "2019-01-26 07:44:53",
        "tts" : false
    },
    {
        "author" : {
            "bot" : false,
            "discriminator" : "7360",
            "display_name" : "\u0274\u026a\u1d18\u1d18\u029f\u1d07\ud83d\udc95",
            "id" : 500329380304650250,
            "name" : "AutisticAussie"
        },
        "channel" : {
            "id" : 538210691195076608,
            "name" : "sam-and-kevins-home\ud83c\udfe0"
        },
        "channel_mentions" : [],
        "content" : "",
        "id" : 538625311454265373,
        "mention_everyone" : false,
        "mentions" : [],
        "pinned" : false,
        "role_mentions" : [],
        "timestamp" : "2019-01-26 07:44:41",
        "tts" : false
    },
    {
        "author" : {
            "bot" : false,
            "discriminator" : "7360",
            "display_name" : "\u0274\u026a\u1d18\u1d18\u029f\u1d07\ud83d\udc95",
            "id" : 500329380304650250,
            "name" : "AutisticAussie"
        },
        "channel" : {
            "id" : 538210691195076608,
            "name" : "sam-and-kevins-home\ud83c\udfe0"
        },
        "channel_mentions" : [],
        "content" : "",
        "id" : 538625271616634880,
        "mention_everyone" : false,
        "mentions" : [],
        "pinned" : false,
        "role_mentions" : [],
        "timestamp" : "2019-01-26 07:44:31",
        "tts" : false
    },
    {
        "author" : {
            "bot" : false,
            "discriminator" : "7360",
            "display_name" : "\u0274\u026a\u1d18\u1d18\u029f\u1d07\ud83d\udc95",
            "id" : 500329380304650250,
            "name" : "AutisticAussie"
        },
        "channel" : {
            "id" : 538210691195076608,
            "name" : "sam-and-kevins-home\ud83c\udfe0"
        },
        "channel_mentions" : [],
        "content" : "",
        "id" : 538625214263853057,
        "mention_everyone" : false,
        "mentions" : [],
        "pinned" : false,
        "role_mentions" : [],
        "timestamp" : "2019-01-26 07:44:18",
        "tts" : false
    },
    {
        "author" : {
            "bot" : false,
            "discriminator" : "7360",
            "display_name" : "\u0274\u026a\u1d18\u1d18\u029f\u1d07\ud83d\udc95",
            "id" : 500329380304650250,
            "name" : "AutisticAussie"
        },
        "channel" : {
            "id" : 538210691195076608,
            "name" : "sam-and-kevins-home\ud83c\udfe0"
        },
        "channel_mentions" : [],
        "content" : "",
        "id" : 538625152468910091,
        "mention_everyone" : false,
        "mentions" : [],
        "pinned" : false,
        "role_mentions" : [],
        "timestamp" : "2019-01-26 07:44:03",
        "tts" : false
    },
    {
        "author" : {
            "bot" : false,
            "discriminator" : "6694",
            "display_name" : "Kevin",
            "id" : 245736944632463362,
            "name" : "Kevinoodle"
        },
        "channel" : {
            "id" : 538210691195076608,
            "name" : "sam-and-kevins-home\ud83c\udfe0"
        },
        "channel_mentions" : [],
        "content" : "",
        "id" : 538615283317997568,
        "mention_everyone" : false,
        "mentions" : [],
        "pinned" : false,
        "role_mentions" : [],
        "timestamp" : "2019-01-26 07:04:50",
        "tts" : false
    },
    {
        "author" : {
            "bot" : false,
            "discriminator" : "7360",
            "display_name" : "\u0274\u026a\u1d18\u1d18\u029f\u1d07\ud83d\udc95",
            "id" : 500329380304650250,
            "name" : "AutisticAussie"
        },
        "channel" : {
            "id" : 538210691195076608,
            "name" : "sam-and-kevins-home\ud83c\udfe0"
        },
        "channel_mentions" : [],
        "content" : "Noice",
        "id" : 538226946874671115,
        "mention_everyone" : false,
        "mentions" : [],
        "pinned" : false,
        "role_mentions" : [],
        "timestamp" : "2019-01-25 05:21:43",
        "tts" : false
    },
    {
        "author" : {
            "bot" : false,
            "discriminator" : "6694",
            "display_name" : "Kevin",
            "id" : 245736944632463362,
            "name" : "Kevinoodle"
        },
        "channel" : {
            "id" : 538210691195076608,
            "name" : "sam-and-kevins-home\ud83c\udfe0"
        },
        "channel_mentions" : [],
        "content" : "",
        "id" : 538225759844827146,
        "mention_everyone" : false,
        "mentions" : [],
        "pinned" : false,
        "role_mentions" : [],
        "timestamp" : "2019-01-25 05:17:00",
        "tts" : false
    },
    {
        "author" : {
            "bot" : false,
            "discriminator" : "7360",
            "display_name" : "\u0274\u026a\u1d18\u1d18\u029f\u1d07\ud83d\udc95",
            "id" : 500329380304650250,
            "name" : "AutisticAussie"
        },
        "channel" : {
            "id" : 538210691195076608,
            "name" : "sam-and-kevins-home\ud83c\udfe0"
        },
        "channel_mentions" : [],
        "content" : "Diabetes in a bag",
        "id" : 538225317320458250,
        "mention_everyone" : false,
        "mentions" : [],
        "pinned" : false,
        "role_mentions" : [],
        "timestamp" : "2019-01-25 05:15:15",
        "tts" : false
    },
    {
        "author" : {
            "bot" : false,
            "discriminator" : "7360",
            "display_name" : "\u0274\u026a\u1d18\u1d18\u029f\u1d07\ud83d\udc95",
            "id" : 500329380304650250,
            "name" : "AutisticAussie"
        },
        "channel" : {
            "id" : 538210691195076608,
            "name" : "sam-and-kevins-home\ud83c\udfe0"
        },
        "channel_mentions" : [],
        "content" : "",
        "id" : 538225306939686930,
        "mention_everyone" : false,
        "mentions" : [],
        "pinned" : false,
        "role_mentions" : [],
        "timestamp" : "2019-01-25 05:15:12",
        "tts" : false
    },
    {
        "author" : {
            "bot" : false,
            "discriminator" : "7360",
            "display_name" : "\u0274\u026a\u1d18\u1d18\u029f\u1d07\ud83d\udc95",
            "id" : 500329380304650250,
            "name" : "AutisticAussie"
        },
        "channel" : {
            "id" : 538210691195076608,
            "name" : "sam-and-kevins-home\ud83c\udfe0"
        },
        "channel_mentions" : [],
        "content" : "record a video Kevin",
        "id" : 538222357144141828,
        "mention_everyone" : false,
        "mentions" : [],
        "pinned" : false,
        "role_mentions" : [],
        "timestamp" : "2019-01-25 05:03:29",
        "tts" : false
    },
    {
        "author" : {
            "bot" : false,
            "discriminator" : "7360",
            "display_name" : "\u0274\u026a\u1d18\u1d18\u029f\u1d07\ud83d\udc95",
            "id" : 500329380304650250,
            "name" : "AutisticAussie"
        },
        "channel" : {
            "id" : 538210691195076608,
            "name" : "sam-and-kevins-home\ud83c\udfe0"
        },
        "channel_mentions" : [],
        "content" : "Oooof",
        "id" : 538222337221459968,
        "mention_everyone" : false,
        "mentions" : [],
        "pinned" : false,
        "role_mentions" : [],
        "timestamp" : "2019-01-25 05:03:24",
        "tts" : false
    },
    {
        "author" : {
            "bot" : false,
            "discriminator" : "6694",
            "display_name" : "Kevin",
            "id" : 245736944632463362,
            "name" : "Kevinoodle"
        },
        "channel" : {
            "id" : 538210691195076608,
            "name" : "sam-and-kevins-home\ud83c\udfe0"
        },
        "channel_mentions" : [],
        "content" : "",
        "id" : 538222299330117632,
        "mention_everyone" : false,
        "mentions" : [],
        "pinned" : false,
        "role_mentions" : [],
        "timestamp" : "2019-01-25 05:03:15",
        "tts" : false
    },
    {
        "author" : {
            "bot" : false,
            "discriminator" : "7360",
            "display_name" : "\u0274\u026a\u1d18\u1d18\u029f\u1d07\ud83d\udc95",
            "id" : 500329380304650250,
            "name" : "AutisticAussie"
        },
        "channel" : {
            "id" : 538210691195076608,
            "name" : "sam-and-kevins-home\ud83c\udfe0"
        },
        "channel_mentions" : [],
        "content" : "So cool",
        "id" : 538221761724940299,
        "mention_everyone" : false,
        "mentions" : [],
        "pinned" : false,
        "role_mentions" : [],
        "timestamp" : "2019-01-25 05:01:07",
        "tts" : false
    },
    {
        "author" : {
            "bot" : false,
            "discriminator" : "6694",
            "display_name" : "Kevin",
            "id" : 245736944632463362,
            "name" : "Kevinoodle"
        },
        "channel" : {
            "id" : 538210691195076608,
            "name" : "sam-and-kevins-home\ud83c\udfe0"
        },
        "channel_mentions" : [],
        "content" : "",
        "id" : 538221582175305729,
        "mention_everyone" : false,
        "mentions" : [],
        "pinned" : false,
        "role_mentions" : [],
        "timestamp" : "2019-01-25 05:00:24",
        "tts" : false
    },
    {
        "author" : {
            "bot" : false,
            "discriminator" : "7360",
            "display_name" : "\u0274\u026a\u1d18\u1d18\u029f\u1d07\ud83d\udc95",
            "id" : 500329380304650250,
            "name" : "AutisticAussie"
        },
        "channel" : {
            "id" : 538210691195076608,
            "name" : "sam-and-kevins-home\ud83c\udfe0"
        },
        "channel_mentions" : [],
        "content" : "For the memes",
        "id" : 538218124743409676,
        "mention_everyone" : false,
        "mentions" : [],
        "pinned" : false,
        "role_mentions" : [],
        "timestamp" : "2019-01-25 04:46:40",
        "tts" : false
    },
    {
        "author" : {
            "bot" : false,
            "discriminator" : "7360",
            "display_name" : "\u0274\u026a\u1d18\u1d18\u029f\u1d07\ud83d\udc95",
            "id" : 500329380304650250,
            "name" : "AutisticAussie"
        },
        "channel" : {
            "id" : 538210691195076608,
            "name" : "sam-and-kevins-home\ud83c\udfe0"
        },
        "channel_mentions" : [],
        "content" : "\ud83d\udc4c\ud83d\udc4c",
        "id" : 538218098797576204,
        "mention_everyone" : false,
        "mentions" : [],
        "pinned" : false,
        "role_mentions" : [],
        "timestamp" : "2019-01-25 04:46:34",
        "tts" : false
    },
    {
        "author" : {
            "bot" : false,
            "discriminator" : "7360",
            "display_name" : "\u0274\u026a\u1d18\u1d18\u029f\u1d07\ud83d\udc95",
            "id" : 500329380304650250,
            "name" : "AutisticAussie"
        },
        "channel" : {
            "id" : 538210691195076608,
            "name" : "sam-and-kevins-home\ud83c\udfe0"
        },
        "channel_mentions" : [],
        "content" : "Lol",
        "id" : 538218088844230656,
        "mention_everyone" : false,
        "mentions" : [],
        "pinned" : false,
        "role_mentions" : [],
        "timestamp" : "2019-01-25 04:46:31",
        "tts" : false
    },
    {
        "author" : {
            "bot" : false,
            "discriminator" : "6694",
            "display_name" : "Kevin",
            "id" : 245736944632463362,
            "name" : "Kevinoodle"
        },
        "channel" : {
            "id" : 538210691195076608,
            "name" : "sam-and-kevins-home\ud83c\udfe0"
        },
        "channel_mentions" : [],
        "content" : "",
        "id" : 538217991779778590,
        "mention_everyone" : false,
        "mentions" : [],
        "pinned" : false,
        "role_mentions" : [],
        "timestamp" : "2019-01-25 04:46:08",
        "tts" : false
    },
    {
        "author" : {
            "bot" : false,
            "discriminator" : "7360",
            "display_name" : "\u0274\u026a\u1d18\u1d18\u029f\u1d07\ud83d\udc95",
            "id" : 500329380304650250,
            "name" : "AutisticAussie"
        },
        "channel" : {
            "id" : 538210691195076608,
            "name" : "sam-and-kevins-home\ud83c\udfe0"
        },
        "channel_mentions" : [],
        "content" : "wish I was THERE",
        "id" : 538213728764559381,
        "mention_everyone" : false,
        "mentions" : [],
        "pinned" : false,
        "role_mentions" : [],
        "timestamp" : "2019-01-25 04:29:12",
        "tts" : false
    },
    {
        "author" : {
            "bot" : false,
            "discriminator" : "7360",
            "display_name" : "\u0274\u026a\u1d18\u1d18\u029f\u1d07\ud83d\udc95",
            "id" : 500329380304650250,
            "name" : "AutisticAussie"
        },
        "channel" : {
            "id" : 538210691195076608,
            "name" : "sam-and-kevins-home\ud83c\udfe0"
        },
        "channel_mentions" : [],
        "content" : "Looks so cool",
        "id" : 538213711526101002,
        "mention_everyone" : false,
        "mentions" : [],
        "pinned" : false,
        "role_mentions" : [],
        "timestamp" : "2019-01-25 04:29:08",
        "tts" : false
    },
    {
        "author" : {
            "bot" : false,
            "discriminator" : "6694",
            "display_name" : "Kevin",
            "id" : 245736944632463362,
            "name" : "Kevinoodle"
        },
        "channel" : {
            "id" : 538210691195076608,
            "name" : "sam-and-kevins-home\ud83c\udfe0"
        },
        "channel_mentions" : [],
        "content" : "",
        "id" : 538213612435669035,
        "mention_everyone" : false,
        "mentions" : [],
        "pinned" : false,
        "role_mentions" : [],
        "timestamp" : "2019-01-25 04:28:44",
        "tts" : false
    },
    {
        "author" : {
            "bot" : false,
            "discriminator" : "7360",
            "display_name" : "\u0274\u026a\u1d18\u1d18\u029f\u1d07\ud83d\udc95",
            "id" : 500329380304650250,
            "name" : "AutisticAussie"
        },
        "channel" : {
            "id" : 538210691195076608,
            "name" : "sam-and-kevins-home\ud83c\udfe0"
        },
        "channel_mentions" : [],
        "content" : "Damn",
        "id" : 538213563236614155,
        "mention_everyone" : false,
        "mentions" : [],
        "pinned" : false,
        "role_mentions" : [],
        "timestamp" : "2019-01-25 04:28:33",
        "tts" : false
    },
    {
        "author" : {
            "bot" : false,
            "discriminator" : "7360",
            "display_name" : "\u0274\u026a\u1d18\u1d18\u029f\u1d07\ud83d\udc95",
            "id" : 500329380304650250,
            "name" : "AutisticAussie"
        },
        "channel" : {
            "id" : 538210691195076608,
            "name" : "sam-and-kevins-home\ud83c\udfe0"
        },
        "channel_mentions" : [],
        "content" : "also I have a great camera",
        "id" : 538213556252835861,
        "mention_everyone" : false,
        "mentions" : [],
        "pinned" : false,
        "role_mentions" : [],
        "timestamp" : "2019-01-25 04:28:31",
        "tts" : false
    },
    {
        "author" : {
            "bot" : false,
            "discriminator" : "7360",
            "display_name" : "\u0274\u026a\u1d18\u1d18\u029f\u1d07\ud83d\udc95",
            "id" : 500329380304650250,
            "name" : "AutisticAussie"
        },
        "channel" : {
            "id" : 538210691195076608,
            "name" : "sam-and-kevins-home\ud83c\udfe0"
        },
        "channel_mentions" : [],
        "content" : "GOOOOO",
        "id" : 538213512762097684,
        "mention_everyone" : false,
        "mentions" : [],
        "pinned" : false,
        "role_mentions" : [],
        "timestamp" : "2019-01-25 04:28:20",
        "tts" : false
    },
    {
        "author" : {
            "bot" : false,
            "discriminator" : "7360",
            "display_name" : "\u0274\u026a\u1d18\u1d18\u029f\u1d07\ud83d\udc95",
            "id" : 500329380304650250,
            "name" : "AutisticAussie"
        },
        "channel" : {
            "id" : 538210691195076608,
            "name" : "sam-and-kevins-home\ud83c\udfe0"
        },
        "channel_mentions" : [],
        "content" : "yes",
        "id" : 538213504537198608,
        "mention_everyone" : false,
        "mentions" : [],
        "pinned" : false,
        "role_mentions" : [],
        "timestamp" : "2019-01-25 04:28:19",
        "tts" : false
    },
    {
        "author" : {
            "bot" : false,
            "discriminator" : "6694",
            "display_name" : "Kevin",
            "id" : 245736944632463362,
            "name" : "Kevinoodle"
        },
        "channel" : {
            "id" : 538210691195076608,
            "name" : "sam-and-kevins-home\ud83c\udfe0"
        },
        "channel_mentions" : [],
        "content" : "ready for a big dump",
        "id" : 538213474203860993,
        "mention_everyone" : false,
        "mentions" : [],
        "pinned" : false,
        "role_mentions" : [],
        "timestamp" : "2019-01-25 04:28:11",
        "tts" : false
    },
    {
        "author" : {
            "bot" : false,
            "discriminator" : "7360",
            "display_name" : "\u0274\u026a\u1d18\u1d18\u029f\u1d07\ud83d\udc95",
            "id" : 500329380304650250,
            "name" : "AutisticAussie"
        },
        "channel" : {
            "id" : 538210691195076608,
            "name" : "sam-and-kevins-home\ud83c\udfe0"
        },
        "channel_mentions" : [],
        "content" : "Suicidal trains hanging on for dear life",
        "id" : 538212631371186186,
        "mention_everyone" : false,
        "mentions" : [],
        "pinned" : false,
        "role_mentions" : [],
        "timestamp" : "2019-01-25 04:24:50",
        "tts" : false
    },
    {
        "author" : {
            "bot" : false,
            "discriminator" : "7360",
            "display_name" : "\u0274\u026a\u1d18\u1d18\u029f\u1d07\ud83d\udc95",
            "id" : 500329380304650250,
            "name" : "AutisticAussie"
        },
        "channel" : {
            "id" : 538210691195076608,
            "name" : "sam-and-kevins-home\ud83c\udfe0"
        },
        "channel_mentions" : [],
        "content" : "",
        "id" : 538212548529356810,
        "mention_everyone" : false,
        "mentions" : [],
        "pinned" : false,
        "role_mentions" : [],
        "timestamp" : "2019-01-25 04:24:31",
        "tts" : false
    },
    {
        "author" : {
            "bot" : false,
            "discriminator" : "6694",
            "display_name" : "Kevin",
            "id" : 245736944632463362,
            "name" : "Kevinoodle"
        },
        "channel" : {
            "id" : 538210691195076608,
            "name" : "sam-and-kevins-home\ud83c\udfe0"
        },
        "channel_mentions" : [],
        "content" : "",
        "id" : 538211559571193863,
        "mention_everyone" : false,
        "mentions" : [],
        "pinned" : false,
        "role_mentions" : [],
        "timestamp" : "2019-01-25 04:20:35",
        "tts" : false
    },
    {
        "author" : {
            "bot" : false,
            "discriminator" : "7360",
            "display_name" : "\u0274\u026a\u1d18\u1d18\u029f\u1d07\ud83d\udc95",
            "id" : 500329380304650250,
            "name" : "AutisticAussie"
        },
        "channel" : {
            "id" : 538210691195076608,
            "name" : "sam-and-kevins-home\ud83c\udfe0"
        },
        "channel_mentions" : [],
        "content" : "Another Kevin",
        "id" : 538211442202116126,
        "mention_everyone" : false,
        "mentions" : [],
        "pinned" : false,
        "role_mentions" : [],
        "timestamp" : "2019-01-25 04:20:07",
        "tts" : false
    },
    {
        "author" : {
            "bot" : false,
            "discriminator" : "7360",
            "display_name" : "\u0274\u026a\u1d18\u1d18\u029f\u1d07\ud83d\udc95",
            "id" : 500329380304650250,
            "name" : "AutisticAussie"
        },
        "channel" : {
            "id" : 538210691195076608,
            "name" : "sam-and-kevins-home\ud83c\udfe0"
        },
        "channel_mentions" : [],
        "content" : "",
        "id" : 538211433981411371,
        "mention_everyone" : false,
        "mentions" : [],
        "pinned" : false,
        "role_mentions" : [],
        "timestamp" : "2019-01-25 04:20:05",
        "tts" : false
    },
    {
        "author" : {
            "bot" : false,
            "discriminator" : "7360",
            "display_name" : "\u0274\u026a\u1d18\u1d18\u029f\u1d07\ud83d\udc95",
            "id" : 500329380304650250,
            "name" : "AutisticAussie"
        },
        "channel" : {
            "id" : 538210691195076608,
            "name" : "sam-and-kevins-home\ud83c\udfe0"
        },
        "channel_mentions" : [],
        "content" : "Fucking orange",
        "id" : 538211263990333442,
        "mention_everyone" : false,
        "mentions" : [],
        "pinned" : false,
        "role_mentions" : [],
        "timestamp" : "2019-01-25 04:19:24",
        "tts" : false
    },
    {
        "author" : {
            "bot" : false,
            "discriminator" : "6694",
            "display_name" : "Kevin",
            "id" : 245736944632463362,
            "name" : "Kevinoodle"
        },
        "channel" : {
            "id" : 538210691195076608,
            "name" : "sam-and-kevins-home\ud83c\udfe0"
        },
        "channel_mentions" : [],
        "content" : "",
        "id" : 538211223616094234,
        "mention_everyone" : false,
        "mentions" : [],
        "pinned" : false,
        "role_mentions" : [],
        "timestamp" : "2019-01-25 04:19:15",
        "tts" : false
    }
]