[
    {
        "author" : {
            "bot" : false,
            "discriminator" : "7360",
            "display_name" : "\u0274\u026a\u1d18\u1d18\u029f\u1d07\ud83d\udc95",
            "id" : 500329380304650250,
            "name" : "AutisticAussie"
        },
        "channel" : {
            "id" : 527738582757146627,
            "name" : "warnings\u26a0\u2757"
        },
        "channel_mentions" : [],
        "content" : "Okay",
        "id" : 530173907412713474,
        "mention_everyone" : false,
        "mentions" : [],
        "pinned" : false,
        "role_mentions" : [],
        "timestamp" : "2019-01-03 00:01:49",
        "tts" : false
    },
    {
        "author" : {
            "bot" : false,
            "discriminator" : "7360",
            "display_name" : "\u0274\u026a\u1d18\u1d18\u029f\u1d07\ud83d\udc95",
            "id" : 500329380304650250,
            "name" : "AutisticAussie"
        },
        "channel" : {
            "id" : 527738582757146627,
            "name" : "warnings\u26a0\u2757"
        },
        "channel_mentions" : [],
        "content" : "Being NSFW in wrong channel x3",
        "id" : 530173872687939587,
        "mention_everyone" : false,
        "mentions" : [],
        "pinned" : false,
        "role_mentions" : [],
        "timestamp" : "2019-01-03 00:01:41",
        "tts" : false
    },
    {
        "author" : {
            "bot" : false,
            "discriminator" : "8534",
            "display_name" : "tape player",
            "id" : 497161684062830603,
            "name" : "(Alex)"
        },
        "channel" : {
            "id" : 527738582757146627,
            "name" : "warnings\u26a0\u2757"
        },
        "channel_mentions" : [],
        "content" : "Since literally nothing can happen  to you for breaking those rules just please try and be more cautious about the rules",
        "id" : 530173826609184808,
        "mention_everyone" : false,
        "mentions" : [],
        "pinned" : false,
        "role_mentions" : [],
        "timestamp" : "2019-01-03 00:01:30",
        "tts" : false
    },
    {
        "author" : {
            "bot" : false,
            "discriminator" : "7360",
            "display_name" : "\u0274\u026a\u1d18\u1d18\u029f\u1d07\ud83d\udc95",
            "id" : 500329380304650250,
            "name" : "AutisticAussie"
        },
        "channel" : {
            "id" : 527738582757146627,
            "name" : "warnings\u26a0\u2757"
        },
        "channel_mentions" : [],
        "content" : "not being a good owner : samantha x9000",
        "id" : 530173730467348488,
        "mention_everyone" : false,
        "mentions" : [],
        "pinned" : false,
        "role_mentions" : [],
        "timestamp" : "2019-01-03 00:01:07",
        "tts" : false
    },
    {
        "author" : {
            "bot" : false,
            "discriminator" : "7360",
            "display_name" : "\u0274\u026a\u1d18\u1d18\u029f\u1d07\ud83d\udc95",
            "id" : 500329380304650250,
            "name" : "AutisticAussie"
        },
        "channel" : {
            "id" : 527738582757146627,
            "name" : "warnings\u26a0\u2757"
        },
        "channel_mentions" : [],
        "content" : "Posting image in wrong channel:samantha x8",
        "id" : 530173640935997460,
        "mention_everyone" : false,
        "mentions" : [],
        "pinned" : false,
        "role_mentions" : [],
        "timestamp" : "2019-01-03 00:00:46",
        "tts" : false
    },
    {
        "author" : {
            "bot" : false,
            "discriminator" : "7360",
            "display_name" : "\u0274\u026a\u1d18\u1d18\u029f\u1d07\ud83d\udc95",
            "id" : 500329380304650250,
            "name" : "AutisticAussie"
        },
        "channel" : {
            "id" : 527738582757146627,
            "name" : "warnings\u26a0\u2757"
        },
        "channel_mentions" : [],
        "content" : "reeee",
        "id" : 530173536715931668,
        "mention_everyone" : false,
        "mentions" : [],
        "pinned" : false,
        "role_mentions" : [],
        "timestamp" : "2019-01-03 00:00:21",
        "tts" : false
    },
    {
        "author" : {
            "bot" : false,
            "discriminator" : "7360",
            "display_name" : "\u0274\u026a\u1d18\u1d18\u029f\u1d07\ud83d\udc95",
            "id" : 500329380304650250,
            "name" : "AutisticAussie"
        },
        "channel" : {
            "id" : 527738582757146627,
            "name" : "warnings\u26a0\u2757"
        },
        "channel_mentions" : [],
        "content" : "bullying others: samantha x2",
        "id" : 530173523780435979,
        "mention_everyone" : false,
        "mentions" : [],
        "pinned" : false,
        "role_mentions" : [],
        "timestamp" : "2019-01-03 00:00:18",
        "tts" : false
    },
    {
        "author" : {
            "bot" : false,
            "discriminator" : "7360",
            "display_name" : "\u0274\u026a\u1d18\u1d18\u029f\u1d07\ud83d\udc95",
            "id" : 500329380304650250,
            "name" : "AutisticAussie"
        },
        "channel" : {
            "id" : 527738582757146627,
            "name" : "warnings\u26a0\u2757"
        },
        "channel_mentions" : [],
        "content" : "Using wrong channel: samantha x8",
        "id" : 530173470609244181,
        "mention_everyone" : false,
        "mentions" : [],
        "pinned" : false,
        "role_mentions" : [],
        "timestamp" : "2019-01-03 00:00:05",
        "tts" : false
    },
    {
        "author" : {
            "bot" : false,
            "discriminator" : "8534",
            "display_name" : "tape player",
            "id" : 497161684062830603,
            "name" : "(Alex)"
        },
        "channel" : {
            "id" : 527738582757146627,
            "name" : "warnings\u26a0\u2757"
        },
        "channel_mentions" : [],
        "content" : "you should be banned",
        "id" : 530173445116264458,
        "mention_everyone" : false,
        "mentions" : [],
        "pinned" : false,
        "role_mentions" : [],
        "timestamp" : "2019-01-02 23:59:59",
        "tts" : false
    },
    {
        "author" : {
            "bot" : false,
            "discriminator" : "7360",
            "display_name" : "\u0274\u026a\u1d18\u1d18\u029f\u1d07\ud83d\udc95",
            "id" : 500329380304650250,
            "name" : "AutisticAussie"
        },
        "channel" : {
            "id" : 527738582757146627,
            "name" : "warnings\u26a0\u2757"
        },
        "channel_mentions" : [],
        "content" : "spam caps: samantha x17",
        "id" : 530173399108943887,
        "mention_everyone" : false,
        "mentions" : [],
        "pinned" : false,
        "role_mentions" : [],
        "timestamp" : "2019-01-02 23:59:48",
        "tts" : false
    },
    {
        "author" : {
            "bot" : false,
            "discriminator" : "7360",
            "display_name" : "\u0274\u026a\u1d18\u1d18\u029f\u1d07\ud83d\udc95",
            "id" : 500329380304650250,
            "name" : "AutisticAussie"
        },
        "channel" : {
            "id" : 527738582757146627,
            "name" : "warnings\u26a0\u2757"
        },
        "channel_mentions" : [],
        "content" : "I must get even",
        "id" : 530173330247122964,
        "mention_everyone" : false,
        "mentions" : [],
        "pinned" : false,
        "role_mentions" : [],
        "timestamp" : "2019-01-02 23:59:32",
        "tts" : false
    },
    {
        "author" : {
            "bot" : false,
            "discriminator" : "8534",
            "display_name" : "tape player",
            "id" : 497161684062830603,
            "name" : "(Alex)"
        },
        "channel" : {
            "id" : 527738582757146627,
            "name" : "warnings\u26a0\u2757"
        },
        "channel_mentions" : [],
        "content" : "thats 3 warning im muting",
        "id" : 529886465623195678,
        "mention_everyone" : false,
        "mentions" : [],
        "pinned" : false,
        "role_mentions" : [],
        "timestamp" : "2019-01-02 04:59:38",
        "tts" : false
    },
    {
        "author" : {
            "bot" : false,
            "discriminator" : "7360",
            "display_name" : "\u0274\u026a\u1d18\u1d18\u029f\u1d07\ud83d\udc95",
            "id" : 500329380304650250,
            "name" : "AutisticAussie"
        },
        "channel" : {
            "id" : 527738582757146627,
            "name" : "warnings\u26a0\u2757"
        },
        "channel_mentions" : [],
        "content" : "-.-",
        "id" : 529886435529064459,
        "mention_everyone" : false,
        "mentions" : [],
        "pinned" : false,
        "role_mentions" : [],
        "timestamp" : "2019-01-02 04:59:31",
        "tts" : false
    },
    {
        "author" : {
            "bot" : false,
            "discriminator" : "7360",
            "display_name" : "\u0274\u026a\u1d18\u1d18\u029f\u1d07\ud83d\udc95",
            "id" : 500329380304650250,
            "name" : "AutisticAussie"
        },
        "channel" : {
            "id" : 527738582757146627,
            "name" : "warnings\u26a0\u2757"
        },
        "channel_mentions" : [],
        "content" : "In general",
        "id" : 529886426305789952,
        "mention_everyone" : false,
        "mentions" : [],
        "pinned" : false,
        "role_mentions" : [],
        "timestamp" : "2019-01-02 04:59:28",
        "tts" : false
    },
    {
        "author" : {
            "bot" : false,
            "discriminator" : "7360",
            "display_name" : "\u0274\u026a\u1d18\u1d18\u029f\u1d07\ud83d\udc95",
            "id" : 500329380304650250,
            "name" : "AutisticAussie"
        },
        "channel" : {
            "id" : 527738582757146627,
            "name" : "warnings\u26a0\u2757"
        },
        "channel_mentions" : [],
        "content" : "Goat: for uploading images",
        "id" : 529886406894551042,
        "mention_everyone" : false,
        "mentions" : [],
        "pinned" : false,
        "role_mentions" : [],
        "timestamp" : "2019-01-02 04:59:24",
        "tts" : false
    },
    {
        "author" : {
            "bot" : false,
            "discriminator" : "8534",
            "display_name" : "tape player",
            "id" : 497161684062830603,
            "name" : "(Alex)"
        },
        "channel" : {
            "id" : 527738582757146627,
            "name" : "warnings\u26a0\u2757"
        },
        "channel_mentions" : [
            {
                "id" : 527738582757146627,
                "name" : "warnings\u26a0\u2757"
            }
        ],
        "content" : "Warnings: Obama: Excessive use of <#527738582757146627>",
        "id" : 529886342960906270,
        "mention_everyone" : false,
        "mentions" : [],
        "pinned" : false,
        "role_mentions" : [],
        "timestamp" : "2019-01-02 04:59:08",
        "tts" : false
    },
    {
        "author" : {
            "bot" : false,
            "discriminator" : "7360",
            "display_name" : "\u0274\u026a\u1d18\u1d18\u029f\u1d07\ud83d\udc95",
            "id" : 500329380304650250,
            "name" : "AutisticAussie"
        },
        "channel" : {
            "id" : 527738582757146627,
            "name" : "warnings\u26a0\u2757"
        },
        "channel_mentions" : [],
        "content" : "",
        "id" : 529886234412187649,
        "mention_everyone" : false,
        "mentions" : [],
        "pinned" : false,
        "role_mentions" : [],
        "timestamp" : "2019-01-02 04:58:43",
        "tts" : false
    },
    {
        "author" : {
            "bot" : false,
            "discriminator" : "7360",
            "display_name" : "\u0274\u026a\u1d18\u1d18\u029f\u1d07\ud83d\udc95",
            "id" : 500329380304650250,
            "name" : "AutisticAussie"
        },
        "channel" : {
            "id" : 527738582757146627,
            "name" : "warnings\u26a0\u2757"
        },
        "channel_mentions" : [],
        "content" : "Warnings : Alex for: welcoming guests in a rude manner",
        "id" : 529886204930555914,
        "mention_everyone" : false,
        "mentions" : [],
        "pinned" : true,
        "role_mentions" : [],
        "timestamp" : "2019-01-02 04:58:36",
        "tts" : false
    },
    {
        "author" : {
            "bot" : false,
            "discriminator" : "8534",
            "display_name" : "tape player",
            "id" : 497161684062830603,
            "name" : "(Alex)"
        },
        "channel" : {
            "id" : 527738582757146627,
            "name" : "warnings\u26a0\u2757"
        },
        "channel_mentions" : [],
        "content" : "Warning: Obama for being black",
        "id" : 529886148752048144,
        "mention_everyone" : false,
        "mentions" : [],
        "pinned" : false,
        "role_mentions" : [],
        "timestamp" : "2019-01-02 04:58:22",
        "tts" : false
    },
    {
        "author" : {
            "bot" : false,
            "discriminator" : "7360",
            "display_name" : "\u0274\u026a\u1d18\u1d18\u029f\u1d07\ud83d\udc95",
            "id" : 500329380304650250,
            "name" : "AutisticAussie"
        },
        "channel" : {
            "id" : 527738582757146627,
            "name" : "warnings\u26a0\u2757"
        },
        "channel_mentions" : [],
        "content" : "warning : Me for being ugly",
        "id" : 529885965129351180,
        "mention_everyone" : false,
        "mentions" : [],
        "pinned" : false,
        "role_mentions" : [],
        "timestamp" : "2019-01-02 04:57:38",
        "tts" : false
    },
    {
        "author" : {
            "bot" : false,
            "discriminator" : "8534",
            "display_name" : "tape player",
            "id" : 497161684062830603,
            "name" : "(Alex)"
        },
        "channel" : {
            "id" : 527738582757146627,
            "name" : "warnings\u26a0\u2757"
        },
        "channel_mentions" : [],
        "content" : "Goat again for using wrong chat",
        "id" : 529885410331983872,
        "mention_everyone" : false,
        "mentions" : [],
        "pinned" : false,
        "role_mentions" : [],
        "timestamp" : "2019-01-02 04:55:26",
        "tts" : false
    },
    {
        "author" : {
            "bot" : false,
            "discriminator" : "7360",
            "display_name" : "\u0274\u026a\u1d18\u1d18\u029f\u1d07\ud83d\udc95",
            "id" : 500329380304650250,
            "name" : "AutisticAussie"
        },
        "channel" : {
            "id" : 527738582757146627,
            "name" : "warnings\u26a0\u2757"
        },
        "channel_mentions" : [
            {
                "id" : 527719425583874061,
                "name" : "\u00bb-general"
            }
        ],
        "content" : "Warning: Alex for link posting in <#527719425583874061>",
        "id" : 529883188256833577,
        "mention_everyone" : false,
        "mentions" : [],
        "pinned" : false,
        "role_mentions" : [],
        "timestamp" : "2019-01-02 04:46:36",
        "tts" : false
    },
    {
        "author" : {
            "bot" : false,
            "discriminator" : "7360",
            "display_name" : "\u0274\u026a\u1d18\u1d18\u029f\u1d07\ud83d\udc95",
            "id" : 500329380304650250,
            "name" : "AutisticAussie"
        },
        "channel" : {
            "id" : 527738582757146627,
            "name" : "warnings\u26a0\u2757"
        },
        "channel_mentions" : [],
        "content" : "caps",
        "id" : 529882815030886554,
        "mention_everyone" : false,
        "mentions" : [],
        "pinned" : false,
        "role_mentions" : [],
        "timestamp" : "2019-01-02 04:45:07",
        "tts" : false
    },
    {
        "author" : {
            "bot" : false,
            "discriminator" : "7360",
            "display_name" : "\u0274\u026a\u1d18\u1d18\u029f\u1d07\ud83d\udc95",
            "id" : 500329380304650250,
            "name" : "AutisticAussie"
        },
        "channel" : {
            "id" : 527738582757146627,
            "name" : "warnings\u26a0\u2757"
        },
        "channel_mentions" : [],
        "content" : "for",
        "id" : 529882804809629716,
        "mention_everyone" : false,
        "mentions" : [],
        "pinned" : false,
        "role_mentions" : [],
        "timestamp" : "2019-01-02 04:45:05",
        "tts" : false
    },
    {
        "author" : {
            "bot" : false,
            "discriminator" : "7360",
            "display_name" : "\u0274\u026a\u1d18\u1d18\u029f\u1d07\ud83d\udc95",
            "id" : 500329380304650250,
            "name" : "AutisticAussie"
        },
        "channel" : {
            "id" : 527738582757146627,
            "name" : "warnings\u26a0\u2757"
        },
        "channel_mentions" : [],
        "content" : "Me",
        "id" : 529882796970213377,
        "mention_everyone" : false,
        "mentions" : [],
        "pinned" : false,
        "role_mentions" : [],
        "timestamp" : "2019-01-02 04:45:03",
        "tts" : false
    },
    {
        "author" : {
            "bot" : false,
            "discriminator" : "8534",
            "display_name" : "tape player",
            "id" : 497161684062830603,
            "name" : "(Alex)"
        },
        "channel" : {
            "id" : 527738582757146627,
            "name" : "warnings\u26a0\u2757"
        },
        "channel_mentions" : [],
        "content" : "myself for spam",
        "id" : 529880684928696331,
        "mention_everyone" : false,
        "mentions" : [],
        "pinned" : true,
        "role_mentions" : [],
        "timestamp" : "2019-01-02 04:36:39",
        "tts" : false
    },
    {
        "author" : {
            "bot" : false,
            "discriminator" : "7360",
            "display_name" : "\u0274\u026a\u1d18\u1d18\u029f\u1d07\ud83d\udc95",
            "id" : 500329380304650250,
            "name" : "AutisticAussie"
        },
        "channel" : {
            "id" : 527738582757146627,
            "name" : "warnings\u26a0\u2757"
        },
        "channel_mentions" : [],
        "content" : "Goat for caps",
        "id" : 529880458264313876,
        "mention_everyone" : false,
        "mentions" : [],
        "pinned" : true,
        "role_mentions" : [],
        "timestamp" : "2019-01-02 04:35:45",
        "tts" : false
    }
]