[
    {
        "author" : {
            "bot" : true,
            "discriminator" : "8760",
            "display_name" : "YAGPDB.xyz",
            "id" : 204255221017214977,
            "name" : "YAGPDB.xyz"
        },
        "channel" : {
            "id" : 527723713039433748,
            "name" : "\u00bb-assignable-roles"
        },
        "channel_mentions" : [],
        "content" : "**Role Menu: Status**\nReact to give yourself a role.\n\n\ud83d\ude4c : `Not looking`\n\n\ud83d\udc40 : `Looking`\n\n\ud83d\ude30 : `Complicated`\n\n\ud83d\ude2d : `Single`\n\n\ud83d\ude1a : `Taken`",
        "id" : 543560175919824897,
        "mention_everyone" : false,
        "mentions" : [],
        "pinned" : false,
        "role_mentions" : [],
        "timestamp" : "2019-02-08 22:34:04",
        "tts" : false
    },
    {
        "author" : {
            "bot" : false,
            "discriminator" : "7360",
            "display_name" : "\u0274\u026a\u1d18\u1d18\u029f\u1d07\ud83d\udc95",
            "id" : 500329380304650250,
            "name" : "AutisticAussie"
        },
        "channel" : {
            "id" : 527723713039433748,
            "name" : "\u00bb-assignable-roles"
        },
        "channel_mentions" : [],
        "content" : "**STATUS**",
        "id" : 543560170530275338,
        "mention_everyone" : false,
        "mentions" : [],
        "pinned" : false,
        "role_mentions" : [],
        "timestamp" : "2019-02-08 22:34:03",
        "tts" : false
    },
    {
        "author" : {
            "bot" : true,
            "discriminator" : "8760",
            "display_name" : "YAGPDB.xyz",
            "id" : 204255221017214977,
            "name" : "YAGPDB.xyz"
        },
        "channel" : {
            "id" : 527723713039433748,
            "name" : "\u00bb-assignable-roles"
        },
        "channel_mentions" : [],
        "content" : "**Role Menu: Which is better?**\nReact to give yourself a role.\n\n\ud83d\ude3b : `Cat Person`\n\n\ud83d\udc36 : `Dog Person`",
        "id" : 542952021418967040,
        "mention_everyone" : false,
        "mentions" : [],
        "pinned" : false,
        "role_mentions" : [],
        "timestamp" : "2019-02-07 06:17:29",
        "tts" : false
    },
    {
        "author" : {
            "bot" : false,
            "discriminator" : "7360",
            "display_name" : "\u0274\u026a\u1d18\u1d18\u029f\u1d07\ud83d\udc95",
            "id" : 500329380304650250,
            "name" : "AutisticAussie"
        },
        "channel" : {
            "id" : 527723713039433748,
            "name" : "\u00bb-assignable-roles"
        },
        "channel_mentions" : [],
        "content" : "Obviously dogs are better but **WHICH IS BETTER**",
        "id" : 542952020550615061,
        "mention_everyone" : false,
        "mentions" : [],
        "pinned" : false,
        "role_mentions" : [],
        "timestamp" : "2019-02-07 06:17:29",
        "tts" : false
    },
    {
        "author" : {
            "bot" : true,
            "discriminator" : "8760",
            "display_name" : "YAGPDB.xyz",
            "id" : 204255221017214977,
            "name" : "YAGPDB.xyz"
        },
        "channel" : {
            "id" : 527723713039433748,
            "name" : "\u00bb-assignable-roles"
        },
        "channel_mentions" : [],
        "content" : "**Role Menu: Gender**\nReact to give yourself a role.\n\n\ud83d\udc68 : `Male`\n\n\ud83d\udc69 : `Property`",
        "id" : 542666874488619038,
        "mention_everyone" : false,
        "mentions" : [],
        "pinned" : false,
        "role_mentions" : [],
        "timestamp" : "2019-02-06 11:24:25",
        "tts" : false
    },
    {
        "author" : {
            "bot" : false,
            "discriminator" : "7360",
            "display_name" : "\u0274\u026a\u1d18\u1d18\u029f\u1d07\ud83d\udc95",
            "id" : 500329380304650250,
            "name" : "AutisticAussie"
        },
        "channel" : {
            "id" : 527723713039433748,
            "name" : "\u00bb-assignable-roles"
        },
        "channel_mentions" : [],
        "content" : "**GENDERS**",
        "id" : 542665806799044618,
        "mention_everyone" : false,
        "mentions" : [],
        "pinned" : false,
        "role_mentions" : [],
        "timestamp" : "2019-02-06 11:20:10",
        "tts" : false
    },
    {
        "author" : {
            "bot" : true,
            "discriminator" : "8760",
            "display_name" : "YAGPDB.xyz",
            "id" : 204255221017214977,
            "name" : "YAGPDB.xyz"
        },
        "channel" : {
            "id" : 527723713039433748,
            "name" : "\u00bb-assignable-roles"
        },
        "channel_mentions" : [],
        "content" : "**Role Menu: Random**\nReact to give yourself a role.\n\n<:yagpdb:542314304775520256> : `Lo$er`\n\n<:yagpdb:542314414825668613> : `Sm3xy`\n\n<:yagpdb:542314722058305566> : `Homeless`\n\n<:yagpdb:529967296081428490> : `Handicapped`",
        "id" : 542663701208104960,
        "mention_everyone" : false,
        "mentions" : [],
        "pinned" : false,
        "role_mentions" : [],
        "timestamp" : "2019-02-06 11:11:48",
        "tts" : false
    },
    {
        "author" : {
            "bot" : false,
            "discriminator" : "7360",
            "display_name" : "\u0274\u026a\u1d18\u1d18\u029f\u1d07\ud83d\udc95",
            "id" : 500329380304650250,
            "name" : "AutisticAussie"
        },
        "channel" : {
            "id" : 527723713039433748,
            "name" : "\u00bb-assignable-roles"
        },
        "channel_mentions" : [],
        "content" : "**RANDOM ROLES**",
        "id" : 542663284265058307,
        "mention_everyone" : false,
        "mentions" : [],
        "pinned" : false,
        "role_mentions" : [],
        "timestamp" : "2019-02-06 11:10:09",
        "tts" : false
    },
    {
        "author" : {
            "bot" : true,
            "discriminator" : "8760",
            "display_name" : "YAGPDB.xyz",
            "id" : 204255221017214977,
            "name" : "YAGPDB.xyz"
        },
        "channel" : {
            "id" : 527723713039433748,
            "name" : "\u00bb-assignable-roles"
        },
        "channel_mentions" : [],
        "content" : "**Role Menu: DMs**\nReact to give yourself a role.\n\n<:yagpdb:542304349624467468> : `Ask to DM`\n\n\ud83d\udcf5 : `DMs closed`\n\n\u2763 : `DM friendly`",
        "id" : 542662894983315456,
        "mention_everyone" : false,
        "mentions" : [],
        "pinned" : false,
        "role_mentions" : [],
        "timestamp" : "2019-02-06 11:08:36",
        "tts" : false
    },
    {
        "author" : {
            "bot" : false,
            "discriminator" : "7360",
            "display_name" : "\u0274\u026a\u1d18\u1d18\u029f\u1d07\ud83d\udc95",
            "id" : 500329380304650250,
            "name" : "AutisticAussie"
        },
        "channel" : {
            "id" : 527723713039433748,
            "name" : "\u00bb-assignable-roles"
        },
        "channel_mentions" : [],
        "content" : "**DMS**",
        "id" : 542662426596737035,
        "mention_everyone" : false,
        "mentions" : [],
        "pinned" : false,
        "role_mentions" : [],
        "timestamp" : "2019-02-06 11:06:44",
        "tts" : false
    },
    {
        "author" : {
            "bot" : true,
            "discriminator" : "8760",
            "display_name" : "YAGPDB.xyz",
            "id" : 204255221017214977,
            "name" : "YAGPDB.xyz"
        },
        "channel" : {
            "id" : 527723713039433748,
            "name" : "\u00bb-assignable-roles"
        },
        "channel_mentions" : [],
        "content" : "**Role Menu: Sexuality**\nReact to give yourself a role.\n\n\ud83c\udff3\ufe0f\u200d\ud83c\udf08 : `Gay`\n\n<:yagpdb:530218089342828547> : `Pansexual`\n\n\u270c : `Bisexual`\n\n\u2665 : `Straight`",
        "id" : 542661406751850496,
        "mention_everyone" : false,
        "mentions" : [],
        "pinned" : false,
        "role_mentions" : [],
        "timestamp" : "2019-02-06 11:02:41",
        "tts" : false
    },
    {
        "author" : {
            "bot" : false,
            "discriminator" : "7360",
            "display_name" : "\u0274\u026a\u1d18\u1d18\u029f\u1d07\ud83d\udc95",
            "id" : 500329380304650250,
            "name" : "AutisticAussie"
        },
        "channel" : {
            "id" : 527723713039433748,
            "name" : "\u00bb-assignable-roles"
        },
        "channel_mentions" : [],
        "content" : "**SEXUALITY**",
        "id" : 542660994607087616,
        "mention_everyone" : false,
        "mentions" : [],
        "pinned" : false,
        "role_mentions" : [],
        "timestamp" : "2019-02-06 11:01:03",
        "tts" : false
    },
    {
        "author" : {
            "bot" : true,
            "discriminator" : "8760",
            "display_name" : "YAGPDB.xyz",
            "id" : 204255221017214977,
            "name" : "YAGPDB.xyz"
        },
        "channel" : {
            "id" : 527723713039433748,
            "name" : "\u00bb-assignable-roles"
        },
        "channel_mentions" : [],
        "content" : "**Role Menu: Age**\nReact to give yourself a role.\n\n\ud83d\udd1e : `18`\n\n0\u20e3 : `17`\n\n1\u20e3 : `16`\n\n2\u20e3 : `15`\n\n3\u20e3 : `14`\n\n4\u20e3 : `13`\n\n5\u20e3 : `-13`",
        "id" : 542660688519102467,
        "mention_everyone" : false,
        "mentions" : [],
        "pinned" : false,
        "role_mentions" : [],
        "timestamp" : "2019-02-06 10:59:50",
        "tts" : false
    },
    {
        "author" : {
            "bot" : false,
            "discriminator" : "7360",
            "display_name" : "\u0274\u026a\u1d18\u1d18\u029f\u1d07\ud83d\udc95",
            "id" : 500329380304650250,
            "name" : "AutisticAussie"
        },
        "channel" : {
            "id" : 527723713039433748,
            "name" : "\u00bb-assignable-roles"
        },
        "channel_mentions" : [],
        "content" : "**AGE**",
        "id" : 542660404996997120,
        "mention_everyone" : false,
        "mentions" : [],
        "pinned" : false,
        "role_mentions" : [],
        "timestamp" : "2019-02-06 10:58:42",
        "tts" : false
    }
]