[
    {
        "author" : {
            "bot" : false,
            "discriminator" : "4791",
            "display_name" : "GalaxyHuman",
            "id" : 95654451179687936,
            "name" : "GalaxyHuman"
        },
        "channel" : {
            "id" : 534336686344241152,
            "name" : "\u00bb-media"
        },
        "channel_mentions" : [],
        "content" : "d",
        "id" : 539529551873572874,
        "mention_everyone" : false,
        "mentions" : [],
        "pinned" : false,
        "role_mentions" : [],
        "timestamp" : "2019-01-28 19:37:49",
        "tts" : false
    }
]