[
    {
        "author" : {
            "bot" : false,
            "discriminator" : "7360",
            "display_name" : "\u0274\u026a\u1d18\u1d18\u029f\u1d07\ud83d\udc95",
            "id" : 500329380304650250,
            "name" : "AutisticAussie"
        },
        "channel" : {
            "id" : 527725626304626688,
            "name" : "\u00bb-staff-application"
        },
        "channel_mentions" : [],
        "content" : "Closed",
        "id" : 538326712350408724,
        "mention_everyone" : false,
        "mentions" : [],
        "pinned" : false,
        "role_mentions" : [],
        "timestamp" : "2019-01-25 11:58:09",
        "tts" : false
    },
    {
        "author" : {
            "bot" : false,
            "discriminator" : "7360",
            "display_name" : "\u0274\u026a\u1d18\u1d18\u029f\u1d07\ud83d\udc95",
            "id" : 500329380304650250,
            "name" : "AutisticAussie"
        },
        "channel" : {
            "id" : 527725626304626688,
            "name" : "\u00bb-staff-application"
        },
        "channel_mentions" : [],
        "content" : "__**Partnership Manager Application**__\n\n** First Name:\nWhere are you from?:\nHow old are you?:\nHow much time do you spend on Discord as a whole per week?:\nDo you have any previous experience from being a Partnership Manager? If so what kind of experience?:\nHow many Discord servers are you currently on?:\nThe Partnership Manager role is all about getting new people to the server and helping it grow; how will you manage this task efficiently?:\nAre you willing to work hard, and invest your time on the server?:\nIn a short summary, why should we pick you?:**",
        "id" : 527725802616258581,
        "mention_everyone" : false,
        "mentions" : [],
        "pinned" : false,
        "role_mentions" : [],
        "timestamp" : "2018-12-27 05:53:56",
        "tts" : false
    },
    {
        "author" : {
            "bot" : false,
            "discriminator" : "7360",
            "display_name" : "\u0274\u026a\u1d18\u1d18\u029f\u1d07\ud83d\udc95",
            "id" : 500329380304650250,
            "name" : "AutisticAussie"
        },
        "channel" : {
            "id" : 527725626304626688,
            "name" : "\u00bb-staff-application"
        },
        "channel_mentions" : [],
        "content" : "__**Moderator Application**__\n\n** First Name:\nWhere are you from?:\nHow old are you?:\nHow much time do you spend on Discord as a whole per week?:\nDo you have any previous experiences being a Moderator? If so what kind of specific experience and how many users were on the server?:\nAre you currently Moderator on any other Discord servers?:\nAre you willing to work hard, and invest your time on the server?:\nWhy should we pick you?:\nAnything else to add?:**",
        "id" : 527725760652247060,
        "mention_everyone" : false,
        "mentions" : [],
        "pinned" : false,
        "role_mentions" : [],
        "timestamp" : "2018-12-27 05:53:46",
        "tts" : false
    },
    {
        "author" : {
            "bot" : false,
            "discriminator" : "7360",
            "display_name" : "\u0274\u026a\u1d18\u1d18\u029f\u1d07\ud83d\udc95",
            "id" : 500329380304650250,
            "name" : "AutisticAussie"
        },
        "channel" : {
            "id" : 527725626304626688,
            "name" : "\u00bb-staff-application"
        },
        "channel_mentions" : [],
        "content" : "Welcome to the staff application channel! Here you can apply for Moderator and Partnership Manager (maybe we will add more ranks in the future). Every (approx.) 24h I will wipe the channel, but nonetheless you can apply in this channel after filling out the application templates below. You will be DM'ed by myself upon acceptance or denial, and if accepted I will walk you through of what you are expected to do with the rank you applied for. @everyone",
        "id" : 527725712824729613,
        "mention_everyone" : true,
        "mentions" : [],
        "pinned" : false,
        "role_mentions" : [],
        "timestamp" : "2018-12-27 05:53:34",
        "tts" : false
    }
]