[
    {
        "author" : {
            "bot" : false,
            "discriminator" : "1111",
            "display_name" : "Blood Hunter \u2620",
            "id" : 540503510614147087,
            "name" : "\udb40\udc00\udb40\udc00\udb40\udc00\udb40\udc00 \udb40\udc00\udb40\udc00\udb40\udc00\udb40\udc00 \udb40\udc00\udb40\udc00"
        },
        "channel" : {
            "id" : 541694539447009281,
            "name" : "partners\u273d"
        },
        "channel_mentions" : [],
        "content" : "\ud83e\udd40 lifeless roses \ud83e\udd40\n\u2022 A small but growing community where you can make friends, find that significant other, be edgy, do all that cool stuff with a variety of people!\n\u2022 We have fun channels for games, such as Would You Rather, memes, art, etc.\nWe hope you have a great time in \n\ud83e\udd40 lifeless roses! \ud83e\udd40 @/everyone \nhttps://discord.gg/sFrwhrv",
        "id" : 550024952745820161,
        "mention_everyone" : false,
        "mentions" : [],
        "pinned" : false,
        "role_mentions" : [],
        "timestamp" : "2019-02-26 18:42:47",
        "tts" : false
    },
    {
        "author" : {
            "bot" : false,
            "discriminator" : "1111",
            "display_name" : "Blood Hunter \u2620",
            "id" : 540503510614147087,
            "name" : "\udb40\udc00\udb40\udc00\udb40\udc00\udb40\udc00 \udb40\udc00\udb40\udc00\udb40\udc00\udb40\udc00 \udb40\udc00\udb40\udc00"
        },
        "channel" : {
            "id" : 541694539447009281,
            "name" : "partners\u273d"
        },
        "channel_mentions" : [],
        "content" : "WELCOME TO KYSTY'S SERVER\nThis is just some random friendly server \nWe got\n1.) Friendly people\n2.) Suggestions channel\n3.) Roles\n4.) Bots including a bot named Marriage bot (which is where the family tag came in lol)\n5.) An NSFW channel incase you want to see some nsfw (need to get the role first)\n6.) Dating (and roles involving it single, taken, male or female etc...)\n7.) Um random stuff\n8.) I'm not good at creating descriptions for servers\n9.) Have a nice day lol\nhttps://discord.gg/nD23fB5",
        "id" : 549448571531952128,
        "mention_everyone" : false,
        "mentions" : [],
        "pinned" : false,
        "role_mentions" : [],
        "timestamp" : "2019-02-25 04:32:27",
        "tts" : false
    },
    {
        "author" : {
            "bot" : false,
            "discriminator" : "1111",
            "display_name" : "Blood Hunter \u2620",
            "id" : 540503510614147087,
            "name" : "\udb40\udc00\udb40\udc00\udb40\udc00\udb40\udc00 \udb40\udc00\udb40\udc00\udb40\udc00\udb40\udc00 \udb40\udc00\udb40\udc00"
        },
        "channel" : {
            "id" : 541694539447009281,
            "name" : "partners\u273d"
        },
        "channel_mentions" : [],
        "content" : "```diff\n- Feel Free to join \n```",
        "id" : 544615130160431105,
        "mention_everyone" : false,
        "mentions" : [],
        "pinned" : false,
        "role_mentions" : [],
        "timestamp" : "2019-02-11 20:26:05",
        "tts" : false
    },
    {
        "author" : {
            "bot" : false,
            "discriminator" : "1111",
            "display_name" : "Blood Hunter \u2620",
            "id" : 540503510614147087,
            "name" : "\udb40\udc00\udb40\udc00\udb40\udc00\udb40\udc00 \udb40\udc00\udb40\udc00\udb40\udc00\udb40\udc00 \udb40\udc00\udb40\udc00"
        },
        "channel" : {
            "id" : 541694539447009281,
            "name" : "partners\u273d"
        },
        "channel_mentions" : [],
        "content" : "K0Z4 N0STR4\n \n\u2022 Cute egirls gang \ud83d\udc45\n\u2022 Cute eboys gang \ud83c\udf46\n\u2022 Epic chats for maximum esex potential \ud83d\udca6\n\u2022 Minimal rules \ud83d\ude0c\n@/here @/everyone\n https://cdn.discordapp.com/attachments/531023498680991755/541339485590257674/proxy.duckduckgo.com.gif\n\nhttps://discord.gg/fgWXxEP",
        "id" : 544615071771263006,
        "mention_everyone" : false,
        "mentions" : [],
        "pinned" : false,
        "role_mentions" : [],
        "timestamp" : "2019-02-11 20:25:51",
        "tts" : false
    }
]