[
    {
        "author" : {
            "bot" : false,
            "discriminator" : "1090",
            "display_name" : "Human",
            "id" : 232107009434976258,
            "name" : "Human"
        },
        "channel" : {
            "id" : 550417680583360522,
            "name" : "verification\u272e"
        },
        "channel_mentions" : [],
        "content" : "***And yes, these pictures are kept for long-term storage if we need to question you again.***",
        "id" : 550434009142788101,
        "mention_everyone" : false,
        "mentions" : [],
        "pinned" : false,
        "role_mentions" : [],
        "timestamp" : "2019-02-27 21:48:14",
        "tts" : false
    },
    {
        "author" : {
            "bot" : false,
            "discriminator" : "1090",
            "display_name" : "Human",
            "id" : 232107009434976258,
            "name" : "Human"
        },
        "channel" : {
            "id" : 550417680583360522,
            "name" : "verification\u272e"
        },
        "channel_mentions" : [],
        "content" : "You can also use one of the following to verify: \n> School ID\n> Drivers License (feel free to remove any personally identifiable info)\n> ~~Last power bill~~ jk lol",
        "id" : 550433074236620823,
        "mention_everyone" : false,
        "mentions" : [],
        "pinned" : false,
        "role_mentions" : [],
        "timestamp" : "2019-02-27 21:44:31",
        "tts" : false
    },
    {
        "author" : {
            "bot" : false,
            "discriminator" : "1090",
            "display_name" : "Human",
            "id" : 232107009434976258,
            "name" : "Human"
        },
        "channel" : {
            "id" : 550417680583360522,
            "name" : "verification\u272e"
        },
        "channel_mentions" : [],
        "content" : "",
        "id" : 550433058222899216,
        "mention_everyone" : false,
        "mentions" : [],
        "pinned" : false,
        "role_mentions" : [],
        "timestamp" : "2019-02-27 21:44:27",
        "tts" : false
    },
    {
        "author" : {
            "bot" : true,
            "discriminator" : "3970",
            "display_name" : "Galaxy",
            "id" : 534468156056535052,
            "name" : "Galaxy"
        },
        "channel" : {
            "id" : 550417680583360522,
            "name" : "verification\u272e"
        },
        "channel_mentions" : [],
        "content" : "",
        "id" : 550431090095947778,
        "mention_everyone" : false,
        "mentions" : [],
        "pinned" : true,
        "role_mentions" : [],
        "timestamp" : "2019-02-27 21:36:38",
        "tts" : false
    }
]