[
    {
        "author" : {
            "bot" : false,
            "discriminator" : "1090",
            "display_name" : "Human",
            "id" : 232107009434976258,
            "name" : "Human"
        },
        "channel" : {
            "id" : 548571593601843200,
            "name" : "\u2014commands"
        },
        "channel_mentions" : [],
        "content" : "/help",
        "id" : 551434725932400660,
        "mention_everyone" : false,
        "mentions" : [],
        "pinned" : false,
        "role_mentions" : [],
        "timestamp" : "2019-03-02 16:04:43",
        "tts" : false
    },
    {
        "author" : {
            "bot" : true,
            "discriminator" : "3970",
            "display_name" : "Galaxy",
            "id" : 534468156056535052,
            "name" : "Galaxy"
        },
        "channel" : {
            "id" : 548571593601843200,
            "name" : "\u2014commands"
        },
        "channel_mentions" : [],
        "content" : "Loaded `polling`.",
        "id" : 551434718340579328,
        "mention_everyone" : false,
        "mentions" : [],
        "pinned" : false,
        "role_mentions" : [],
        "timestamp" : "2019-03-02 16:04:42",
        "tts" : false
    },
    {
        "author" : {
            "bot" : false,
            "discriminator" : "1090",
            "display_name" : "Human",
            "id" : 232107009434976258,
            "name" : "Human"
        },
        "channel" : {
            "id" : 548571593601843200,
            "name" : "\u2014commands"
        },
        "channel_mentions" : [],
        "content" : "/load polling",
        "id" : 551434717648519180,
        "mention_everyone" : false,
        "mentions" : [],
        "pinned" : false,
        "role_mentions" : [],
        "timestamp" : "2019-03-02 16:04:41",
        "tts" : false
    },
    {
        "author" : {
            "bot" : true,
            "discriminator" : "3970",
            "display_name" : "Galaxy",
            "id" : 534468156056535052,
            "name" : "Galaxy"
        },
        "channel" : {
            "id" : 548571593601843200,
            "name" : "\u2014commands"
        },
        "channel_mentions" : [],
        "content" : "If you need help, I have a channel in https://discord.gg/mb85deu",
        "id" : 551434698312777749,
        "mention_everyone" : false,
        "mentions" : [],
        "pinned" : false,
        "role_mentions" : [],
        "timestamp" : "2019-03-02 16:04:37",
        "tts" : false
    },
    {
        "author" : {
            "bot" : true,
            "discriminator" : "3970",
            "display_name" : "Galaxy",
            "id" : 534468156056535052,
            "name" : "Galaxy"
        },
        "channel" : {
            "id" : 548571593601843200,
            "name" : "\u2014commands"
        },
        "channel_mentions" : [],
        "content" : "Cog `polling` successfully installed.",
        "id" : 551434697759260672,
        "mention_everyone" : false,
        "mentions" : [],
        "pinned" : false,
        "role_mentions" : [],
        "timestamp" : "2019-03-02 16:04:37",
        "tts" : false
    },
    {
        "author" : {
            "bot" : false,
            "discriminator" : "1090",
            "display_name" : "Human",
            "id" : 232107009434976258,
            "name" : "Human"
        },
        "channel" : {
            "id" : 548571593601843200,
            "name" : "\u2014commands"
        },
        "channel_mentions" : [],
        "content" : "/cog install Sinbad polling",
        "id" : 551434697234841641,
        "mention_everyone" : false,
        "mentions" : [],
        "pinned" : false,
        "role_mentions" : [],
        "timestamp" : "2019-03-02 16:04:36",
        "tts" : false
    },
    {
        "author" : {
            "bot" : false,
            "discriminator" : "1090",
            "display_name" : "Human",
            "id" : 232107009434976258,
            "name" : "Human"
        },
        "channel" : {
            "id" : 548571593601843200,
            "name" : "\u2014commands"
        },
        "channel_mentions" : [],
        "content" : "/cog install Sinbad polling",
        "id" : 551434120321040407,
        "mention_everyone" : false,
        "mentions" : [],
        "pinned" : false,
        "role_mentions" : [],
        "timestamp" : "2019-03-02 16:02:19",
        "tts" : false
    },
    {
        "author" : {
            "bot" : false,
            "discriminator" : "0001",
            "display_name" : "Simon Max",
            "id" : 533989850399899665,
            "name" : "JacquesMax"
        },
        "channel" : {
            "id" : 548571593601843200,
            "name" : "\u2014commands"
        },
        "channel_mentions" : [],
        "content" : "/mjolnir",
        "id" : 551173004982353932,
        "mention_everyone" : false,
        "mentions" : [],
        "pinned" : false,
        "role_mentions" : [],
        "timestamp" : "2019-03-01 22:44:44",
        "tts" : false
    },
    {
        "author" : {
            "bot" : false,
            "discriminator" : "0001",
            "display_name" : "Simon Max",
            "id" : 533989850399899665,
            "name" : "JacquesMax"
        },
        "channel" : {
            "id" : 548571593601843200,
            "name" : "\u2014commands"
        },
        "channel_mentions" : [],
        "content" : "/mjolnir 493850702422999062",
        "id" : 551172563208765444,
        "mention_everyone" : false,
        "mentions" : [],
        "pinned" : false,
        "role_mentions" : [],
        "timestamp" : "2019-03-01 22:42:59",
        "tts" : false
    },
    {
        "author" : {
            "bot" : true,
            "discriminator" : "3970",
            "display_name" : "Galaxy",
            "id" : 534468156056535052,
            "name" : "Galaxy"
        },
        "channel" : {
            "id" : 548571593601843200,
            "name" : "\u2014commands"
        },
        "channel_mentions" : [],
        "content" : "",
        "id" : 550713623320985611,
        "mention_everyone" : false,
        "mentions" : [],
        "pinned" : false,
        "role_mentions" : [],
        "timestamp" : "2019-02-28 16:19:19",
        "tts" : false
    },
    {
        "author" : {
            "bot" : false,
            "discriminator" : "0001",
            "display_name" : "Simon Max",
            "id" : 533989850399899665,
            "name" : "JacquesMax"
        },
        "channel" : {
            "id" : 548571593601843200,
            "name" : "\u2014commands"
        },
        "channel_mentions" : [],
        "content" : "/av 184981352171438080",
        "id" : 550713623043899393,
        "mention_everyone" : false,
        "mentions" : [],
        "pinned" : false,
        "role_mentions" : [],
        "timestamp" : "2019-02-28 16:19:19",
        "tts" : false
    },
    {
        "author" : {
            "bot" : false,
            "discriminator" : "8773",
            "display_name" : "Spartan \u2620",
            "id" : 396047335232241665,
            "name" : "Spartanslayer9001"
        },
        "channel" : {
            "id" : 548571593601843200,
            "name" : "\u2014commands"
        },
        "channel_mentions" : [],
        "content" : "Oh.",
        "id" : 550671277044531202,
        "mention_everyone" : false,
        "mentions" : [],
        "pinned" : false,
        "role_mentions" : [],
        "timestamp" : "2019-02-28 13:31:03",
        "tts" : false
    },
    {
        "author" : {
            "bot" : false,
            "discriminator" : "0001",
            "display_name" : "Simon Max",
            "id" : 533989850399899665,
            "name" : "JacquesMax"
        },
        "channel" : {
            "id" : 548571593601843200,
            "name" : "\u2014commands"
        },
        "channel_mentions" : [],
        "content" : "\"she\" didn't click the verification button yet",
        "id" : 550671231008112640,
        "mention_everyone" : false,
        "mentions" : [],
        "pinned" : false,
        "role_mentions" : [],
        "timestamp" : "2019-02-28 13:30:52",
        "tts" : false
    },
    {
        "author" : {
            "bot" : false,
            "discriminator" : "8773",
            "display_name" : "Spartan \u2620",
            "id" : 396047335232241665,
            "name" : "Spartanslayer9001"
        },
        "channel" : {
            "id" : 548571593601843200,
            "name" : "\u2014commands"
        },
        "channel_mentions" : [],
        "content" : "Ban?",
        "id" : 550671113500360705,
        "mention_everyone" : false,
        "mentions" : [],
        "pinned" : false,
        "role_mentions" : [],
        "timestamp" : "2019-02-28 13:30:24",
        "tts" : false
    },
    {
        "author" : {
            "bot" : false,
            "discriminator" : "8773",
            "display_name" : "Spartan \u2620",
            "id" : 396047335232241665,
            "name" : "Spartanslayer9001"
        },
        "channel" : {
            "id" : 548571593601843200,
            "name" : "\u2014commands"
        },
        "channel_mentions" : [],
        "content" : "Oh.",
        "id" : 550671105950613524,
        "mention_everyone" : false,
        "mentions" : [],
        "pinned" : false,
        "role_mentions" : [],
        "timestamp" : "2019-02-28 13:30:22",
        "tts" : false
    },
    {
        "author" : {
            "bot" : true,
            "discriminator" : "3970",
            "display_name" : "Galaxy",
            "id" : 534468156056535052,
            "name" : "Galaxy"
        },
        "channel" : {
            "id" : 548571593601843200,
            "name" : "\u2014commands"
        },
        "channel_mentions" : [],
        "content" : "",
        "id" : 550671064150310912,
        "mention_everyone" : false,
        "mentions" : [],
        "pinned" : false,
        "role_mentions" : [],
        "timestamp" : "2019-02-28 13:30:12",
        "tts" : false
    },
    {
        "author" : {
            "bot" : false,
            "discriminator" : "0001",
            "display_name" : "Simon Max",
            "id" : 533989850399899665,
            "name" : "JacquesMax"
        },
        "channel" : {
            "id" : 548571593601843200,
            "name" : "\u2014commands"
        },
        "channel_mentions" : [],
        "content" : "<@!540503510614147087> <@!396047335232241665>",
        "id" : 550671051965595662,
        "mention_everyone" : false,
        "mentions" : [
            {
                "bot" : false,
                "discriminator" : "8773",
                "display_name" : "Spartan \u2620",
                "id" : 396047335232241665,
                "name" : "Spartanslayer9001"
            },
            {
                "bot" : false,
                "discriminator" : "1111",
                "display_name" : "Blood Hunter \u2620",
                "id" : 540503510614147087,
                "name" : "\udb40\udc00\udb40\udc00\udb40\udc00\udb40\udc00 \udb40\udc00\udb40\udc00\udb40\udc00\udb40\udc00 \udb40\udc00\udb40\udc00"
            }
        ],
        "pinned" : false,
        "role_mentions" : [],
        "timestamp" : "2019-02-28 13:30:09",
        "tts" : false
    },
    {
        "author" : {
            "bot" : false,
            "discriminator" : "0001",
            "display_name" : "Simon Max",
            "id" : 533989850399899665,
            "name" : "JacquesMax"
        },
        "channel" : {
            "id" : 548571593601843200,
            "name" : "\u2014commands"
        },
        "channel_mentions" : [],
        "content" : "account created 5 minutes ago",
        "id" : 550670663858389002,
        "mention_everyone" : false,
        "mentions" : [],
        "pinned" : false,
        "role_mentions" : [],
        "timestamp" : "2019-02-28 13:28:37",
        "tts" : false
    },
    {
        "author" : {
            "bot" : false,
            "discriminator" : "0001",
            "display_name" : "Simon Max",
            "id" : 533989850399899665,
            "name" : "JacquesMax"
        },
        "channel" : {
            "id" : 548571593601843200,
            "name" : "\u2014commands"
        },
        "channel_mentions" : [],
        "content" : "",
        "id" : 550670452788559872,
        "mention_everyone" : false,
        "mentions" : [],
        "pinned" : false,
        "role_mentions" : [],
        "timestamp" : "2019-02-28 13:27:46",
        "tts" : false
    },
    {
        "author" : {
            "bot" : false,
            "discriminator" : "0001",
            "display_name" : "Simon Max",
            "id" : 533989850399899665,
            "name" : "JacquesMax"
        },
        "channel" : {
            "id" : 548571593601843200,
            "name" : "\u2014commands"
        },
        "channel_mentions" : [],
        "content" : "well that's a fucking catfish if i ever seen one",
        "id" : 550670360672993280,
        "mention_everyone" : false,
        "mentions" : [],
        "pinned" : false,
        "role_mentions" : [],
        "timestamp" : "2019-02-28 13:27:24",
        "tts" : false
    },
    {
        "author" : {
            "bot" : true,
            "discriminator" : "3970",
            "display_name" : "Galaxy",
            "id" : 534468156056535052,
            "name" : "Galaxy"
        },
        "channel" : {
            "id" : 548571593601843200,
            "name" : "\u2014commands"
        },
        "channel_mentions" : [],
        "content" : "",
        "id" : 550670321590599680,
        "mention_everyone" : false,
        "mentions" : [],
        "pinned" : false,
        "role_mentions" : [],
        "timestamp" : "2019-02-28 13:27:15",
        "tts" : false
    },
    {
        "author" : {
            "bot" : false,
            "discriminator" : "0001",
            "display_name" : "Simon Max",
            "id" : 533989850399899665,
            "name" : "JacquesMax"
        },
        "channel" : {
            "id" : 548571593601843200,
            "name" : "\u2014commands"
        },
        "channel_mentions" : [],
        "content" : "/av 550669431597170688",
        "id" : 550670320969711646,
        "mention_everyone" : false,
        "mentions" : [],
        "pinned" : false,
        "role_mentions" : [],
        "timestamp" : "2019-02-28 13:27:15",
        "tts" : false
    },
    {
        "author" : {
            "bot" : false,
            "discriminator" : "1090",
            "display_name" : "Human",
            "id" : 232107009434976258,
            "name" : "Human"
        },
        "channel" : {
            "id" : 548571593601843200,
            "name" : "\u2014commands"
        },
        "channel_mentions" : [],
        "content" : "/cc create simple vdiv \u2501\u2501\u2501\u2501\u2501\u2501\u2501\u2501\u2501\u2501\u2501\u2501\u2501\u2501\u2501\u2501\u2501\u2501\u2501\u2501\u2501\u2501\u2501\u2501\u2501\u2501\u2501\u2501",
        "id" : 550442374518669312,
        "mention_everyone" : false,
        "mentions" : [],
        "pinned" : false,
        "role_mentions" : [],
        "timestamp" : "2019-02-27 22:21:28",
        "tts" : false
    },
    {
        "author" : {
            "bot" : true,
            "discriminator" : "7776",
            "display_name" : "[ #! } Bastion",
            "id" : 267035345537728512,
            "name" : "Bastion"
        },
        "channel" : {
            "id" : 548571593601843200,
            "name" : "\u2014commands"
        },
        "channel_mentions" : [],
        "content" : "",
        "id" : 550441097768468516,
        "mention_everyone" : false,
        "mentions" : [],
        "pinned" : false,
        "role_mentions" : [],
        "timestamp" : "2019-02-27 22:16:24",
        "tts" : false
    },
    {
        "author" : {
            "bot" : false,
            "discriminator" : "0636",
            "display_name" : "cya on the flip side",
            "id" : 489213493103296512,
            "name" : "cya on the flip side"
        },
        "channel" : {
            "id" : 548571593601843200,
            "name" : "\u2014commands"
        },
        "channel_mentions" : [],
        "content" : "#!profile",
        "id" : 550441096807710725,
        "mention_everyone" : false,
        "mentions" : [],
        "pinned" : false,
        "role_mentions" : [],
        "timestamp" : "2019-02-27 22:16:24",
        "tts" : false
    },
    {
        "author" : {
            "bot" : false,
            "discriminator" : "6173",
            "display_name" : "Shirou Emiya",
            "id" : 526536767550259202,
            "name" : "Enjoy Ice"
        },
        "channel" : {
            "id" : 548571593601843200,
            "name" : "\u2014commands"
        },
        "channel_mentions" : [],
        "content" : "Pftt",
        "id" : 550410028431966211,
        "mention_everyone" : false,
        "mentions" : [],
        "pinned" : false,
        "role_mentions" : [],
        "timestamp" : "2019-02-27 20:12:56",
        "tts" : false
    },
    {
        "author" : {
            "bot" : false,
            "discriminator" : "1111",
            "display_name" : "Blood Hunter \u2620",
            "id" : 540503510614147087,
            "name" : "\udb40\udc00\udb40\udc00\udb40\udc00\udb40\udc00 \udb40\udc00\udb40\udc00\udb40\udc00\udb40\udc00 \udb40\udc00\udb40\udc00"
        },
        "channel" : {
            "id" : 548571593601843200,
            "name" : "\u2014commands"
        },
        "channel_mentions" : [],
        "content" : "ok",
        "id" : 550410008647565332,
        "mention_everyone" : false,
        "mentions" : [],
        "pinned" : false,
        "role_mentions" : [],
        "timestamp" : "2019-02-27 20:12:52",
        "tts" : false
    },
    {
        "author" : {
            "bot" : false,
            "discriminator" : "0001",
            "display_name" : "Simon Max",
            "id" : 533989850399899665,
            "name" : "JacquesMax"
        },
        "channel" : {
            "id" : 548571593601843200,
            "name" : "\u2014commands"
        },
        "channel_mentions" : [],
        "content" : "nah, i'll trust you on that one",
        "id" : 550409990825967617,
        "mention_everyone" : false,
        "mentions" : [],
        "pinned" : false,
        "role_mentions" : [],
        "timestamp" : "2019-02-27 20:12:47",
        "tts" : false
    },
    {
        "author" : {
            "bot" : false,
            "discriminator" : "1111",
            "display_name" : "Blood Hunter \u2620",
            "id" : 540503510614147087,
            "name" : "\udb40\udc00\udb40\udc00\udb40\udc00\udb40\udc00 \udb40\udc00\udb40\udc00\udb40\udc00\udb40\udc00 \udb40\udc00\udb40\udc00"
        },
        "channel" : {
            "id" : 548571593601843200,
            "name" : "\u2014commands"
        },
        "channel_mentions" : [],
        "content" : "<@!533989850399899665> Join here",
        "id" : 550409936715382784,
        "mention_everyone" : false,
        "mentions" : [
            {
                "bot" : false,
                "discriminator" : "0001",
                "display_name" : "Simon Max",
                "id" : 533989850399899665,
                "name" : "JacquesMax"
            }
        ],
        "pinned" : false,
        "role_mentions" : [],
        "timestamp" : "2019-02-27 20:12:35",
        "tts" : false
    },
    {
        "author" : {
            "bot" : false,
            "discriminator" : "1111",
            "display_name" : "Blood Hunter \u2620",
            "id" : 540503510614147087,
            "name" : "\udb40\udc00\udb40\udc00\udb40\udc00\udb40\udc00 \udb40\udc00\udb40\udc00\udb40\udc00\udb40\udc00 \udb40\udc00\udb40\udc00"
        },
        "channel" : {
            "id" : 548571593601843200,
            "name" : "\u2014commands"
        },
        "channel_mentions" : [],
        "content" : "let me show you",
        "id" : 550409856935395339,
        "mention_everyone" : false,
        "mentions" : [],
        "pinned" : false,
        "role_mentions" : [],
        "timestamp" : "2019-02-27 20:12:16",
        "tts" : false
    },
    {
        "author" : {
            "bot" : false,
            "discriminator" : "0001",
            "display_name" : "Simon Max",
            "id" : 533989850399899665,
            "name" : "JacquesMax"
        },
        "channel" : {
            "id" : 548571593601843200,
            "name" : "\u2014commands"
        },
        "channel_mentions" : [],
        "content" : "if you say so",
        "id" : 550409767902904320,
        "mention_everyone" : false,
        "mentions" : [],
        "pinned" : false,
        "role_mentions" : [],
        "timestamp" : "2019-02-27 20:11:54",
        "tts" : false
    },
    {
        "author" : {
            "bot" : false,
            "discriminator" : "1111",
            "display_name" : "Blood Hunter \u2620",
            "id" : 540503510614147087,
            "name" : "\udb40\udc00\udb40\udc00\udb40\udc00\udb40\udc00 \udb40\udc00\udb40\udc00\udb40\udc00\udb40\udc00 \udb40\udc00\udb40\udc00"
        },
        "channel" : {
            "id" : 548571593601843200,
            "name" : "\u2014commands"
        },
        "channel_mentions" : [],
        "content" : "<@!533989850399899665> She's not a troll. We share mutual servers",
        "id" : 550409704560394250,
        "mention_everyone" : false,
        "mentions" : [
            {
                "bot" : false,
                "discriminator" : "0001",
                "display_name" : "Simon Max",
                "id" : 533989850399899665,
                "name" : "JacquesMax"
            }
        ],
        "pinned" : false,
        "role_mentions" : [],
        "timestamp" : "2019-02-27 20:11:39",
        "tts" : false
    },
    {
        "author" : {
            "bot" : true,
            "discriminator" : "3970",
            "display_name" : "Galaxy",
            "id" : 534468156056535052,
            "name" : "Galaxy"
        },
        "channel" : {
            "id" : 548571593601843200,
            "name" : "\u2014commands"
        },
        "channel_mentions" : [],
        "content" : "",
        "id" : 550406289507745812,
        "mention_everyone" : false,
        "mentions" : [],
        "pinned" : false,
        "role_mentions" : [],
        "timestamp" : "2019-02-27 19:58:05",
        "tts" : false
    },
    {
        "author" : {
            "bot" : false,
            "discriminator" : "0001",
            "display_name" : "Simon Max",
            "id" : 533989850399899665,
            "name" : "JacquesMax"
        },
        "channel" : {
            "id" : 548571593601843200,
            "name" : "\u2014commands"
        },
        "channel_mentions" : [],
        "content" : "/av 361382184847671296",
        "id" : 550406288824336387,
        "mention_everyone" : false,
        "mentions" : [],
        "pinned" : false,
        "role_mentions" : [],
        "timestamp" : "2019-02-27 19:58:05",
        "tts" : false
    },
    {
        "author" : {
            "bot" : true,
            "discriminator" : "3970",
            "display_name" : "Galaxy",
            "id" : 534468156056535052,
            "name" : "Galaxy"
        },
        "channel" : {
            "id" : 548571593601843200,
            "name" : "\u2014commands"
        },
        "channel_mentions" : [],
        "content" : "Unbanned that user from this server",
        "id" : 550323534891843584,
        "mention_everyone" : false,
        "mentions" : [],
        "pinned" : false,
        "role_mentions" : [],
        "timestamp" : "2019-02-27 14:29:15",
        "tts" : false
    },
    {
        "author" : {
            "bot" : false,
            "discriminator" : "0001",
            "display_name" : "Simon Max",
            "id" : 533989850399899665,
            "name" : "JacquesMax"
        },
        "channel" : {
            "id" : 548571593601843200,
            "name" : "\u2014commands"
        },
        "channel_mentions" : [],
        "content" : "/unban 537251149007552514",
        "id" : 550323533629227018,
        "mention_everyone" : false,
        "mentions" : [],
        "pinned" : false,
        "role_mentions" : [],
        "timestamp" : "2019-02-27 14:29:14",
        "tts" : false
    },
    {
        "author" : {
            "bot" : false,
            "discriminator" : "1111",
            "display_name" : "Blood Hunter \u2620",
            "id" : 540503510614147087,
            "name" : "\udb40\udc00\udb40\udc00\udb40\udc00\udb40\udc00 \udb40\udc00\udb40\udc00\udb40\udc00\udb40\udc00 \udb40\udc00\udb40\udc00"
        },
        "channel" : {
            "id" : 548571593601843200,
            "name" : "\u2014commands"
        },
        "channel_mentions" : [],
        "content" : "lol",
        "id" : 550054932657471508,
        "mention_everyone" : false,
        "mentions" : [],
        "pinned" : false,
        "role_mentions" : [],
        "timestamp" : "2019-02-26 20:41:55",
        "tts" : false
    },
    {
        "author" : {
            "bot" : false,
            "discriminator" : "5503",
            "display_name" : "k_ducky123",
            "id" : 394179855702294529,
            "name" : "k_ducky123"
        },
        "channel" : {
            "id" : 548571593601843200,
            "name" : "\u2014commands"
        },
        "channel_mentions" : [],
        "content" : "Hawt",
        "id" : 550050863641788432,
        "mention_everyone" : false,
        "mentions" : [],
        "pinned" : false,
        "role_mentions" : [],
        "timestamp" : "2019-02-26 20:25:45",
        "tts" : false
    },
    {
        "author" : {
            "bot" : false,
            "discriminator" : "1111",
            "display_name" : "Blood Hunter \u2620",
            "id" : 540503510614147087,
            "name" : "\udb40\udc00\udb40\udc00\udb40\udc00\udb40\udc00 \udb40\udc00\udb40\udc00\udb40\udc00\udb40\udc00 \udb40\udc00\udb40\udc00"
        },
        "channel" : {
            "id" : 548571593601843200,
            "name" : "\u2014commands"
        },
        "channel_mentions" : [],
        "content" : "lol",
        "id" : 550034273768308738,
        "mention_everyone" : false,
        "mentions" : [],
        "pinned" : false,
        "role_mentions" : [],
        "timestamp" : "2019-02-26 19:19:50",
        "tts" : false
    },
    {
        "author" : {
            "bot" : false,
            "discriminator" : "0001",
            "display_name" : "Simon Max",
            "id" : 533989850399899665,
            "name" : "JacquesMax"
        },
        "channel" : {
            "id" : 548571593601843200,
            "name" : "\u2014commands"
        },
        "channel_mentions" : [],
        "content" : "dafuk' is that thing",
        "id" : 550034183771127811,
        "mention_everyone" : false,
        "mentions" : [],
        "pinned" : false,
        "role_mentions" : [],
        "timestamp" : "2019-02-26 19:19:28",
        "tts" : false
    },
    {
        "author" : {
            "bot" : true,
            "discriminator" : "3970",
            "display_name" : "Galaxy",
            "id" : 534468156056535052,
            "name" : "Galaxy"
        },
        "channel" : {
            "id" : 548571593601843200,
            "name" : "\u2014commands"
        },
        "channel_mentions" : [],
        "content" : "",
        "id" : 550034151953137664,
        "mention_everyone" : false,
        "mentions" : [],
        "pinned" : false,
        "role_mentions" : [],
        "timestamp" : "2019-02-26 19:19:20",
        "tts" : false
    },
    {
        "author" : {
            "bot" : false,
            "discriminator" : "0001",
            "display_name" : "Simon Max",
            "id" : 533989850399899665,
            "name" : "JacquesMax"
        },
        "channel" : {
            "id" : 548571593601843200,
            "name" : "\u2014commands"
        },
        "channel_mentions" : [],
        "content" : "/av 350554395189968907\\",
        "id" : 550034151474987039,
        "mention_everyone" : false,
        "mentions" : [],
        "pinned" : false,
        "role_mentions" : [],
        "timestamp" : "2019-02-26 19:19:20",
        "tts" : false
    },
    {
        "author" : {
            "bot" : false,
            "discriminator" : "1111",
            "display_name" : "Blood Hunter \u2620",
            "id" : 540503510614147087,
            "name" : "\udb40\udc00\udb40\udc00\udb40\udc00\udb40\udc00 \udb40\udc00\udb40\udc00\udb40\udc00\udb40\udc00 \udb40\udc00\udb40\udc00"
        },
        "channel" : {
            "id" : 548571593601843200,
            "name" : "\u2014commands"
        },
        "channel_mentions" : [],
        "content" : "xD",
        "id" : 550026434006220853,
        "mention_everyone" : false,
        "mentions" : [],
        "pinned" : false,
        "role_mentions" : [],
        "timestamp" : "2019-02-26 18:48:40",
        "tts" : false
    },
    {
        "author" : {
            "bot" : true,
            "discriminator" : "3970",
            "display_name" : "Galaxy",
            "id" : 534468156056535052,
            "name" : "Galaxy"
        },
        "channel" : {
            "id" : 548571593601843200,
            "name" : "\u2014commands"
        },
        "channel_mentions" : [],
        "content" : "",
        "id" : 550026254770765846,
        "mention_everyone" : false,
        "mentions" : [],
        "pinned" : false,
        "role_mentions" : [],
        "timestamp" : "2019-02-26 18:47:58",
        "tts" : false
    },
    {
        "author" : {
            "bot" : false,
            "discriminator" : "0001",
            "display_name" : "Simon Max",
            "id" : 533989850399899665,
            "name" : "JacquesMax"
        },
        "channel" : {
            "id" : 548571593601843200,
            "name" : "\u2014commands"
        },
        "channel_mentions" : [],
        "content" : "/av 218274436812505091",
        "id" : 550026254485553173,
        "mention_everyone" : false,
        "mentions" : [],
        "pinned" : false,
        "role_mentions" : [],
        "timestamp" : "2019-02-26 18:47:58",
        "tts" : false
    },
    {
        "author" : {
            "bot" : false,
            "discriminator" : "0001",
            "display_name" : "Simon Max",
            "id" : 533989850399899665,
            "name" : "JacquesMax"
        },
        "channel" : {
            "id" : 548571593601843200,
            "name" : "\u2014commands"
        },
        "channel_mentions" : [],
        "content" : "",
        "id" : 550023122649350156,
        "mention_everyone" : false,
        "mentions" : [],
        "pinned" : false,
        "role_mentions" : [],
        "timestamp" : "2019-02-26 18:35:31",
        "tts" : false
    },
    {
        "author" : {
            "bot" : false,
            "discriminator" : "1111",
            "display_name" : "Blood Hunter \u2620",
            "id" : 540503510614147087,
            "name" : "\udb40\udc00\udb40\udc00\udb40\udc00\udb40\udc00 \udb40\udc00\udb40\udc00\udb40\udc00\udb40\udc00 \udb40\udc00\udb40\udc00"
        },
        "channel" : {
            "id" : 548571593601843200,
            "name" : "\u2014commands"
        },
        "channel_mentions" : [],
        "content" : "yep",
        "id" : 550023115649056769,
        "mention_everyone" : false,
        "mentions" : [],
        "pinned" : false,
        "role_mentions" : [],
        "timestamp" : "2019-02-26 18:35:29",
        "tts" : false
    },
    {
        "author" : {
            "bot" : false,
            "discriminator" : "0001",
            "display_name" : "Simon Max",
            "id" : 533989850399899665,
            "name" : "JacquesMax"
        },
        "channel" : {
            "id" : 548571593601843200,
            "name" : "\u2014commands"
        },
        "channel_mentions" : [],
        "content" : "Jaiden#2899 is active on the server, yet she didn't answer my dm",
        "id" : 550023069263986688,
        "mention_everyone" : false,
        "mentions" : [],
        "pinned" : false,
        "role_mentions" : [],
        "timestamp" : "2019-02-26 18:35:18",
        "tts" : false
    },
    {
        "author" : {
            "bot" : false,
            "discriminator" : "4404",
            "display_name" : "NorbitKage",
            "id" : 421911703949672462,
            "name" : "\u2119\ud835\udd6a\ud835\udd63\ud835\udd56"
        },
        "channel" : {
            "id" : 548571593601843200,
            "name" : "\u2014commands"
        },
        "channel_mentions" : [],
        "content" : "\ud83d\udc4c",
        "id" : 550023013265833995,
        "mention_everyone" : false,
        "mentions" : [],
        "pinned" : false,
        "role_mentions" : [],
        "timestamp" : "2019-02-26 18:35:05",
        "tts" : false
    },
    {
        "author" : {
            "bot" : false,
            "discriminator" : "1111",
            "display_name" : "Blood Hunter \u2620",
            "id" : 540503510614147087,
            "name" : "\udb40\udc00\udb40\udc00\udb40\udc00\udb40\udc00 \udb40\udc00\udb40\udc00\udb40\udc00\udb40\udc00 \udb40\udc00\udb40\udc00"
        },
        "channel" : {
            "id" : 548571593601843200,
            "name" : "\u2014commands"
        },
        "channel_mentions" : [],
        "content" : "<@!533989850399899665> sure thing",
        "id" : 550022880138625054,
        "mention_everyone" : false,
        "mentions" : [
            {
                "bot" : false,
                "discriminator" : "0001",
                "display_name" : "Simon Max",
                "id" : 533989850399899665,
                "name" : "JacquesMax"
            }
        ],
        "pinned" : false,
        "role_mentions" : [],
        "timestamp" : "2019-02-26 18:34:33",
        "tts" : false
    },
    {
        "author" : {
            "bot" : false,
            "discriminator" : "8154",
            "display_name" : "Sano Tsugi",
            "id" : 498523735603544096,
            "name" : "Sano Tsugi"
        },
        "channel" : {
            "id" : 548571593601843200,
            "name" : "\u2014commands"
        },
        "channel_mentions" : [],
        "content" : "sure",
        "id" : 550022830037663745,
        "mention_everyone" : false,
        "mentions" : [],
        "pinned" : false,
        "role_mentions" : [],
        "timestamp" : "2019-02-26 18:34:21",
        "tts" : false
    },
    {
        "author" : {
            "bot" : false,
            "discriminator" : "0001",
            "display_name" : "Simon Max",
            "id" : 533989850399899665,
            "name" : "JacquesMax"
        },
        "channel" : {
            "id" : 548571593601843200,
            "name" : "\u2014commands"
        },
        "channel_mentions" : [],
        "content" : "@everyone I will be checking people who join and have recently created accounts, since we recently experienced quite the number of catfishes lately",
        "id" : 550022787956211728,
        "mention_everyone" : true,
        "mentions" : [],
        "pinned" : false,
        "role_mentions" : [],
        "timestamp" : "2019-02-26 18:34:11",
        "tts" : false
    },
    {
        "author" : {
            "bot" : true,
            "discriminator" : "3970",
            "display_name" : "Galaxy",
            "id" : 534468156056535052,
            "name" : "Galaxy"
        },
        "channel" : {
            "id" : 548571593601843200,
            "name" : "\u2014commands"
        },
        "channel_mentions" : [],
        "content" : "",
        "id" : 549969173007040522,
        "mention_everyone" : false,
        "mentions" : [],
        "pinned" : false,
        "role_mentions" : [],
        "timestamp" : "2019-02-26 15:01:08",
        "tts" : false
    },
    {
        "author" : {
            "bot" : false,
            "discriminator" : "0001",
            "display_name" : "Simon Max",
            "id" : 533989850399899665,
            "name" : "JacquesMax"
        },
        "channel" : {
            "id" : 548571593601843200,
            "name" : "\u2014commands"
        },
        "channel_mentions" : [],
        "content" : "/av 430072333185843200",
        "id" : 549969172545667072,
        "mention_everyone" : false,
        "mentions" : [],
        "pinned" : false,
        "role_mentions" : [],
        "timestamp" : "2019-02-26 15:01:08",
        "tts" : false
    },
    {
        "author" : {
            "bot" : false,
            "discriminator" : "0001",
            "display_name" : "Simon Max",
            "id" : 533989850399899665,
            "name" : "JacquesMax"
        },
        "channel" : {
            "id" : 548571593601843200,
            "name" : "\u2014commands"
        },
        "channel_mentions" : [],
        "content" : "/mjolnir 548111789666074634",
        "id" : 549961810070208522,
        "mention_everyone" : false,
        "mentions" : [],
        "pinned" : false,
        "role_mentions" : [],
        "timestamp" : "2019-02-26 14:31:53",
        "tts" : false
    },
    {
        "author" : {
            "bot" : false,
            "discriminator" : "0001",
            "display_name" : "Simon Max",
            "id" : 533989850399899665,
            "name" : "JacquesMax"
        },
        "channel" : {
            "id" : 548571593601843200,
            "name" : "\u2014commands"
        },
        "channel_mentions" : [],
        "content" : "/help",
        "id" : 549961660845129728,
        "mention_everyone" : false,
        "mentions" : [],
        "pinned" : false,
        "role_mentions" : [],
        "timestamp" : "2019-02-26 14:31:17",
        "tts" : false
    },
    {
        "author" : {
            "bot" : false,
            "discriminator" : "0001",
            "display_name" : "Simon Max",
            "id" : 533989850399899665,
            "name" : "JacquesMax"
        },
        "channel" : {
            "id" : 548571593601843200,
            "name" : "\u2014commands"
        },
        "channel_mentions" : [],
        "content" : "THAT'S NOT A FUCKING 13 YEAR OLD",
        "id" : 549959946922622979,
        "mention_everyone" : false,
        "mentions" : [],
        "pinned" : false,
        "role_mentions" : [],
        "timestamp" : "2019-02-26 14:24:29",
        "tts" : false
    },
    {
        "author" : {
            "bot" : true,
            "discriminator" : "3970",
            "display_name" : "Galaxy",
            "id" : 534468156056535052,
            "name" : "Galaxy"
        },
        "channel" : {
            "id" : 548571593601843200,
            "name" : "\u2014commands"
        },
        "channel_mentions" : [],
        "content" : "",
        "id" : 549959902475452448,
        "mention_everyone" : false,
        "mentions" : [],
        "pinned" : false,
        "role_mentions" : [],
        "timestamp" : "2019-02-26 14:24:18",
        "tts" : false
    },
    {
        "author" : {
            "bot" : false,
            "discriminator" : "0001",
            "display_name" : "Simon Max",
            "id" : 533989850399899665,
            "name" : "JacquesMax"
        },
        "channel" : {
            "id" : 548571593601843200,
            "name" : "\u2014commands"
        },
        "channel_mentions" : [],
        "content" : "/av 548111789666074634",
        "id" : 549959902072799263,
        "mention_everyone" : false,
        "mentions" : [],
        "pinned" : false,
        "role_mentions" : [],
        "timestamp" : "2019-02-26 14:24:18",
        "tts" : false
    },
    {
        "author" : {
            "bot" : false,
            "discriminator" : "1090",
            "display_name" : "Human",
            "id" : 232107009434976258,
            "name" : "Human"
        },
        "channel" : {
            "id" : 548571593601843200,
            "name" : "\u2014commands"
        },
        "channel_mentions" : [],
        "content" : "Reversing this",
        "id" : 549409651914047508,
        "mention_everyone" : false,
        "mentions" : [],
        "pinned" : false,
        "role_mentions" : [],
        "timestamp" : "2019-02-25 01:57:48",
        "tts" : false
    },
    {
        "author" : {
            "bot" : true,
            "discriminator" : "3970",
            "display_name" : "Galaxy",
            "id" : 534468156056535052,
            "name" : "Galaxy"
        },
        "channel" : {
            "id" : 548571593601843200,
            "name" : "\u2014commands"
        },
        "channel_mentions" : [],
        "content" : "",
        "id" : 549409589381300226,
        "mention_everyone" : false,
        "mentions" : [],
        "pinned" : false,
        "role_mentions" : [],
        "timestamp" : "2019-02-25 01:57:33",
        "tts" : false
    },
    {
        "author" : {
            "bot" : false,
            "discriminator" : "1090",
            "display_name" : "Human",
            "id" : 232107009434976258,
            "name" : "Human"
        },
        "channel" : {
            "id" : 548571593601843200,
            "name" : "\u2014commands"
        },
        "channel_mentions" : [],
        "content" : "/av 549383822710669312",
        "id" : 549409588353695756,
        "mention_everyone" : false,
        "mentions" : [],
        "pinned" : false,
        "role_mentions" : [],
        "timestamp" : "2019-02-25 01:57:33",
        "tts" : false
    },
    {
        "author" : {
            "bot" : true,
            "discriminator" : "3970",
            "display_name" : "Galaxy",
            "id" : 534468156056535052,
            "name" : "Galaxy"
        },
        "channel" : {
            "id" : 548571593601843200,
            "name" : "\u2014commands"
        },
        "channel_mentions" : [],
        "content" : "Rule added.",
        "id" : 548682433088716833,
        "mention_everyone" : false,
        "mentions" : [],
        "pinned" : false,
        "role_mentions" : [],
        "timestamp" : "2019-02-23 01:48:06",
        "tts" : false
    },
    {
        "author" : {
            "bot" : false,
            "discriminator" : "1090",
            "display_name" : "Human",
            "id" : 232107009434976258,
            "name" : "Human"
        },
        "channel" : {
            "id" : 548571593601843200,
            "name" : "\u2014commands"
        },
        "channel_mentions" : [],
        "content" : "/p addserverrule allow avatar <@!533989850399899665>",
        "id" : 548682432967213057,
        "mention_everyone" : false,
        "mentions" : [
            {
                "bot" : false,
                "discriminator" : "0001",
                "display_name" : "Simon Max",
                "id" : 533989850399899665,
                "name" : "JacquesMax"
            }
        ],
        "pinned" : false,
        "role_mentions" : [],
        "timestamp" : "2019-02-23 01:48:06",
        "tts" : false
    },
    {
        "author" : {
            "bot" : true,
            "discriminator" : "3970",
            "display_name" : "Galaxy",
            "id" : 534468156056535052,
            "name" : "Galaxy"
        },
        "channel" : {
            "id" : 548571593601843200,
            "name" : "\u2014commands"
        },
        "channel_mentions" : [],
        "content" : "Rule added.",
        "id" : 548682401782431755,
        "mention_everyone" : false,
        "mentions" : [],
        "pinned" : false,
        "role_mentions" : [],
        "timestamp" : "2019-02-23 01:47:58",
        "tts" : false
    },
    {
        "author" : {
            "bot" : true,
            "discriminator" : "3970",
            "display_name" : "Galaxy",
            "id" : 534468156056535052,
            "name" : "Galaxy"
        },
        "channel" : {
            "id" : 548571593601843200,
            "name" : "\u2014commands"
        },
        "channel_mentions" : [],
        "content" : "That command is already enabled globally.",
        "id" : 548682345176236035,
        "mention_everyone" : false,
        "mentions" : [],
        "pinned" : false,
        "role_mentions" : [],
        "timestamp" : "2019-02-23 01:47:45",
        "tts" : false
    },
    {
        "author" : {
            "bot" : false,
            "discriminator" : "1090",
            "display_name" : "Human",
            "id" : 232107009434976258,
            "name" : "Human"
        },
        "channel" : {
            "id" : 548571593601843200,
            "name" : "\u2014commands"
        },
        "channel_mentions" : [],
        "content" : "/command enable avatar",
        "id" : 548682345067053057,
        "mention_everyone" : false,
        "mentions" : [],
        "pinned" : false,
        "role_mentions" : [],
        "timestamp" : "2019-02-23 01:47:45",
        "tts" : false
    },
    {
        "author" : {
            "bot" : true,
            "discriminator" : "3970",
            "display_name" : "Galaxy",
            "id" : 534468156056535052,
            "name" : "Galaxy"
        },
        "channel" : {
            "id" : 548571593601843200,
            "name" : "\u2014commands"
        },
        "channel_mentions" : [],
        "content" : "I couldn't find that command. Please note that it is case sensitive.",
        "id" : 548682323223379970,
        "mention_everyone" : false,
        "mentions" : [],
        "pinned" : false,
        "role_mentions" : [],
        "timestamp" : "2019-02-23 01:47:39",
        "tts" : false
    },
    {
        "author" : {
            "bot" : false,
            "discriminator" : "1111",
            "display_name" : "Blood Hunter \u2620",
            "id" : 540503510614147087,
            "name" : "\udb40\udc00\udb40\udc00\udb40\udc00\udb40\udc00 \udb40\udc00\udb40\udc00\udb40\udc00\udb40\udc00 \udb40\udc00\udb40\udc00"
        },
        "channel" : {
            "id" : 548571593601843200,
            "name" : "\u2014commands"
        },
        "channel_mentions" : [],
        "content" : "Lol",
        "id" : 548599509362671631,
        "mention_everyone" : false,
        "mentions" : [],
        "pinned" : false,
        "role_mentions" : [],
        "timestamp" : "2019-02-22 20:18:35",
        "tts" : false
    },
    {
        "author" : {
            "bot" : false,
            "discriminator" : "0001",
            "display_name" : "Simon Max",
            "id" : 533989850399899665,
            "name" : "JacquesMax"
        },
        "channel" : {
            "id" : 548571593601843200,
            "name" : "\u2014commands"
        },
        "channel_mentions" : [],
        "content" : "/avatar",
        "id" : 548599475623690250,
        "mention_everyone" : false,
        "mentions" : [],
        "pinned" : false,
        "role_mentions" : [],
        "timestamp" : "2019-02-22 20:18:27",
        "tts" : false
    },
    {
        "author" : {
            "bot" : false,
            "discriminator" : "0001",
            "display_name" : "Simon Max",
            "id" : 533989850399899665,
            "name" : "JacquesMax"
        },
        "channel" : {
            "id" : 548571593601843200,
            "name" : "\u2014commands"
        },
        "channel_mentions" : [],
        "content" : "/av",
        "id" : 548599464282161152,
        "mention_everyone" : false,
        "mentions" : [],
        "pinned" : false,
        "role_mentions" : [],
        "timestamp" : "2019-02-22 20:18:24",
        "tts" : false
    },
    {
        "author" : {
            "bot" : false,
            "discriminator" : "0001",
            "display_name" : "Simon Max",
            "id" : 533989850399899665,
            "name" : "JacquesMax"
        },
        "channel" : {
            "id" : 548571593601843200,
            "name" : "\u2014commands"
        },
        "channel_mentions" : [],
        "content" : "is this bot retarded?",
        "id" : 548599378907103232,
        "mention_everyone" : false,
        "mentions" : [],
        "pinned" : false,
        "role_mentions" : [],
        "timestamp" : "2019-02-22 20:18:04",
        "tts" : false
    },
    {
        "author" : {
            "bot" : false,
            "discriminator" : "0001",
            "display_name" : "Simon Max",
            "id" : 533989850399899665,
            "name" : "JacquesMax"
        },
        "channel" : {
            "id" : 548571593601843200,
            "name" : "\u2014commands"
        },
        "channel_mentions" : [],
        "content" : "wait",
        "id" : 548599362960359437,
        "mention_everyone" : false,
        "mentions" : [],
        "pinned" : false,
        "role_mentions" : [],
        "timestamp" : "2019-02-22 20:18:00",
        "tts" : false
    },
    {
        "author" : {
            "bot" : true,
            "discriminator" : "8530",
            "display_name" : "\u03a3 Sigma",
            "id" : 216437513709944832,
            "name" : "Sigma"
        },
        "channel" : {
            "id" : 548571593601843200,
            "name" : "\u2014commands"
        },
        "channel_mentions" : [],
        "content" : "",
        "id" : 548599342223589377,
        "mention_everyone" : false,
        "mentions" : [],
        "pinned" : false,
        "role_mentions" : [],
        "timestamp" : "2019-02-22 20:17:55",
        "tts" : false
    },
    {
        "author" : {
            "bot" : false,
            "discriminator" : "0001",
            "display_name" : "Simon Max",
            "id" : 533989850399899665,
            "name" : "JacquesMax"
        },
        "channel" : {
            "id" : 548571593601843200,
            "name" : "\u2014commands"
        },
        "channel_mentions" : [],
        "content" : ">>av 424893019037237250",
        "id" : 548599341695238155,
        "mention_everyone" : false,
        "mentions" : [],
        "pinned" : false,
        "role_mentions" : [],
        "timestamp" : "2019-02-22 20:17:55",
        "tts" : false
    },
    {
        "author" : {
            "bot" : true,
            "discriminator" : "8530",
            "display_name" : "\u03a3 Sigma",
            "id" : 216437513709944832,
            "name" : "Sigma"
        },
        "channel" : {
            "id" : 548571593601843200,
            "name" : "\u2014commands"
        },
        "channel_mentions" : [],
        "content" : "",
        "id" : 548599320346361877,
        "mention_everyone" : false,
        "mentions" : [],
        "pinned" : false,
        "role_mentions" : [],
        "timestamp" : "2019-02-22 20:17:50",
        "tts" : false
    },
    {
        "author" : {
            "bot" : false,
            "discriminator" : "0001",
            "display_name" : "Simon Max",
            "id" : 533989850399899665,
            "name" : "JacquesMax"
        },
        "channel" : {
            "id" : 548571593601843200,
            "name" : "\u2014commands"
        },
        "channel_mentions" : [],
        "content" : ">>av  424893019037237250",
        "id" : 548599319553507328,
        "mention_everyone" : false,
        "mentions" : [],
        "pinned" : false,
        "role_mentions" : [],
        "timestamp" : "2019-02-22 20:17:50",
        "tts" : false
    },
    {
        "author" : {
            "bot" : true,
            "discriminator" : "8530",
            "display_name" : "\u03a3 Sigma",
            "id" : 216437513709944832,
            "name" : "Sigma"
        },
        "channel" : {
            "id" : 548571593601843200,
            "name" : "\u2014commands"
        },
        "channel_mentions" : [],
        "content" : "",
        "id" : 548596486993084436,
        "mention_everyone" : false,
        "mentions" : [],
        "pinned" : false,
        "role_mentions" : [],
        "timestamp" : "2019-02-22 20:06:34",
        "tts" : false
    },
    {
        "author" : {
            "bot" : false,
            "discriminator" : "1111",
            "display_name" : "Blood Hunter \u2620",
            "id" : 540503510614147087,
            "name" : "\udb40\udc00\udb40\udc00\udb40\udc00\udb40\udc00 \udb40\udc00\udb40\udc00\udb40\udc00\udb40\udc00 \udb40\udc00\udb40\udc00"
        },
        "channel" : {
            "id" : 548571593601843200,
            "name" : "\u2014commands"
        },
        "channel_mentions" : [],
        "content" : ">>av",
        "id" : 548596486338772993,
        "mention_everyone" : false,
        "mentions" : [],
        "pinned" : false,
        "role_mentions" : [],
        "timestamp" : "2019-02-22 20:06:34",
        "tts" : false
    },
    {
        "author" : {
            "bot" : true,
            "discriminator" : "8530",
            "display_name" : "\u03a3 Sigma",
            "id" : 216437513709944832,
            "name" : "Sigma"
        },
        "channel" : {
            "id" : 548571593601843200,
            "name" : "\u2014commands"
        },
        "channel_mentions" : [],
        "content" : "",
        "id" : 548596456773124096,
        "mention_everyone" : false,
        "mentions" : [],
        "pinned" : false,
        "role_mentions" : [],
        "timestamp" : "2019-02-22 20:06:27",
        "tts" : false
    },
    {
        "author" : {
            "bot" : false,
            "discriminator" : "0001",
            "display_name" : "Simon Max",
            "id" : 533989850399899665,
            "name" : "JacquesMax"
        },
        "channel" : {
            "id" : 548571593601843200,
            "name" : "\u2014commands"
        },
        "channel_mentions" : [],
        "content" : ">>av",
        "id" : 548596456307687444,
        "mention_everyone" : false,
        "mentions" : [],
        "pinned" : false,
        "role_mentions" : [],
        "timestamp" : "2019-02-22 20:06:27",
        "tts" : false
    },
    {
        "author" : {
            "bot" : false,
            "discriminator" : "0001",
            "display_name" : "Simon Max",
            "id" : 533989850399899665,
            "name" : "JacquesMax"
        },
        "channel" : {
            "id" : 548571593601843200,
            "name" : "\u2014commands"
        },
        "channel_mentions" : [],
        "content" : "?av",
        "id" : 548596444597059591,
        "mention_everyone" : false,
        "mentions" : [],
        "pinned" : false,
        "role_mentions" : [],
        "timestamp" : "2019-02-22 20:06:24",
        "tts" : false
    },
    {
        "author" : {
            "bot" : false,
            "discriminator" : "0001",
            "display_name" : "Simon Max",
            "id" : 533989850399899665,
            "name" : "JacquesMax"
        },
        "channel" : {
            "id" : 548571593601843200,
            "name" : "\u2014commands"
        },
        "channel_mentions" : [],
        "content" : "?ab",
        "id" : 548596437278261269,
        "mention_everyone" : false,
        "mentions" : [],
        "pinned" : false,
        "role_mentions" : [],
        "timestamp" : "2019-02-22 20:06:23",
        "tts" : false
    },
    {
        "author" : {
            "bot" : false,
            "discriminator" : "0001",
            "display_name" : "Simon Max",
            "id" : 533989850399899665,
            "name" : "JacquesMax"
        },
        "channel" : {
            "id" : 548571593601843200,
            "name" : "\u2014commands"
        },
        "channel_mentions" : [],
        "content" : "?profilepic",
        "id" : 548596414691672082,
        "mention_everyone" : false,
        "mentions" : [],
        "pinned" : false,
        "role_mentions" : [],
        "timestamp" : "2019-02-22 20:06:17",
        "tts" : false
    },
    {
        "author" : {
            "bot" : false,
            "discriminator" : "0001",
            "display_name" : "Simon Max",
            "id" : 533989850399899665,
            "name" : "JacquesMax"
        },
        "channel" : {
            "id" : 548571593601843200,
            "name" : "\u2014commands"
        },
        "channel_mentions" : [],
        "content" : "?\nsuper-private and verification channels?",
        "id" : 548573356421677093,
        "mention_everyone" : false,
        "mentions" : [],
        "pinned" : false,
        "role_mentions" : [],
        "timestamp" : "2019-02-22 18:34:40",
        "tts" : false
    },
    {
        "author" : {
            "bot" : false,
            "discriminator" : "1090",
            "display_name" : "Human",
            "id" : 232107009434976258,
            "name" : "Human"
        },
        "channel" : {
            "id" : 548571593601843200,
            "name" : "\u2014commands"
        },
        "channel_mentions" : [],
        "content" : "The logs are actually public OwO",
        "id" : 548572652156223498,
        "mention_everyone" : false,
        "mentions" : [],
        "pinned" : false,
        "role_mentions" : [],
        "timestamp" : "2019-02-22 18:31:52",
        "tts" : false
    },
    {
        "author" : {
            "bot" : false,
            "discriminator" : "1090",
            "display_name" : "Human",
            "id" : 232107009434976258,
            "name" : "Human"
        },
        "channel" : {
            "id" : 548571593601843200,
            "name" : "\u2014commands"
        },
        "channel_mentions" : [],
        "content" : "https://gitlab.com/ItsLachy/galaxyserverbackups",
        "id" : 548572624486400001,
        "mention_everyone" : false,
        "mentions" : [],
        "pinned" : false,
        "role_mentions" : [],
        "timestamp" : "2019-02-22 18:31:45",
        "tts" : false
    },
    {
        "author" : {
            "bot" : false,
            "discriminator" : "1111",
            "display_name" : "Blood Hunter \u2620",
            "id" : 540503510614147087,
            "name" : "\udb40\udc00\udb40\udc00\udb40\udc00\udb40\udc00 \udb40\udc00\udb40\udc00\udb40\udc00\udb40\udc00 \udb40\udc00\udb40\udc00"
        },
        "channel" : {
            "id" : 548571593601843200,
            "name" : "\u2014commands"
        },
        "channel_mentions" : [],
        "content" : "Hmm",
        "id" : 548572562783862784,
        "mention_everyone" : false,
        "mentions" : [],
        "pinned" : false,
        "role_mentions" : [],
        "timestamp" : "2019-02-22 18:31:30",
        "tts" : false
    },
    {
        "author" : {
            "bot" : false,
            "discriminator" : "1090",
            "display_name" : "Human",
            "id" : 232107009434976258,
            "name" : "Human"
        },
        "channel" : {
            "id" : 548571593601843200,
            "name" : "\u2014commands"
        },
        "channel_mentions" : [],
        "content" : "so I can actually check",
        "id" : 548572517560745986,
        "mention_everyone" : false,
        "mentions" : [],
        "pinned" : false,
        "role_mentions" : [],
        "timestamp" : "2019-02-22 18:31:20",
        "tts" : false
    },
    {
        "author" : {
            "bot" : false,
            "discriminator" : "1090",
            "display_name" : "Human",
            "id" : 232107009434976258,
            "name" : "Human"
        },
        "channel" : {
            "id" : 548571593601843200,
            "name" : "\u2014commands"
        },
        "channel_mentions" : [],
        "content" : "I have it spitting to a log file actually",
        "id" : 548572474644627456,
        "mention_everyone" : false,
        "mentions" : [],
        "pinned" : false,
        "role_mentions" : [],
        "timestamp" : "2019-02-22 18:31:09",
        "tts" : false
    },
    {
        "author" : {
            "bot" : false,
            "discriminator" : "1090",
            "display_name" : "Human",
            "id" : 232107009434976258,
            "name" : "Human"
        },
        "channel" : {
            "id" : 548571593601843200,
            "name" : "\u2014commands"
        },
        "channel_mentions" : [],
        "content" : "Let's see if my cron task works <@!533989850399899665>",
        "id" : 548572398975189022,
        "mention_everyone" : false,
        "mentions" : [
            {
                "bot" : false,
                "discriminator" : "0001",
                "display_name" : "Simon Max",
                "id" : 533989850399899665,
                "name" : "JacquesMax"
            }
        ],
        "pinned" : false,
        "role_mentions" : [],
        "timestamp" : "2019-02-22 18:30:51",
        "tts" : false
    },
    {
        "author" : {
            "bot" : false,
            "discriminator" : "1090",
            "display_name" : "Human",
            "id" : 232107009434976258,
            "name" : "Human"
        },
        "channel" : {
            "id" : 548571593601843200,
            "name" : "\u2014commands"
        },
        "channel_mentions" : [],
        "content" : "That was MassDMing",
        "id" : 548572241584062467,
        "mention_everyone" : false,
        "mentions" : [],
        "pinned" : false,
        "role_mentions" : [],
        "timestamp" : "2019-02-22 18:30:14",
        "tts" : false
    },
    {
        "author" : {
            "bot" : false,
            "discriminator" : "1090",
            "display_name" : "Human",
            "id" : 232107009434976258,
            "name" : "Human"
        },
        "channel" : {
            "id" : 548571593601843200,
            "name" : "\u2014commands"
        },
        "channel_mentions" : [],
        "content" : "Nope",
        "id" : 548572099988684800,
        "mention_everyone" : false,
        "mentions" : [],
        "pinned" : false,
        "role_mentions" : [],
        "timestamp" : "2019-02-22 18:29:40",
        "tts" : false
    },
    {
        "author" : {
            "bot" : false,
            "discriminator" : "0001",
            "display_name" : "Simon Max",
            "id" : 533989850399899665,
            "name" : "JacquesMax"
        },
        "channel" : {
            "id" : 548571593601843200,
            "name" : "\u2014commands"
        },
        "channel_mentions" : [],
        "content" : "if you force the API",
        "id" : 548572035748593705,
        "mention_everyone" : false,
        "mentions" : [],
        "pinned" : false,
        "role_mentions" : [],
        "timestamp" : "2019-02-22 18:29:25",
        "tts" : false
    },
    {
        "author" : {
            "bot" : false,
            "discriminator" : "0001",
            "display_name" : "Simon Max",
            "id" : 533989850399899665,
            "name" : "JacquesMax"
        },
        "channel" : {
            "id" : 548571593601843200,
            "name" : "\u2014commands"
        },
        "channel_mentions" : [],
        "content" : "<@232107009434976258> umm that would get you disabled again",
        "id" : 548572005184700426,
        "mention_everyone" : false,
        "mentions" : [
            {
                "bot" : false,
                "discriminator" : "1090",
                "display_name" : "Human",
                "id" : 232107009434976258,
                "name" : "Human"
            }
        ],
        "pinned" : false,
        "role_mentions" : [],
        "timestamp" : "2019-02-22 18:29:18",
        "tts" : false
    },
    {
        "author" : {
            "bot" : true,
            "discriminator" : "3970",
            "display_name" : "Galaxy",
            "id" : 534468156056535052,
            "name" : "Galaxy"
        },
        "channel" : {
            "id" : 548571593601843200,
            "name" : "\u2014commands"
        },
        "channel_mentions" : [],
        "content" : "32504 messages saved from Dating Universe",
        "id" : 548571951136768012,
        "mention_everyone" : false,
        "mentions" : [],
        "pinned" : false,
        "role_mentions" : [],
        "timestamp" : "2019-02-22 18:29:05",
        "tts" : false
    },
    {
        "author" : {
            "bot" : true,
            "discriminator" : "3970",
            "display_name" : "Galaxy",
            "id" : 534468156056535052,
            "name" : "Galaxy"
        },
        "channel" : {
            "id" : 548571593601843200,
            "name" : "\u2014commands"
        },
        "channel_mentions" : [],
        "content" : "49 messages saved from commands",
        "id" : 548571950977384458,
        "mention_everyone" : false,
        "mentions" : [],
        "pinned" : false,
        "role_mentions" : [],
        "timestamp" : "2019-02-22 18:29:05",
        "tts" : false
    },
    {
        "author" : {
            "bot" : true,
            "discriminator" : "3970",
            "display_name" : "Galaxy",
            "id" : 534468156056535052,
            "name" : "Galaxy"
        },
        "channel" : {
            "id" : 548571593601843200,
            "name" : "\u2014commands"
        },
        "channel_mentions" : [],
        "content" : "0 messages saved from NSFW",
        "id" : 548571949857505291,
        "mention_everyone" : false,
        "mentions" : [],
        "pinned" : false,
        "role_mentions" : [],
        "timestamp" : "2019-02-22 18:29:04",
        "tts" : false
    },
    {
        "author" : {
            "bot" : true,
            "discriminator" : "3970",
            "display_name" : "Galaxy",
            "id" : 534468156056535052,
            "name" : "Galaxy"
        },
        "channel" : {
            "id" : 548571593601843200,
            "name" : "\u2014commands"
        },
        "channel_mentions" : [],
        "content" : "1578 messages saved from \ud83d\udcf7selfies\u273e",
        "id" : 548571949090209815,
        "mention_everyone" : false,
        "mentions" : [],
        "pinned" : false,
        "role_mentions" : [],
        "timestamp" : "2019-02-22 18:29:04",
        "tts" : false
    },
    {
        "author" : {
            "bot" : true,
            "discriminator" : "3970",
            "display_name" : "Galaxy",
            "id" : 534468156056535052,
            "name" : "Galaxy"
        },
        "channel" : {
            "id" : 548571593601843200,
            "name" : "\u2014commands"
        },
        "channel_mentions" : [],
        "content" : "0 messages saved from Member Count: 192",
        "id" : 548571949001998367,
        "mention_everyone" : false,
        "mentions" : [],
        "pinned" : false,
        "role_mentions" : [],
        "timestamp" : "2019-02-22 18:29:04",
        "tts" : false
    },
    {
        "author" : {
            "bot" : true,
            "discriminator" : "3970",
            "display_name" : "Galaxy",
            "id" : 534468156056535052,
            "name" : "Galaxy"
        },
        "channel" : {
            "id" : 548571593601843200,
            "name" : "\u2014commands"
        },
        "channel_mentions" : [],
        "content" : "307 messages saved from anime\u2742",
        "id" : 548571931738112001,
        "mention_everyone" : false,
        "mentions" : [],
        "pinned" : false,
        "role_mentions" : [],
        "timestamp" : "2019-02-22 18:29:00",
        "tts" : false
    },
    {
        "author" : {
            "bot" : false,
            "discriminator" : "1111",
            "display_name" : "Blood Hunter \u2620",
            "id" : 540503510614147087,
            "name" : "\udb40\udc00\udb40\udc00\udb40\udc00\udb40\udc00 \udb40\udc00\udb40\udc00\udb40\udc00\udb40\udc00 \udb40\udc00\udb40\udc00"
        },
        "channel" : {
            "id" : 548571593601843200,
            "name" : "\u2014commands"
        },
        "channel_mentions" : [],
        "content" : "Wow",
        "id" : 548571929305415681,
        "mention_everyone" : false,
        "mentions" : [],
        "pinned" : false,
        "role_mentions" : [],
        "timestamp" : "2019-02-22 18:28:59",
        "tts" : false
    },
    {
        "author" : {
            "bot" : true,
            "discriminator" : "3970",
            "display_name" : "Galaxy",
            "id" : 534468156056535052,
            "name" : "Galaxy"
        },
        "channel" : {
            "id" : 548571593601843200,
            "name" : "\u2014commands"
        },
        "channel_mentions" : [],
        "content" : "451 messages saved from \ud83d\ude02memes\u2742",
        "id" : 548571929288769536,
        "mention_everyone" : false,
        "mentions" : [],
        "pinned" : false,
        "role_mentions" : [],
        "timestamp" : "2019-02-22 18:28:59",
        "tts" : false
    },
    {
        "author" : {
            "bot" : true,
            "discriminator" : "3970",
            "display_name" : "Galaxy",
            "id" : 534468156056535052,
            "name" : "Galaxy"
        },
        "channel" : {
            "id" : 548571593601843200,
            "name" : "\u2014commands"
        },
        "channel_mentions" : [],
        "content" : "52 messages saved from \ud83d\udd27nickname-change\u273e",
        "id" : 548571925946040320,
        "mention_everyone" : false,
        "mentions" : [],
        "pinned" : false,
        "role_mentions" : [],
        "timestamp" : "2019-02-22 18:28:59",
        "tts" : false
    },
    {
        "author" : {
            "bot" : true,
            "discriminator" : "3970",
            "display_name" : "Galaxy",
            "id" : 534468156056535052,
            "name" : "Galaxy"
        },
        "channel" : {
            "id" : 548571593601843200,
            "name" : "\u2014commands"
        },
        "channel_mentions" : [],
        "content" : "178 messages saved from galaxy-logs",
        "id" : 548571925161574400,
        "mention_everyone" : false,
        "mentions" : [],
        "pinned" : false,
        "role_mentions" : [],
        "timestamp" : "2019-02-22 18:28:58",
        "tts" : false
    },
    {
        "author" : {
            "bot" : true,
            "discriminator" : "3970",
            "display_name" : "Galaxy",
            "id" : 534468156056535052,
            "name" : "Galaxy"
        },
        "channel" : {
            "id" : 548571593601843200,
            "name" : "\u2014commands"
        },
        "channel_mentions" : [],
        "content" : "32 messages saved from \ud83c\udfa5videos\u2742",
        "id" : 548571923790036998,
        "mention_everyone" : false,
        "mentions" : [],
        "pinned" : false,
        "role_mentions" : [],
        "timestamp" : "2019-02-22 18:28:58",
        "tts" : false
    },
    {
        "author" : {
            "bot" : false,
            "discriminator" : "1090",
            "display_name" : "Human",
            "id" : 232107009434976258,
            "name" : "Human"
        },
        "channel" : {
            "id" : 548571593601843200,
            "name" : "\u2014commands"
        },
        "channel_mentions" : [],
        "content" : "So I can test Discord API limits",
        "id" : 548571923177799681,
        "mention_everyone" : false,
        "mentions" : [],
        "pinned" : false,
        "role_mentions" : [],
        "timestamp" : "2019-02-22 18:28:58",
        "tts" : false
    },
    {
        "author" : {
            "bot" : true,
            "discriminator" : "3970",
            "display_name" : "Galaxy",
            "id" : 534468156056535052,
            "name" : "Galaxy"
        },
        "channel" : {
            "id" : 548571593601843200,
            "name" : "\u2014commands"
        },
        "channel_mentions" : [],
        "content" : "0 messages saved from \ud83c\udfb5Music Room #1\u27a2",
        "id" : 548571902298292238,
        "mention_everyone" : false,
        "mentions" : [],
        "pinned" : false,
        "role_mentions" : [],
        "timestamp" : "2019-02-22 18:28:53",
        "tts" : false
    },
    {
        "author" : {
            "bot" : true,
            "discriminator" : "3970",
            "display_name" : "Galaxy",
            "id" : 534468156056535052,
            "name" : "Galaxy"
        },
        "channel" : {
            "id" : 548571593601843200,
            "name" : "\u2014commands"
        },
        "channel_mentions" : [],
        "content" : "6 messages saved from \ud83d\udcdcrules\u272e",
        "id" : 548571901765615616,
        "mention_everyone" : false,
        "mentions" : [],
        "pinned" : false,
        "role_mentions" : [],
        "timestamp" : "2019-02-22 18:28:53",
        "tts" : false
    },
    {
        "author" : {
            "bot" : true,
            "discriminator" : "3970",
            "display_name" : "Galaxy",
            "id" : 534468156056535052,
            "name" : "Galaxy"
        },
        "channel" : {
            "id" : 548571593601843200,
            "name" : "\u2014commands"
        },
        "channel_mentions" : [],
        "content" : "559 messages saved from nsfw-photos-and-other-things",
        "id" : 548571900645736448,
        "mention_everyone" : false,
        "mentions" : [],
        "pinned" : false,
        "role_mentions" : [],
        "timestamp" : "2019-02-22 18:28:53",
        "tts" : false
    },
    {
        "author" : {
            "bot" : true,
            "discriminator" : "3970",
            "display_name" : "Galaxy",
            "id" : 534468156056535052,
            "name" : "Galaxy"
        },
        "channel" : {
            "id" : 548571593601843200,
            "name" : "\u2014commands"
        },
        "channel_mentions" : [],
        "content" : "0 messages saved from User Count: 180",
        "id" : 548571897139298325,
        "mention_everyone" : false,
        "mentions" : [],
        "pinned" : false,
        "role_mentions" : [],
        "timestamp" : "2019-02-22 18:28:52",
        "tts" : false
    },
    {
        "author" : {
            "bot" : true,
            "discriminator" : "3970",
            "display_name" : "Galaxy",
            "id" : 534468156056535052,
            "name" : "Galaxy"
        },
        "channel" : {
            "id" : 548571593601843200,
            "name" : "\u2014commands"
        },
        "channel_mentions" : [],
        "content" : "547 messages saved from \u2620-super-private-\u2620",
        "id" : 548571896875319297,
        "mention_everyone" : false,
        "mentions" : [],
        "pinned" : false,
        "role_mentions" : [],
        "timestamp" : "2019-02-22 18:28:52",
        "tts" : false
    },
    {
        "author" : {
            "bot" : true,
            "discriminator" : "3970",
            "display_name" : "Galaxy",
            "id" : 534468156056535052,
            "name" : "Galaxy"
        },
        "channel" : {
            "id" : 548571593601843200,
            "name" : "\u2014commands"
        },
        "channel_mentions" : [],
        "content" : "0 messages saved from \ud83c\udfb5Music Room #2\u27a2",
        "id" : 548571883281580057,
        "mention_everyone" : false,
        "mentions" : [],
        "pinned" : false,
        "role_mentions" : [],
        "timestamp" : "2019-02-22 18:28:48",
        "tts" : false
    },
    {
        "author" : {
            "bot" : true,
            "discriminator" : "3970",
            "display_name" : "Galaxy",
            "id" : 534468156056535052,
            "name" : "Galaxy"
        },
        "channel" : {
            "id" : 548571593601843200,
            "name" : "\u2014commands"
        },
        "channel_mentions" : [],
        "content" : "616 messages saved from \ud83d\udcc8joins\u272e",
        "id" : 548571882669211648,
        "mention_everyone" : false,
        "mentions" : [],
        "pinned" : false,
        "role_mentions" : [],
        "timestamp" : "2019-02-22 18:28:48",
        "tts" : false
    },
    {
        "author" : {
            "bot" : true,
            "discriminator" : "3970",
            "display_name" : "Galaxy",
            "id" : 534468156056535052,
            "name" : "Galaxy"
        },
        "channel" : {
            "id" : 548571593601843200,
            "name" : "\u2014commands"
        },
        "channel_mentions" : [],
        "content" : "1024 messages saved from venting\u2724",
        "id" : 548571875505340465,
        "mention_everyone" : false,
        "mentions" : [],
        "pinned" : false,
        "role_mentions" : [],
        "timestamp" : "2019-02-22 18:28:47",
        "tts" : false
    },
    {
        "author" : {
            "bot" : true,
            "discriminator" : "3970",
            "display_name" : "Galaxy",
            "id" : 534468156056535052,
            "name" : "Galaxy"
        },
        "channel" : {
            "id" : 548571593601843200,
            "name" : "\u2014commands"
        },
        "channel_mentions" : [],
        "content" : "3 messages saved from \u2620-verification-\u2620",
        "id" : 548571857885069321,
        "mention_everyone" : false,
        "mentions" : [],
        "pinned" : false,
        "role_mentions" : [],
        "timestamp" : "2019-02-22 18:28:42",
        "tts" : false
    },
    {
        "author" : {
            "bot" : true,
            "discriminator" : "3970",
            "display_name" : "Galaxy",
            "id" : 534468156056535052,
            "name" : "Galaxy"
        },
        "channel" : {
            "id" : 548571593601843200,
            "name" : "\u2014commands"
        },
        "channel_mentions" : [],
        "content" : "0 messages saved from \u2af7\u3010\u266bVOICE CHANNELS\u266c\u3011\u2af8",
        "id" : 548571857239015484,
        "mention_everyone" : false,
        "mentions" : [],
        "pinned" : false,
        "role_mentions" : [],
        "timestamp" : "2019-02-22 18:28:42",
        "tts" : false
    },
    {
        "author" : {
            "bot" : true,
            "discriminator" : "3970",
            "display_name" : "Galaxy",
            "id" : 534468156056535052,
            "name" : "Galaxy"
        },
        "channel" : {
            "id" : 548571593601843200,
            "name" : "\u2014commands"
        },
        "channel_mentions" : [],
        "content" : "128 messages saved from \ud83e\udd1dintroductions\u272a",
        "id" : 548571856333045772,
        "mention_everyone" : false,
        "mentions" : [],
        "pinned" : false,
        "role_mentions" : [],
        "timestamp" : "2019-02-22 18:28:42",
        "tts" : false
    },
    {
        "author" : {
            "bot" : true,
            "discriminator" : "3970",
            "display_name" : "Galaxy",
            "id" : 534468156056535052,
            "name" : "Galaxy"
        },
        "channel" : {
            "id" : 548571593601843200,
            "name" : "\u2014commands"
        },
        "channel_mentions" : [],
        "content" : "759 messages saved from \ud83c\udfb5music-string\u27a2",
        "id" : 548571855154315305,
        "mention_everyone" : false,
        "mentions" : [],
        "pinned" : false,
        "role_mentions" : [],
        "timestamp" : "2019-02-22 18:28:42",
        "tts" : false
    },
    {
        "author" : {
            "bot" : true,
            "discriminator" : "3970",
            "display_name" : "Galaxy",
            "id" : 534468156056535052,
            "name" : "Galaxy"
        },
        "channel" : {
            "id" : 548571593601843200,
            "name" : "\u2014commands"
        },
        "channel_mentions" : [],
        "content" : "7 messages saved from self-roles\u272a",
        "id" : 548571850641506325,
        "mention_everyone" : false,
        "mentions" : [],
        "pinned" : false,
        "role_mentions" : [],
        "timestamp" : "2019-02-22 18:28:41",
        "tts" : false
    },
    {
        "author" : {
            "bot" : true,
            "discriminator" : "3970",
            "display_name" : "Galaxy",
            "id" : 534468156056535052,
            "name" : "Galaxy"
        },
        "channel" : {
            "id" : 548571593601843200,
            "name" : "\u2014commands"
        },
        "channel_mentions" : [],
        "content" : "0 messages saved from \ud83d\udcca Server Stats \ud83d\udcca",
        "id" : 548571833402916907,
        "mention_everyone" : false,
        "mentions" : [],
        "pinned" : false,
        "role_mentions" : [],
        "timestamp" : "2019-02-22 18:28:37",
        "tts" : false
    },
    {
        "author" : {
            "bot" : true,
            "discriminator" : "3970",
            "display_name" : "Galaxy",
            "id" : 534468156056535052,
            "name" : "Galaxy"
        },
        "channel" : {
            "id" : 548571593601843200,
            "name" : "\u2014commands"
        },
        "channel_mentions" : [],
        "content" : "118 messages saved from \ud83d\udcc1coding-\u2742",
        "id" : 548571833067241512,
        "mention_everyone" : false,
        "mentions" : [],
        "pinned" : false,
        "role_mentions" : [],
        "timestamp" : "2019-02-22 18:28:36",
        "tts" : false
    },
    {
        "author" : {
            "bot" : true,
            "discriminator" : "3970",
            "display_name" : "Galaxy",
            "id" : 534468156056535052,
            "name" : "Galaxy"
        },
        "channel" : {
            "id" : 548571593601843200,
            "name" : "\u2014commands"
        },
        "channel_mentions" : [],
        "content" : "0 messages saved from \u2af7\u3010\u265d\u265eFUN AREA\u265e\u265d\u3011\u2af8",
        "id" : 548571831087529996,
        "mention_everyone" : false,
        "mentions" : [],
        "pinned" : false,
        "role_mentions" : [],
        "timestamp" : "2019-02-22 18:28:36",
        "tts" : false
    },
    {
        "author" : {
            "bot" : true,
            "discriminator" : "3970",
            "display_name" : "Galaxy",
            "id" : 534468156056535052,
            "name" : "Galaxy"
        },
        "channel" : {
            "id" : 548571593601843200,
            "name" : "\u2014commands"
        },
        "channel_mentions" : [],
        "content" : "280 messages saved from \ud83d\udcf7photos\u2742",
        "id" : 548571830605053983,
        "mention_everyone" : false,
        "mentions" : [],
        "pinned" : false,
        "role_mentions" : [],
        "timestamp" : "2019-02-22 18:28:36",
        "tts" : false
    },
    {
        "author" : {
            "bot" : true,
            "discriminator" : "3970",
            "display_name" : "Galaxy",
            "id" : 534468156056535052,
            "name" : "Galaxy"
        },
        "channel" : {
            "id" : 548571593601843200,
            "name" : "\u2014commands"
        },
        "channel_mentions" : [],
        "content" : "3 messages saved from \ud83d\udcf0announcements\u272e",
        "id" : 548571827040026644,
        "mention_everyone" : false,
        "mentions" : [],
        "pinned" : false,
        "role_mentions" : [],
        "timestamp" : "2019-02-22 18:28:35",
        "tts" : false
    },
    {
        "author" : {
            "bot" : true,
            "discriminator" : "3970",
            "display_name" : "Galaxy",
            "id" : 534468156056535052,
            "name" : "Galaxy"
        },
        "channel" : {
            "id" : 548571593601843200,
            "name" : "\u2014commands"
        },
        "channel_mentions" : [],
        "content" : "0 messages saved from \ud83d\udde3Talks \u2620",
        "id" : 548571825408442386,
        "mention_everyone" : false,
        "mentions" : [],
        "pinned" : false,
        "role_mentions" : [],
        "timestamp" : "2019-02-22 18:28:35",
        "tts" : false
    },
    {
        "author" : {
            "bot" : true,
            "discriminator" : "3970",
            "display_name" : "Galaxy",
            "id" : 534468156056535052,
            "name" : "Galaxy"
        },
        "channel" : {
            "id" : 548571593601843200,
            "name" : "\u2014commands"
        },
        "channel_mentions" : [],
        "content" : "2708 messages saved from \ud83d\udd27bot-commands\u2741",
        "id" : 548571824733290508,
        "mention_everyone" : false,
        "mentions" : [],
        "pinned" : false,
        "role_mentions" : [],
        "timestamp" : "2019-02-22 18:28:34",
        "tts" : false
    },
    {
        "author" : {
            "bot" : true,
            "discriminator" : "3970",
            "display_name" : "Galaxy",
            "id" : 534468156056535052,
            "name" : "Galaxy"
        },
        "channel" : {
            "id" : 548571593601843200,
            "name" : "\u2014commands"
        },
        "channel_mentions" : [],
        "content" : "50 messages saved from art\u2741",
        "id" : 548571806693326889,
        "mention_everyone" : false,
        "mentions" : [],
        "pinned" : false,
        "role_mentions" : [],
        "timestamp" : "2019-02-22 18:28:30",
        "tts" : false
    },
    {
        "author" : {
            "bot" : true,
            "discriminator" : "3970",
            "display_name" : "Galaxy",
            "id" : 534468156056535052,
            "name" : "Galaxy"
        },
        "channel" : {
            "id" : 548571593601843200,
            "name" : "\u2014commands"
        },
        "channel_mentions" : [],
        "content" : "22496 messages saved from \ud83d\udcacgeneral\u2724",
        "id" : 548571805619716106,
        "mention_everyone" : false,
        "mentions" : [],
        "pinned" : false,
        "role_mentions" : [],
        "timestamp" : "2019-02-22 18:28:30",
        "tts" : false
    },
    {
        "author" : {
            "bot" : false,
            "discriminator" : "1090",
            "display_name" : "Human",
            "id" : 232107009434976258,
            "name" : "Human"
        },
        "channel" : {
            "id" : 548571593601843200,
            "name" : "\u2014commands"
        },
        "channel_mentions" : [],
        "content" : "I'm doing it to **every** server.",
        "id" : 548571798107848744,
        "mention_everyone" : false,
        "mentions" : [],
        "pinned" : false,
        "role_mentions" : [],
        "timestamp" : "2019-02-22 18:28:28",
        "tts" : false
    },
    {
        "author" : {
            "bot" : false,
            "discriminator" : "1090",
            "display_name" : "Human",
            "id" : 232107009434976258,
            "name" : "Human"
        },
        "channel" : {
            "id" : 548571593601843200,
            "name" : "\u2014commands"
        },
        "channel_mentions" : [],
        "content" : "yes",
        "id" : 548571767782899744,
        "mention_everyone" : false,
        "mentions" : [],
        "pinned" : false,
        "role_mentions" : [],
        "timestamp" : "2019-02-22 18:28:21",
        "tts" : false
    },
    {
        "author" : {
            "bot" : false,
            "discriminator" : "0001",
            "display_name" : "Simon Max",
            "id" : 533989850399899665,
            "name" : "JacquesMax"
        },
        "channel" : {
            "id" : 548571593601843200,
            "name" : "\u2014commands"
        },
        "channel_mentions" : [],
        "content" : "oh lol\nso now this exists",
        "id" : 548571722467770369,
        "mention_everyone" : false,
        "mentions" : [],
        "pinned" : false,
        "role_mentions" : [],
        "timestamp" : "2019-02-22 18:28:10",
        "tts" : false
    },
    {
        "author" : {
            "bot" : true,
            "discriminator" : "3970",
            "display_name" : "Galaxy",
            "id" : 534468156056535052,
            "name" : "Galaxy"
        },
        "channel" : {
            "id" : 548571593601843200,
            "name" : "\u2014commands"
        },
        "channel_mentions" : [],
        "content" : "2 messages saved from partners\u273d",
        "id" : 548571663504244751,
        "mention_everyone" : false,
        "mentions" : [],
        "pinned" : false,
        "role_mentions" : [],
        "timestamp" : "2019-02-22 18:27:56",
        "tts" : false
    },
    {
        "author" : {
            "bot" : true,
            "discriminator" : "3970",
            "display_name" : "Galaxy",
            "id" : 534468156056535052,
            "name" : "Galaxy"
        },
        "channel" : {
            "id" : 548571593601843200,
            "name" : "\u2014commands"
        },
        "channel_mentions" : [],
        "content" : "273 messages saved from \ud83d\udccabump-us\u2724",
        "id" : 548571661683785748,
        "mention_everyone" : false,
        "mentions" : [],
        "pinned" : false,
        "role_mentions" : [],
        "timestamp" : "2019-02-22 18:27:56",
        "tts" : false
    },
    {
        "author" : {
            "bot" : true,
            "discriminator" : "3970",
            "display_name" : "Galaxy",
            "id" : 534468156056535052,
            "name" : "Galaxy"
        },
        "channel" : {
            "id" : 548571593601843200,
            "name" : "\u2014commands"
        },
        "channel_mentions" : [],
        "content" : "0 messages saved from \u2af7\u3010\u265aPARTNERSHIPS\u265a\u3011\u2af8",
        "id" : 548571643329380356,
        "mention_everyone" : false,
        "mentions" : [],
        "pinned" : false,
        "role_mentions" : [],
        "timestamp" : "2019-02-22 18:27:51",
        "tts" : false
    },
    {
        "author" : {
            "bot" : true,
            "discriminator" : "3970",
            "display_name" : "Galaxy",
            "id" : 534468156056535052,
            "name" : "Galaxy"
        },
        "channel" : {
            "id" : 548571593601843200,
            "name" : "\u2014commands"
        },
        "channel_mentions" : [],
        "content" : "0 messages saved from \ud83d\uddefKaraoke \u2620",
        "id" : 548571642628931587,
        "mention_everyone" : false,
        "mentions" : [],
        "pinned" : false,
        "role_mentions" : [],
        "timestamp" : "2019-02-22 18:27:51",
        "tts" : false
    },
    {
        "author" : {
            "bot" : true,
            "discriminator" : "3970",
            "display_name" : "Galaxy",
            "id" : 534468156056535052,
            "name" : "Galaxy"
        },
        "channel" : {
            "id" : 548571593601843200,
            "name" : "\u2014commands"
        },
        "channel_mentions" : [],
        "content" : "0 messages saved from \u2af7\u3010\u265bMAIN AREA\u265b\u3011\u2af8",
        "id" : 548571641957974023,
        "mention_everyone" : false,
        "mentions" : [],
        "pinned" : false,
        "role_mentions" : [],
        "timestamp" : "2019-02-22 18:27:51",
        "tts" : false
    },
    {
        "author" : {
            "bot" : true,
            "discriminator" : "3970",
            "display_name" : "Galaxy",
            "id" : 534468156056535052,
            "name" : "Galaxy"
        },
        "channel" : {
            "id" : 548571593601843200,
            "name" : "\u2014commands"
        },
        "channel_mentions" : [],
        "content" : "0 messages saved from Staff Lounge",
        "id" : 548571640963792917,
        "mention_everyone" : false,
        "mentions" : [],
        "pinned" : false,
        "role_mentions" : [],
        "timestamp" : "2019-02-22 18:27:51",
        "tts" : false
    },
    {
        "author" : {
            "bot" : true,
            "discriminator" : "3970",
            "display_name" : "Galaxy",
            "id" : 534468156056535052,
            "name" : "Galaxy"
        },
        "channel" : {
            "id" : 548571593601843200,
            "name" : "\u2014commands"
        },
        "channel_mentions" : [],
        "content" : "0 messages saved from \u2af7\u273eInformation Area\u273e\u2af8",
        "id" : 548571638011133992,
        "mention_everyone" : false,
        "mentions" : [],
        "pinned" : false,
        "role_mentions" : [],
        "timestamp" : "2019-02-22 18:27:50",
        "tts" : false
    },
    {
        "author" : {
            "bot" : true,
            "discriminator" : "3970",
            "display_name" : "Galaxy",
            "id" : 534468156056535052,
            "name" : "Galaxy"
        },
        "channel" : {
            "id" : 548571593601843200,
            "name" : "\u2014commands"
        },
        "channel_mentions" : [],
        "content" : "1 messages saved from \ud83c\udfa8color-roles\u272a",
        "id" : 548571616351748099,
        "mention_everyone" : false,
        "mentions" : [],
        "pinned" : false,
        "role_mentions" : [],
        "timestamp" : "2019-02-22 18:27:45",
        "tts" : false
    },
    {
        "author" : {
            "bot" : true,
            "discriminator" : "3970",
            "display_name" : "Galaxy",
            "id" : 534468156056535052,
            "name" : "Galaxy"
        },
        "channel" : {
            "id" : 548571593601843200,
            "name" : "\u2014commands"
        },
        "channel_mentions" : [],
        "content" : "55 messages saved from roleplays\u273e",
        "id" : 548571615382994944,
        "mention_everyone" : false,
        "mentions" : [],
        "pinned" : false,
        "role_mentions" : [],
        "timestamp" : "2019-02-22 18:27:45",
        "tts" : false
    },
    {
        "author" : {
            "bot" : true,
            "discriminator" : "3970",
            "display_name" : "Galaxy",
            "id" : 534468156056535052,
            "name" : "Galaxy"
        },
        "channel" : {
            "id" : 548571593601843200,
            "name" : "\u2014commands"
        },
        "channel_mentions" : [],
        "content" : "0 messages saved from Bot Count: 12",
        "id" : 548571614212653057,
        "mention_everyone" : false,
        "mentions" : [],
        "pinned" : false,
        "role_mentions" : [],
        "timestamp" : "2019-02-22 18:27:44",
        "tts" : false
    },
    {
        "author" : {
            "bot" : true,
            "discriminator" : "3970",
            "display_name" : "Galaxy",
            "id" : 534468156056535052,
            "name" : "Galaxy"
        },
        "channel" : {
            "id" : 548571593601843200,
            "name" : "\u2014commands"
        },
        "channel_mentions" : [],
        "content" : "0 messages saved from \u2620 Owner's VC \u2620",
        "id" : 548571613763731467,
        "mention_everyone" : false,
        "mentions" : [],
        "pinned" : false,
        "role_mentions" : [],
        "timestamp" : "2019-02-22 18:27:44",
        "tts" : false
    },
    {
        "author" : {
            "bot" : true,
            "discriminator" : "3970",
            "display_name" : "Galaxy",
            "id" : 534468156056535052,
            "name" : "Galaxy"
        },
        "channel" : {
            "id" : 548571593601843200,
            "name" : "\u2014commands"
        },
        "channel_mentions" : [],
        "content" : "222 messages saved from pokecord\u2741",
        "id" : 548571613314940935,
        "mention_everyone" : false,
        "mentions" : [],
        "pinned" : false,
        "role_mentions" : [],
        "timestamp" : "2019-02-22 18:27:44",
        "tts" : false
    },
    {
        "author" : {
            "bot" : false,
            "discriminator" : "1090",
            "display_name" : "Human",
            "id" : 232107009434976258,
            "name" : "Human"
        },
        "channel" : {
            "id" : 548571593601843200,
            "name" : "\u2014commands"
        },
        "channel_mentions" : [],
        "content" : "/serverlogs",
        "id" : 548571612056911876,
        "mention_everyone" : false,
        "mentions" : [],
        "pinned" : false,
        "role_mentions" : [],
        "timestamp" : "2019-02-22 18:27:44",
        "tts" : false
    }
]