[
    {
        "author" : {
            "bot" : true,
            "discriminator" : "8760",
            "display_name" : "Slayer",
            "id" : 204255221017214977,
            "name" : "YAGPDB.xyz"
        },
        "channel" : {
            "id" : 541687587933519882,
            "name" : "self-roles\u272a"
        },
        "channel_mentions" : [],
        "content" : "**Role Menu: Explain**\nReact to give yourself a role.\n\n\ud83d\ude4b : `Extrovert`\n\n\u2639 : `Introvert`",
        "id" : 542260427975819264,
        "mention_everyone" : false,
        "mentions" : [],
        "pinned" : false,
        "role_mentions" : [],
        "timestamp" : "2019-02-05 08:29:20",
        "tts" : false
    },
    {
        "author" : {
            "bot" : true,
            "discriminator" : "8760",
            "display_name" : "Slayer",
            "id" : 204255221017214977,
            "name" : "YAGPDB.xyz"
        },
        "channel" : {
            "id" : 541687587933519882,
            "name" : "self-roles\u272a"
        },
        "channel_mentions" : [],
        "content" : "**Role Menu: Hobbies**\nReact to give yourself a role.\n\n\ud83d\udc09 : `Fantasy`\n\n\ud83c\udfa8 : `Artist`\n\n\ud83e\udd42 : `Chatting`\n\n\ud83c\udf1b : `Space`\n\n\ud83c\udfae : `Gaming`\n\n\ud83c\udfc8 : `Sports`\n\n\ud83d\udcda : `Reading`",
        "id" : 542258950515458069,
        "mention_everyone" : false,
        "mentions" : [],
        "pinned" : false,
        "role_mentions" : [],
        "timestamp" : "2019-02-05 08:23:28",
        "tts" : false
    },
    {
        "author" : {
            "bot" : true,
            "discriminator" : "8760",
            "display_name" : "Slayer",
            "id" : 204255221017214977,
            "name" : "YAGPDB.xyz"
        },
        "channel" : {
            "id" : 541687587933519882,
            "name" : "self-roles\u272a"
        },
        "channel_mentions" : [],
        "content" : "**Role Menu: Location**\nReact to give yourself a role.\n\n\ud83c\udf0a : `Oceania`\n\n\ud83c\udf0f : `Asia`\n\n\ud83c\udf0d : `Africa`\n\n\ud83c\uddea\ud83c\uddfa : `Europe`\n\n\ud83c\udf0e : `America`",
        "id" : 542257669835063296,
        "mention_everyone" : false,
        "mentions" : [],
        "pinned" : false,
        "role_mentions" : [],
        "timestamp" : "2019-02-05 08:18:23",
        "tts" : false
    },
    {
        "author" : {
            "bot" : true,
            "discriminator" : "8760",
            "display_name" : "Slayer",
            "id" : 204255221017214977,
            "name" : "YAGPDB.xyz"
        },
        "channel" : {
            "id" : 541687587933519882,
            "name" : "self-roles\u272a"
        },
        "channel_mentions" : [],
        "content" : "**Role Menu: Notification**\nReact to give yourself a role.\n\n\ud83d\udced : `Ask to DM`\n\n\ud83d\udcec : `Closed DM`\n\n\ud83d\udcea : `DM open`",
        "id" : 542257019042660354,
        "mention_everyone" : false,
        "mentions" : [],
        "pinned" : false,
        "role_mentions" : [],
        "timestamp" : "2019-02-05 08:15:47",
        "tts" : false
    },
    {
        "author" : {
            "bot" : true,
            "discriminator" : "8760",
            "display_name" : "Slayer",
            "id" : 204255221017214977,
            "name" : "YAGPDB.xyz"
        },
        "channel" : {
            "id" : 541687587933519882,
            "name" : "self-roles\u272a"
        },
        "channel_mentions" : [],
        "content" : "**Role Menu: Relationship Status**\nReact to give yourself a role.\n\n\ud83e\udd37 : `Complicated`\n\n\ud83d\udc9e : `Taken`\n\n\ud83d\ude18 : `Single`",
        "id" : 542256413611917322,
        "mention_everyone" : false,
        "mentions" : [],
        "pinned" : false,
        "role_mentions" : [],
        "timestamp" : "2019-02-05 08:13:23",
        "tts" : false
    },
    {
        "author" : {
            "bot" : true,
            "discriminator" : "8760",
            "display_name" : "Slayer",
            "id" : 204255221017214977,
            "name" : "YAGPDB.xyz"
        },
        "channel" : {
            "id" : 541687587933519882,
            "name" : "self-roles\u272a"
        },
        "channel_mentions" : [],
        "content" : "**Role Menu: Age**\nReact to give yourself a role.\n\n\ud83d\ude31 : `27+`\n\n\ud83d\udd7a : `24-26`\n\n\ud83e\udd20 : `19-23`\n\n\u2728 : `16-18`\n\n\ud83c\udf3a : `13-15`",
        "id" : 542255472078749713,
        "mention_everyone" : false,
        "mentions" : [],
        "pinned" : false,
        "role_mentions" : [],
        "timestamp" : "2019-02-05 08:09:39",
        "tts" : false
    },
    {
        "author" : {
            "bot" : true,
            "discriminator" : "8760",
            "display_name" : "Slayer",
            "id" : 204255221017214977,
            "name" : "YAGPDB.xyz"
        },
        "channel" : {
            "id" : 541687587933519882,
            "name" : "self-roles\u272a"
        },
        "channel_mentions" : [],
        "content" : "**Role Menu: Gender**\nReact to give yourself a role.\n\n\ud83d\udc68 : `Male`\n\n\ud83d\udc67 : `Female`",
        "id" : 542254802797854720,
        "mention_everyone" : false,
        "mentions" : [],
        "pinned" : false,
        "role_mentions" : [],
        "timestamp" : "2019-02-05 08:06:59",
        "tts" : false
    }
]