[
    {
        "author" : {
            "bot" : false,
            "discriminator" : "4404",
            "display_name" : "NorbitKage",
            "id" : 421911703949672462,
            "name" : "\ud835\udd4d\ud835\udd52\ud835\udd61\ud835\udd60\ud835\udd63\ud835\udd68\ud835\udd52\ud835\udd67\ud835\udd56"
        },
        "channel" : {
            "id" : 541692540147990531,
            "name" : "\ud83c\udfa5videos\u2742"
        },
        "channel_mentions" : [],
        "content" : "WTF?",
        "id" : 548738803817512961,
        "mention_everyone" : false,
        "mentions" : [],
        "pinned" : false,
        "role_mentions" : [],
        "timestamp" : "2019-02-23 05:32:05",
        "tts" : false
    },
    {
        "author" : {
            "bot" : false,
            "discriminator" : "8773",
            "display_name" : "Spartanslayer9001",
            "id" : 396047335232241665,
            "name" : "Spartanslayer9001"
        },
        "channel" : {
            "id" : 541692540147990531,
            "name" : "\ud83c\udfa5videos\u2742"
        },
        "channel_mentions" : [],
        "content" : "Smh.",
        "id" : 547524696523145216,
        "mention_everyone" : false,
        "mentions" : [],
        "pinned" : false,
        "role_mentions" : [],
        "timestamp" : "2019-02-19 21:07:40",
        "tts" : false
    },
    {
        "author" : {
            "bot" : false,
            "discriminator" : "9877",
            "display_name" : "panda",
            "id" : 516826373663227908,
            "name" : "Enrique"
        },
        "channel" : {
            "id" : 541692540147990531,
            "name" : "\ud83c\udfa5videos\u2742"
        },
        "channel_mentions" : [],
        "content" : "Not talking to you",
        "id" : 547524666017710100,
        "mention_everyone" : false,
        "mentions" : [],
        "pinned" : false,
        "role_mentions" : [],
        "timestamp" : "2019-02-19 21:07:32",
        "tts" : false
    },
    {
        "author" : {
            "bot" : false,
            "discriminator" : "8773",
            "display_name" : "Spartanslayer9001",
            "id" : 396047335232241665,
            "name" : "Spartanslayer9001"
        },
        "channel" : {
            "id" : 541692540147990531,
            "name" : "\ud83c\udfa5videos\u2742"
        },
        "channel_mentions" : [],
        "content" : "That was clean.",
        "id" : 547524604038742016,
        "mention_everyone" : false,
        "mentions" : [],
        "pinned" : false,
        "role_mentions" : [],
        "timestamp" : "2019-02-19 21:07:18",
        "tts" : false
    },
    {
        "author" : {
            "bot" : false,
            "discriminator" : "9877",
            "display_name" : "panda",
            "id" : 516826373663227908,
            "name" : "Enrique"
        },
        "channel" : {
            "id" : 541692540147990531,
            "name" : "\ud83c\udfa5videos\u2742"
        },
        "channel_mentions" : [],
        "content" : "<:PepeYikes:542421343350816772> <:PepeKMS:542421343312805899>",
        "id" : 547524542097129494,
        "mention_everyone" : false,
        "mentions" : [],
        "pinned" : false,
        "role_mentions" : [],
        "timestamp" : "2019-02-19 21:07:03",
        "tts" : false
    },
    {
        "author" : {
            "bot" : false,
            "discriminator" : "8773",
            "display_name" : "Spartanslayer9001",
            "id" : 396047335232241665,
            "name" : "Spartanslayer9001"
        },
        "channel" : {
            "id" : 541692540147990531,
            "name" : "\ud83c\udfa5videos\u2742"
        },
        "channel_mentions" : [],
        "content" : "",
        "id" : 547524535331717130,
        "mention_everyone" : false,
        "mentions" : [],
        "pinned" : false,
        "role_mentions" : [],
        "timestamp" : "2019-02-19 21:07:01",
        "tts" : false
    },
    {
        "author" : {
            "bot" : false,
            "discriminator" : "5227",
            "display_name" : "The_Wild_Raccoon",
            "id" : 266207066564198400,
            "name" : "The_Wild_Raccoon"
        },
        "channel" : {
            "id" : 541692540147990531,
            "name" : "\ud83c\udfa5videos\u2742"
        },
        "channel_mentions" : [],
        "content" : "",
        "id" : 546800917639462913,
        "mention_everyone" : false,
        "mentions" : [],
        "pinned" : false,
        "role_mentions" : [],
        "timestamp" : "2019-02-17 21:11:37",
        "tts" : false
    },
    {
        "author" : {
            "bot" : false,
            "discriminator" : "5638",
            "display_name" : "Simon Max",
            "id" : 533989850399899665,
            "name" : "JacquesMax"
        },
        "channel" : {
            "id" : 541692540147990531,
            "name" : "\ud83c\udfa5videos\u2742"
        },
        "channel_mentions" : [],
        "content" : "rip",
        "id" : 546429390221869067,
        "mention_everyone" : false,
        "mentions" : [],
        "pinned" : false,
        "role_mentions" : [],
        "timestamp" : "2019-02-16 20:35:18",
        "tts" : false
    },
    {
        "author" : {
            "bot" : false,
            "discriminator" : "4404",
            "display_name" : "NorbitKage",
            "id" : 421911703949672462,
            "name" : "\ud835\udd4d\ud835\udd52\ud835\udd61\ud835\udd60\ud835\udd63\ud835\udd68\ud835\udd52\ud835\udd67\ud835\udd56"
        },
        "channel" : {
            "id" : 541692540147990531,
            "name" : "\ud83c\udfa5videos\u2742"
        },
        "channel_mentions" : [],
        "content" : "Hmm.",
        "id" : 546429337025642526,
        "mention_everyone" : false,
        "mentions" : [],
        "pinned" : false,
        "role_mentions" : [],
        "timestamp" : "2019-02-16 20:35:06",
        "tts" : false
    },
    {
        "author" : {
            "bot" : true,
            "discriminator" : "0001",
            "display_name" : "Nightbot",
            "id" : 83010416610906112,
            "name" : "Nightbot"
        },
        "channel" : {
            "id" : 541692540147990531,
            "name" : "\ud83c\udfa5videos\u2742"
        },
        "channel_mentions" : [],
        "content" : "<@!421911703949672462> -> I hope you learned your lesson. [stop posting links] [warning]",
        "id" : 546429321430958100,
        "mention_everyone" : false,
        "mentions" : [
            {
                "bot" : false,
                "discriminator" : "4404",
                "display_name" : "NorbitKage",
                "id" : 421911703949672462,
                "name" : "\ud835\udd4d\ud835\udd52\ud835\udd61\ud835\udd60\ud835\udd63\ud835\udd68\ud835\udd52\ud835\udd67\ud835\udd56"
            }
        ],
        "pinned" : false,
        "role_mentions" : [],
        "timestamp" : "2019-02-16 20:35:02",
        "tts" : false
    },
    {
        "author" : {
            "bot" : false,
            "discriminator" : "0349",
            "display_name" : "A r\u0489 t\u0489 o\u0489 r\u0489 i\u0489 a\u0489 s\u0489",
            "id" : 343482641183408129,
            "name" : "A r\u0489 t\u0489 o\u0489 r\u0489 i\u0489 a\u0489 s\u0489"
        },
        "channel" : {
            "id" : 541692540147990531,
            "name" : "\ud83c\udfa5videos\u2742"
        },
        "channel_mentions" : [],
        "content" : "Yea",
        "id" : 546331364811866133,
        "mention_everyone" : false,
        "mentions" : [],
        "pinned" : false,
        "role_mentions" : [],
        "timestamp" : "2019-02-16 14:05:47",
        "tts" : false
    },
    {
        "author" : {
            "bot" : false,
            "discriminator" : "5638",
            "display_name" : "Simon Max",
            "id" : 533989850399899665,
            "name" : "JacquesMax"
        },
        "channel" : {
            "id" : 541692540147990531,
            "name" : "\ud83c\udfa5videos\u2742"
        },
        "channel_mentions" : [],
        "content" : "Just that thumbnail screams \"theRussianBadger\"",
        "id" : 546331246402338846,
        "mention_everyone" : false,
        "mentions" : [],
        "pinned" : false,
        "role_mentions" : [],
        "timestamp" : "2019-02-16 14:05:19",
        "tts" : false
    },
    {
        "author" : {
            "bot" : false,
            "discriminator" : "0349",
            "display_name" : "A r\u0489 t\u0489 o\u0489 r\u0489 i\u0489 a\u0489 s\u0489",
            "id" : 343482641183408129,
            "name" : "A r\u0489 t\u0489 o\u0489 r\u0489 i\u0489 a\u0489 s\u0489"
        },
        "channel" : {
            "id" : 541692540147990531,
            "name" : "\ud83c\udfa5videos\u2742"
        },
        "channel_mentions" : [],
        "content" : "",
        "id" : 546330986472931328,
        "mention_everyone" : false,
        "mentions" : [],
        "pinned" : false,
        "role_mentions" : [],
        "timestamp" : "2019-02-16 14:04:17",
        "tts" : false
    },
    {
        "author" : {
            "bot" : false,
            "discriminator" : "5276",
            "display_name" : "Timcaros",
            "id" : 252710824219639819,
            "name" : "Timcaros"
        },
        "channel" : {
            "id" : 541692540147990531,
            "name" : "\ud83c\udfa5videos\u2742"
        },
        "channel_mentions" : [],
        "content" : "hot dang",
        "id" : 546095374604173322,
        "mention_everyone" : false,
        "mentions" : [],
        "pinned" : false,
        "role_mentions" : [],
        "timestamp" : "2019-02-15 22:28:03",
        "tts" : false
    },
    {
        "author" : {
            "bot" : false,
            "discriminator" : "2999",
            "display_name" : "Nightluck",
            "id" : 472164303315795968,
            "name" : "Nightluck"
        },
        "channel" : {
            "id" : 541692540147990531,
            "name" : "\ud83c\udfa5videos\u2742"
        },
        "channel_mentions" : [],
        "content" : "Anyone into equine?",
        "id" : 546095181943013407,
        "mention_everyone" : false,
        "mentions" : [],
        "pinned" : false,
        "role_mentions" : [],
        "timestamp" : "2019-02-15 22:27:17",
        "tts" : false
    },
    {
        "author" : {
            "bot" : false,
            "discriminator" : "5227",
            "display_name" : "The_Wild_Raccoon",
            "id" : 266207066564198400,
            "name" : "The_Wild_Raccoon"
        },
        "channel" : {
            "id" : 541692540147990531,
            "name" : "\ud83c\udfa5videos\u2742"
        },
        "channel_mentions" : [],
        "content" : "",
        "id" : 545427445164277763,
        "mention_everyone" : false,
        "mentions" : [],
        "pinned" : false,
        "role_mentions" : [],
        "timestamp" : "2019-02-14 02:13:56",
        "tts" : false
    },
    {
        "author" : {
            "bot" : false,
            "discriminator" : "5227",
            "display_name" : "The_Wild_Raccoon",
            "id" : 266207066564198400,
            "name" : "The_Wild_Raccoon"
        },
        "channel" : {
            "id" : 541692540147990531,
            "name" : "\ud83c\udfa5videos\u2742"
        },
        "channel_mentions" : [],
        "content" : "how to bypass the rules 101",
        "id" : 545426877372825610,
        "mention_everyone" : false,
        "mentions" : [],
        "pinned" : false,
        "role_mentions" : [],
        "timestamp" : "2019-02-14 02:11:41",
        "tts" : false
    },
    {
        "author" : {
            "bot" : false,
            "discriminator" : "5227",
            "display_name" : "The_Wild_Raccoon",
            "id" : 266207066564198400,
            "name" : "The_Wild_Raccoon"
        },
        "channel" : {
            "id" : 541692540147990531,
            "name" : "\ud83c\udfa5videos\u2742"
        },
        "channel_mentions" : [],
        "content" : "",
        "id" : 545426702977859604,
        "mention_everyone" : false,
        "mentions" : [],
        "pinned" : false,
        "role_mentions" : [],
        "timestamp" : "2019-02-14 02:10:59",
        "tts" : false
    },
    {
        "author" : {
            "bot" : false,
            "discriminator" : "5227",
            "display_name" : "The_Wild_Raccoon",
            "id" : 266207066564198400,
            "name" : "The_Wild_Raccoon"
        },
        "channel" : {
            "id" : 541692540147990531,
            "name" : "\ud83c\udfa5videos\u2742"
        },
        "channel_mentions" : [],
        "content" : "what if i..",
        "id" : 545426428078850052,
        "mention_everyone" : false,
        "mentions" : [],
        "pinned" : false,
        "role_mentions" : [],
        "timestamp" : "2019-02-14 02:09:53",
        "tts" : false
    },
    {
        "author" : {
            "bot" : false,
            "discriminator" : "5227",
            "display_name" : "The_Wild_Raccoon",
            "id" : 266207066564198400,
            "name" : "The_Wild_Raccoon"
        },
        "channel" : {
            "id" : 541692540147990531,
            "name" : "\ud83c\udfa5videos\u2742"
        },
        "channel_mentions" : [],
        "content" : "hmm",
        "id" : 545426409250750465,
        "mention_everyone" : false,
        "mentions" : [],
        "pinned" : false,
        "role_mentions" : [],
        "timestamp" : "2019-02-14 02:09:49",
        "tts" : false
    },
    {
        "author" : {
            "bot" : true,
            "discriminator" : "0001",
            "display_name" : "Nightbot",
            "id" : 83010416610906112,
            "name" : "Nightbot"
        },
        "channel" : {
            "id" : 541692540147990531,
            "name" : "\ud83c\udfa5videos\u2742"
        },
        "channel_mentions" : [],
        "content" : "<@!266207066564198400> -> How embarrassing! [stop posting links] [warning]",
        "id" : 545424011685789706,
        "mention_everyone" : false,
        "mentions" : [
            {
                "bot" : false,
                "discriminator" : "5227",
                "display_name" : "The_Wild_Raccoon",
                "id" : 266207066564198400,
                "name" : "The_Wild_Raccoon"
            }
        ],
        "pinned" : false,
        "role_mentions" : [],
        "timestamp" : "2019-02-14 02:00:17",
        "tts" : false
    },
    {
        "author" : {
            "bot" : false,
            "discriminator" : "9877",
            "display_name" : "panda",
            "id" : 516826373663227908,
            "name" : "Enrique"
        },
        "channel" : {
            "id" : 541692540147990531,
            "name" : "\ud83c\udfa5videos\u2742"
        },
        "channel_mentions" : [],
        "content" : "Ok stop then lol",
        "id" : 545000388374298624,
        "mention_everyone" : false,
        "mentions" : [],
        "pinned" : false,
        "role_mentions" : [],
        "timestamp" : "2019-02-12 21:56:58",
        "tts" : false
    },
    {
        "author" : {
            "bot" : false,
            "discriminator" : "9119",
            "display_name" : "Quinella",
            "id" : 232124053220098048,
            "name" : "Quinella"
        },
        "channel" : {
            "id" : 541692540147990531,
            "name" : "\ud83c\udfa5videos\u2742"
        },
        "channel_mentions" : [],
        "content" : "can we not post fucking video links in a video channel",
        "id" : 544999617465417753,
        "mention_everyone" : false,
        "mentions" : [],
        "pinned" : false,
        "role_mentions" : [],
        "timestamp" : "2019-02-12 21:53:54",
        "tts" : false
    },
    {
        "author" : {
            "bot" : false,
            "discriminator" : "9119",
            "display_name" : "Quinella",
            "id" : 232124053220098048,
            "name" : "Quinella"
        },
        "channel" : {
            "id" : 541692540147990531,
            "name" : "\ud83c\udfa5videos\u2742"
        },
        "channel_mentions" : [],
        "content" : "it was a bitch lasagna cover",
        "id" : 544999564223053844,
        "mention_everyone" : false,
        "mentions" : [],
        "pinned" : false,
        "role_mentions" : [],
        "timestamp" : "2019-02-12 21:53:41",
        "tts" : false
    },
    {
        "author" : {
            "bot" : false,
            "discriminator" : "9877",
            "display_name" : "panda",
            "id" : 516826373663227908,
            "name" : "Enrique"
        },
        "channel" : {
            "id" : 541692540147990531,
            "name" : "\ud83c\udfa5videos\u2742"
        },
        "channel_mentions" : [],
        "content" : "Oof",
        "id" : 544999096046583894,
        "mention_everyone" : false,
        "mentions" : [],
        "pinned" : false,
        "role_mentions" : [],
        "timestamp" : "2019-02-12 21:51:50",
        "tts" : false
    },
    {
        "author" : {
            "bot" : true,
            "discriminator" : "0001",
            "display_name" : "Nightbot",
            "id" : 83010416610906112,
            "name" : "Nightbot"
        },
        "channel" : {
            "id" : 541692540147990531,
            "name" : "\ud83c\udfa5videos\u2742"
        },
        "channel_mentions" : [],
        "content" : "<@!232124053220098048> -> I'm not scared. [stop posting links]",
        "id" : 544996818904285185,
        "mention_everyone" : false,
        "mentions" : [],
        "pinned" : false,
        "role_mentions" : [],
        "timestamp" : "2019-02-12 21:42:47",
        "tts" : false
    },
    {
        "author" : {
            "bot" : true,
            "discriminator" : "0001",
            "display_name" : "Nightbot",
            "id" : 83010416610906112,
            "name" : "Nightbot"
        },
        "channel" : {
            "id" : 541692540147990531,
            "name" : "\ud83c\udfa5videos\u2742"
        },
        "channel_mentions" : [],
        "content" : "<@!365770012952363029> -> Beep Boop! [stop posting links] [warning]",
        "id" : 543216003203465216,
        "mention_everyone" : false,
        "mentions" : [
            {
                "bot" : false,
                "discriminator" : "3417",
                "display_name" : "\u2742R\u034eo\u034eb\u034el\u034eo\u034ex\u034eD\u034er\u034ee\u034ea\u034em\u034ey\u034e\u272a",
                "id" : 365770012952363029,
                "name" : "Mr.Aspect"
            }
        ],
        "pinned" : false,
        "role_mentions" : [],
        "timestamp" : "2019-02-07 23:46:27",
        "tts" : false
    },
    {
        "author" : {
            "bot" : false,
            "discriminator" : "3417",
            "display_name" : "\u2742R\u034eo\u034eb\u034el\u034eo\u034ex\u034eD\u034er\u034ee\u034ea\u034em\u034ey\u034e\u272a",
            "id" : 365770012952363029,
            "name" : "Mr.Aspect"
        },
        "channel" : {
            "id" : 541692540147990531,
            "name" : "\ud83c\udfa5videos\u2742"
        },
        "channel_mentions" : [],
        "content" : "You Need Discord Nitro..",
        "id" : 543215866267959308,
        "mention_everyone" : false,
        "mentions" : [],
        "pinned" : false,
        "role_mentions" : [],
        "timestamp" : "2019-02-07 23:45:54",
        "tts" : false
    },
    {
        "author" : {
            "bot" : false,
            "discriminator" : "8154",
            "display_name" : "trash",
            "id" : 498523735603544096,
            "name" : "Sano Tsugi"
        },
        "channel" : {
            "id" : 541692540147990531,
            "name" : "\ud83c\udfa5videos\u2742"
        },
        "channel_mentions" : [],
        "content" : "Lol",
        "id" : 543031907794026546,
        "mention_everyone" : false,
        "mentions" : [],
        "pinned" : false,
        "role_mentions" : [],
        "timestamp" : "2019-02-07 11:34:55",
        "tts" : false
    },
    {
        "author" : {
            "bot" : false,
            "discriminator" : "9877",
            "display_name" : "panda",
            "id" : 516826373663227908,
            "name" : "Enrique"
        },
        "channel" : {
            "id" : 541692540147990531,
            "name" : "\ud83c\udfa5videos\u2742"
        },
        "channel_mentions" : [],
        "content" : "Lol what the hell is this for then",
        "id" : 543012438207889438,
        "mention_everyone" : false,
        "mentions" : [],
        "pinned" : false,
        "role_mentions" : [],
        "timestamp" : "2019-02-07 10:17:33",
        "tts" : false
    },
    {
        "author" : {
            "bot" : true,
            "discriminator" : "0001",
            "display_name" : "Nightbot",
            "id" : 83010416610906112,
            "name" : "Nightbot"
        },
        "channel" : {
            "id" : 541692540147990531,
            "name" : "\ud83c\udfa5videos\u2742"
        },
        "channel_mentions" : [],
        "content" : "<@!486328624698490882> -> So, who wants to dance?! [stop posting links] [warning]",
        "id" : 542958353048141826,
        "mention_everyone" : false,
        "mentions" : [
            {
                "bot" : false,
                "discriminator" : "4150",
                "display_name" : "bob666",
                "id" : 486328624698490882,
                "name" : "bob666"
            }
        ],
        "pinned" : false,
        "role_mentions" : [],
        "timestamp" : "2019-02-07 06:42:39",
        "tts" : false
    },
    {
        "author" : {
            "bot" : false,
            "discriminator" : "3417",
            "display_name" : "\u2742R\u034eo\u034eb\u034el\u034eo\u034ex\u034eD\u034er\u034ee\u034ea\u034em\u034ey\u034e\u272a",
            "id" : 365770012952363029,
            "name" : "Mr.Aspect"
        },
        "channel" : {
            "id" : 541692540147990531,
            "name" : "\ud83c\udfa5videos\u2742"
        },
        "channel_mentions" : [],
        "content" : "XD..",
        "id" : 542531534645886988,
        "mention_everyone" : false,
        "mentions" : [],
        "pinned" : false,
        "role_mentions" : [],
        "timestamp" : "2019-02-06 02:26:37",
        "tts" : false
    },
    {
        "author" : {
            "bot" : false,
            "discriminator" : "9877",
            "display_name" : "panda",
            "id" : 516826373663227908,
            "name" : "Enrique"
        },
        "channel" : {
            "id" : 541692540147990531,
            "name" : "\ud83c\udfa5videos\u2742"
        },
        "channel_mentions" : [],
        "content" : "What's the point of this I don't know how to post videos XD",
        "id" : 542484092025831425,
        "mention_everyone" : false,
        "mentions" : [],
        "pinned" : false,
        "role_mentions" : [],
        "timestamp" : "2019-02-05 23:18:06",
        "tts" : false
    }
]