[
    {
        "author" : {
            "bot" : false,
            "discriminator" : "0026",
            "display_name" : "Kawaii Kun",
            "id" : 540503510614147087,
            "name" : "\udb40\udc00\udb40\udc00\udb40\udc00\udb40\udc00 \udb40\udc00\udb40\udc00\udb40\udc00\udb40\udc00 \udb40\udc00\udb40\udc00"
        },
        "channel" : {
            "id" : 541687587933519882,
            "name" : "self-roles\u272a"
        },
        "channel_mentions" : [],
        "content" : "```diff\n- Which of these options describe you the Best ?\n```\n** **\n<a:aPPepeLsd:513344618444881941>  **Introvert**\n** **\n<a:aPPepeLmfao:493353112984092672>  **Extrovert**\n** **",
        "id" : 550262124635619329,
        "mention_everyone" : false,
        "mentions" : [],
        "pinned" : false,
        "role_mentions" : [],
        "timestamp" : "2019-02-27 10:25:13",
        "tts" : false
    },
    {
        "author" : {
            "bot" : false,
            "discriminator" : "0026",
            "display_name" : "Kawaii Kun",
            "id" : 540503510614147087,
            "name" : "\udb40\udc00\udb40\udc00\udb40\udc00\udb40\udc00 \udb40\udc00\udb40\udc00\udb40\udc00\udb40\udc00 \udb40\udc00\udb40\udc00"
        },
        "channel" : {
            "id" : 541687587933519882,
            "name" : "self-roles\u272a"
        },
        "channel_mentions" : [],
        "content" : "```diff\n- Where do you come from ?\n```\n** **\n<a:aPPepeDJ:513332190407294989>  **America**\n** **\n<a:4410_RainbowNitroKK:544585981559308317>  **Europe**\n** **\n<a:kawaiiBear:529929320114814976>  **Africa**\n** **\n<a:nekomwah:538890124830703616>  **Asia**\n** **\n<a:aPPepeSad:493353113332219934>  **Oceania**\n** **",
        "id" : 550261717003796480,
        "mention_everyone" : false,
        "mentions" : [],
        "pinned" : false,
        "role_mentions" : [],
        "timestamp" : "2019-02-27 10:23:36",
        "tts" : false
    },
    {
        "author" : {
            "bot" : false,
            "discriminator" : "0026",
            "display_name" : "Kawaii Kun",
            "id" : 540503510614147087,
            "name" : "\udb40\udc00\udb40\udc00\udb40\udc00\udb40\udc00 \udb40\udc00\udb40\udc00\udb40\udc00\udb40\udc00 \udb40\udc00\udb40\udc00"
        },
        "channel" : {
            "id" : 541687587933519882,
            "name" : "self-roles\u272a"
        },
        "channel_mentions" : [],
        "content" : "```diff\n- What are your Hobbies ?\n```\n** **\n<a:hypercat:534582446998421518>  **Reading**\n** ** \n<a:2303_Rainbow_WeebKK:544586082428387328>  **Gaming**\n** **\n<a:ahshitwaddup:534392267402772481>  **Chatting**\n** **\n<a:4264_PandaReeRunKK:544586080972701737>  **Sports**\n** **\n<a:4274_KissLoveKK:544586097913757716> ** Fantasy**\n** **\n<a:confetti:537464760887672842>  **Space**\n** **\n<a:aPPepoAnimado:506350852064149534>  **Artist**\n** **",
        "id" : 550261049333514240,
        "mention_everyone" : false,
        "mentions" : [],
        "pinned" : false,
        "role_mentions" : [],
        "timestamp" : "2019-02-27 10:20:57",
        "tts" : false
    },
    {
        "author" : {
            "bot" : false,
            "discriminator" : "0026",
            "display_name" : "Kawaii Kun",
            "id" : 540503510614147087,
            "name" : "\udb40\udc00\udb40\udc00\udb40\udc00\udb40\udc00 \udb40\udc00\udb40\udc00\udb40\udc00\udb40\udc00 \udb40\udc00\udb40\udc00"
        },
        "channel" : {
            "id" : 541687587933519882,
            "name" : "self-roles\u272a"
        },
        "channel_mentions" : [],
        "content" : "```diff\n- Notifications Status !\n```\n** **\n<a:2184_wumpus_color_gifKK:544585980758458394>  **DM's Open** \n** **\n<a:aPPepeTrigger:513332190780719114>  **DM's Closed**\n** **\n<a:9885_Obsessed_girlKK:544586000576544791>   **Ask to DM's**\n** **",
        "id" : 550260061012885504,
        "mention_everyone" : false,
        "mentions" : [],
        "pinned" : false,
        "role_mentions" : [],
        "timestamp" : "2019-02-27 10:17:01",
        "tts" : false
    },
    {
        "author" : {
            "bot" : false,
            "discriminator" : "0026",
            "display_name" : "Kawaii Kun",
            "id" : 540503510614147087,
            "name" : "\udb40\udc00\udb40\udc00\udb40\udc00\udb40\udc00 \udb40\udc00\udb40\udc00\udb40\udc00\udb40\udc00 \udb40\udc00\udb40\udc00"
        },
        "channel" : {
            "id" : 541687587933519882,
            "name" : "self-roles\u272a"
        },
        "channel_mentions" : [],
        "content" : "```diff\n- What's your Realtionship Status ?\n```\n** **\n<a:hyperneko:533437887170084864>  **Single**\n** **\n<a:bloveHyper:529907878736166912>  **Taken**\n** **\n<a:5298_AngryGlitchKK:544586102758047754>  **It's Complicated**\n** **",
        "id" : 550259579058126878,
        "mention_everyone" : false,
        "mentions" : [],
        "pinned" : false,
        "role_mentions" : [],
        "timestamp" : "2019-02-27 10:15:06",
        "tts" : false
    },
    {
        "author" : {
            "bot" : false,
            "discriminator" : "0026",
            "display_name" : "Kawaii Kun",
            "id" : 540503510614147087,
            "name" : "\udb40\udc00\udb40\udc00\udb40\udc00\udb40\udc00 \udb40\udc00\udb40\udc00\udb40\udc00\udb40\udc00 \udb40\udc00\udb40\udc00"
        },
        "channel" : {
            "id" : 541687587933519882,
            "name" : "self-roles\u272a"
        },
        "channel_mentions" : [],
        "content" : "```diff\n- What's your Age ?\n```\n** **\n<a:oofglow:514878033039982608>  **13-15**\n** **\n<a:aPPoggersCog:498482209494401054>  **16-18**\n** **\n<a:4545_RainbowBlobCatKK:544585969546821643>  **19-23**\n** **\n<a:3265_hugheartKK:544586087725793310>  **24-26**\n** **\n<a:aPPoggersConga:493353112954732571>  **27+**\n** **",
        "id" : 550258386885804033,
        "mention_everyone" : false,
        "mentions" : [],
        "pinned" : false,
        "role_mentions" : [],
        "timestamp" : "2019-02-27 10:10:22",
        "tts" : false
    },
    {
        "author" : {
            "bot" : false,
            "discriminator" : "0026",
            "display_name" : "Kawaii Kun",
            "id" : 540503510614147087,
            "name" : "\udb40\udc00\udb40\udc00\udb40\udc00\udb40\udc00 \udb40\udc00\udb40\udc00\udb40\udc00\udb40\udc00 \udb40\udc00\udb40\udc00"
        },
        "channel" : {
            "id" : 541687587933519882,
            "name" : "self-roles\u272a"
        },
        "channel_mentions" : [],
        "content" : "```diff\n- What's your Sexuality ?\n```\n** **\n<a:heartss:537102324234059804>  **Straight**\n** **\n<a:aPPepeMmmye:503880857572999170> ** Asexual**\n** **\n<a:aPPepeStoned:513332191212863504>  **GenderFluid**\n** **\n<a:bunnyroll:529930093452328962>  **Lesbian**\n** **\n<a:aPPoggersHype:505711851670339595>  **Gay**\n** **",
        "id" : 550257755575943185,
        "mention_everyone" : false,
        "mentions" : [],
        "pinned" : false,
        "role_mentions" : [],
        "timestamp" : "2019-02-27 10:07:52",
        "tts" : false
    },
    {
        "author" : {
            "bot" : false,
            "discriminator" : "0026",
            "display_name" : "Kawaii Kun",
            "id" : 540503510614147087,
            "name" : "\udb40\udc00\udb40\udc00\udb40\udc00\udb40\udc00 \udb40\udc00\udb40\udc00\udb40\udc00\udb40\udc00 \udb40\udc00\udb40\udc00"
        },
        "channel" : {
            "id" : 541687587933519882,
            "name" : "self-roles\u272a"
        },
        "channel_mentions" : [],
        "content" : "```diff\n- What is your Gender ?\n```    \n** **\n<a:aPPepeHowdy:505711642647199745>  **Male**\n** **\n<a:winku:538890124944080907>  **Female**\n** **",
        "id" : 550257071749070888,
        "mention_everyone" : false,
        "mentions" : [],
        "pinned" : false,
        "role_mentions" : [],
        "timestamp" : "2019-02-27 10:05:09",
        "tts" : false
    }
]