[
    {
        "author" : {
            "bot" : false,
            "discriminator" : "4404",
            "display_name" : "NorbitKage",
            "id" : 421911703949672462,
            "name" : "\u2119\ud835\udd6a\ud835\udd63\ud835\udd56"
        },
        "channel" : {
            "id" : 550035283911901184,
            "name" : "staff-chat"
        },
        "channel_mentions" : [],
        "content" : "Neat.",
        "id" : 550403511398170685,
        "mention_everyone" : false,
        "mentions" : [],
        "pinned" : false,
        "role_mentions" : [],
        "timestamp" : "2019-02-27 19:47:03",
        "tts" : false
    },
    {
        "author" : {
            "bot" : false,
            "discriminator" : "0026",
            "display_name" : "Kawaii Kun",
            "id" : 540503510614147087,
            "name" : "\udb40\udc00\udb40\udc00\udb40\udc00\udb40\udc00 \udb40\udc00\udb40\udc00\udb40\udc00\udb40\udc00 \udb40\udc00\udb40\udc00"
        },
        "channel" : {
            "id" : 550035283911901184,
            "name" : "staff-chat"
        },
        "channel_mentions" : [],
        "content" : "wut",
        "id" : 550399313805574185,
        "mention_everyone" : false,
        "mentions" : [],
        "pinned" : false,
        "role_mentions" : [],
        "timestamp" : "2019-02-27 19:30:22",
        "tts" : false
    },
    {
        "author" : {
            "bot" : false,
            "discriminator" : "1090",
            "display_name" : "Human",
            "id" : 232107009434976258,
            "name" : "Human"
        },
        "channel" : {
            "id" : 550035283911901184,
            "name" : "staff-chat"
        },
        "channel_mentions" : [],
        "content" : "I can't even see that image ;/",
        "id" : 550399187972259842,
        "mention_everyone" : false,
        "mentions" : [],
        "pinned" : false,
        "role_mentions" : [],
        "timestamp" : "2019-02-27 19:29:52",
        "tts" : false
    },
    {
        "author" : {
            "bot" : false,
            "discriminator" : "1090",
            "display_name" : "Human",
            "id" : 232107009434976258,
            "name" : "Human"
        },
        "channel" : {
            "id" : 550035283911901184,
            "name" : "staff-chat"
        },
        "channel_mentions" : [],
        "content" : ".",
        "id" : 550398928638705666,
        "mention_everyone" : false,
        "mentions" : [],
        "pinned" : false,
        "role_mentions" : [],
        "timestamp" : "2019-02-27 19:28:50",
        "tts" : false
    },
    {
        "author" : {
            "bot" : false,
            "discriminator" : "0026",
            "display_name" : "Kawaii Kun",
            "id" : 540503510614147087,
            "name" : "\udb40\udc00\udb40\udc00\udb40\udc00\udb40\udc00 \udb40\udc00\udb40\udc00\udb40\udc00\udb40\udc00 \udb40\udc00\udb40\udc00"
        },
        "channel" : {
            "id" : 550035283911901184,
            "name" : "staff-chat"
        },
        "channel_mentions" : [],
        "content" : "",
        "id" : 550398816453394437,
        "mention_everyone" : false,
        "mentions" : [],
        "pinned" : false,
        "role_mentions" : [],
        "timestamp" : "2019-02-27 19:28:23",
        "tts" : false
    },
    {
        "author" : {
            "bot" : false,
            "discriminator" : "1090",
            "display_name" : "Human",
            "id" : 232107009434976258,
            "name" : "Human"
        },
        "channel" : {
            "id" : 550035283911901184,
            "name" : "staff-chat"
        },
        "channel_mentions" : [],
        "content" : "Make her fucking apply",
        "id" : 550398749051060224,
        "mention_everyone" : false,
        "mentions" : [],
        "pinned" : false,
        "role_mentions" : [],
        "timestamp" : "2019-02-27 19:28:07",
        "tts" : false
    },
    {
        "author" : {
            "bot" : false,
            "discriminator" : "1090",
            "display_name" : "Human",
            "id" : 232107009434976258,
            "name" : "Human"
        },
        "channel" : {
            "id" : 550035283911901184,
            "name" : "staff-chat"
        },
        "channel_mentions" : [],
        "content" : "I don't care if you know her for two months",
        "id" : 550398703983394841,
        "mention_everyone" : false,
        "mentions" : [],
        "pinned" : false,
        "role_mentions" : [],
        "timestamp" : "2019-02-27 19:27:56",
        "tts" : false
    },
    {
        "author" : {
            "bot" : false,
            "discriminator" : "1090",
            "display_name" : "Human",
            "id" : 232107009434976258,
            "name" : "Human"
        },
        "channel" : {
            "id" : 550035283911901184,
            "name" : "staff-chat"
        },
        "channel_mentions" : [],
        "content" : "She didn't even make a mod application",
        "id" : 550398641194532905,
        "mention_everyone" : false,
        "mentions" : [],
        "pinned" : false,
        "role_mentions" : [],
        "timestamp" : "2019-02-27 19:27:41",
        "tts" : false
    },
    {
        "author" : {
            "bot" : false,
            "discriminator" : "0026",
            "display_name" : "Kawaii Kun",
            "id" : 540503510614147087,
            "name" : "\udb40\udc00\udb40\udc00\udb40\udc00\udb40\udc00 \udb40\udc00\udb40\udc00\udb40\udc00\udb40\udc00 \udb40\udc00\udb40\udc00"
        },
        "channel" : {
            "id" : 550035283911901184,
            "name" : "staff-chat"
        },
        "channel_mentions" : [],
        "content" : "friends for 2 months",
        "id" : 550398626967322628,
        "mention_everyone" : false,
        "mentions" : [],
        "pinned" : false,
        "role_mentions" : [],
        "timestamp" : "2019-02-27 19:27:38",
        "tts" : false
    },
    {
        "author" : {
            "bot" : false,
            "discriminator" : "1090",
            "display_name" : "Human",
            "id" : 232107009434976258,
            "name" : "Human"
        },
        "channel" : {
            "id" : 550035283911901184,
            "name" : "staff-chat"
        },
        "channel_mentions" : [],
        "content" : "And how the fuck do you know her?",
        "id" : 550398582507700224,
        "mention_everyone" : false,
        "mentions" : [],
        "pinned" : false,
        "role_mentions" : [],
        "timestamp" : "2019-02-27 19:27:27",
        "tts" : false
    },
    {
        "author" : {
            "bot" : false,
            "discriminator" : "1090",
            "display_name" : "Human",
            "id" : 232107009434976258,
            "name" : "Human"
        },
        "channel" : {
            "id" : 550035283911901184,
            "name" : "staff-chat"
        },
        "channel_mentions" : [],
        "content" : "Someone would normally deny this",
        "id" : 550398555878195230,
        "mention_everyone" : false,
        "mentions" : [],
        "pinned" : false,
        "role_mentions" : [],
        "timestamp" : "2019-02-27 19:27:21",
        "tts" : false
    },
    {
        "author" : {
            "bot" : false,
            "discriminator" : "0026",
            "display_name" : "Kawaii Kun",
            "id" : 540503510614147087,
            "name" : "\udb40\udc00\udb40\udc00\udb40\udc00\udb40\udc00 \udb40\udc00\udb40\udc00\udb40\udc00\udb40\udc00 \udb40\udc00\udb40\udc00"
        },
        "channel" : {
            "id" : 550035283911901184,
            "name" : "staff-chat"
        },
        "channel_mentions" : [],
        "content" : "Tell them",
        "id" : 550398509522747412,
        "mention_everyone" : false,
        "mentions" : [],
        "pinned" : false,
        "role_mentions" : [],
        "timestamp" : "2019-02-27 19:27:10",
        "tts" : false
    },
    {
        "author" : {
            "bot" : false,
            "discriminator" : "0026",
            "display_name" : "Kawaii Kun",
            "id" : 540503510614147087,
            "name" : "\udb40\udc00\udb40\udc00\udb40\udc00\udb40\udc00 \udb40\udc00\udb40\udc00\udb40\udc00\udb40\udc00 \udb40\udc00\udb40\udc00"
        },
        "channel" : {
            "id" : 550035283911901184,
            "name" : "staff-chat"
        },
        "channel_mentions" : [],
        "content" : "<@!395645722881687566>",
        "id" : 550398494725242880,
        "mention_everyone" : false,
        "mentions" : [
            {
                "bot" : false,
                "discriminator" : "8647",
                "display_name" : "Inori Yuuki",
                "id" : 395645722881687566,
                "name" : "Sweet Yuuki"
            }
        ],
        "pinned" : false,
        "role_mentions" : [],
        "timestamp" : "2019-02-27 19:27:07",
        "tts" : false
    },
    {
        "author" : {
            "bot" : false,
            "discriminator" : "0026",
            "display_name" : "Kawaii Kun",
            "id" : 540503510614147087,
            "name" : "\udb40\udc00\udb40\udc00\udb40\udc00\udb40\udc00 \udb40\udc00\udb40\udc00\udb40\udc00\udb40\udc00 \udb40\udc00\udb40\udc00"
        },
        "channel" : {
            "id" : 550035283911901184,
            "name" : "staff-chat"
        },
        "channel_mentions" : [],
        "content" : "No",
        "id" : 550398478359199760,
        "mention_everyone" : false,
        "mentions" : [],
        "pinned" : false,
        "role_mentions" : [],
        "timestamp" : "2019-02-27 19:27:03",
        "tts" : false
    },
    {
        "author" : {
            "bot" : false,
            "discriminator" : "1090",
            "display_name" : "Human",
            "id" : 232107009434976258,
            "name" : "Human"
        },
        "channel" : {
            "id" : 550035283911901184,
            "name" : "staff-chat"
        },
        "channel_mentions" : [],
        "content" : "Are you fucking flirting with her?",
        "id" : 550398457056329728,
        "mention_everyone" : false,
        "mentions" : [],
        "pinned" : false,
        "role_mentions" : [],
        "timestamp" : "2019-02-27 19:26:58",
        "tts" : false
    },
    {
        "author" : {
            "bot" : false,
            "discriminator" : "0026",
            "display_name" : "Kawaii Kun",
            "id" : 540503510614147087,
            "name" : "\udb40\udc00\udb40\udc00\udb40\udc00\udb40\udc00 \udb40\udc00\udb40\udc00\udb40\udc00\udb40\udc00 \udb40\udc00\udb40\udc00"
        },
        "channel" : {
            "id" : 550035283911901184,
            "name" : "staff-chat"
        },
        "channel_mentions" : [],
        "content" : "?",
        "id" : 550398332200288260,
        "mention_everyone" : false,
        "mentions" : [],
        "pinned" : false,
        "role_mentions" : [],
        "timestamp" : "2019-02-27 19:26:28",
        "tts" : false
    },
    {
        "author" : {
            "bot" : true,
            "discriminator" : "3970",
            "display_name" : "Galaxy",
            "id" : 534468156056535052,
            "name" : "Galaxy"
        },
        "channel" : {
            "id" : 550035283911901184,
            "name" : "staff-chat"
        },
        "channel_mentions" : [],
        "content" : "",
        "id" : 550398302282055687,
        "mention_everyone" : false,
        "mentions" : [],
        "pinned" : false,
        "role_mentions" : [],
        "timestamp" : "2019-02-27 19:26:21",
        "tts" : false
    },
    {
        "author" : {
            "bot" : false,
            "discriminator" : "1090",
            "display_name" : "Human",
            "id" : 232107009434976258,
            "name" : "Human"
        },
        "channel" : {
            "id" : 550035283911901184,
            "name" : "staff-chat"
        },
        "channel_mentions" : [],
        "content" : "<@!540503510614147087>",
        "id" : 550398300927426591,
        "mention_everyone" : false,
        "mentions" : [
            {
                "bot" : false,
                "discriminator" : "0026",
                "display_name" : "Kawaii Kun",
                "id" : 540503510614147087,
                "name" : "\udb40\udc00\udb40\udc00\udb40\udc00\udb40\udc00 \udb40\udc00\udb40\udc00\udb40\udc00\udb40\udc00 \udb40\udc00\udb40\udc00"
            }
        ],
        "pinned" : false,
        "role_mentions" : [],
        "timestamp" : "2019-02-27 19:26:20",
        "tts" : false
    },
    {
        "author" : {
            "bot" : false,
            "discriminator" : "0026",
            "display_name" : "Kawaii Kun",
            "id" : 540503510614147087,
            "name" : "\udb40\udc00\udb40\udc00\udb40\udc00\udb40\udc00 \udb40\udc00\udb40\udc00\udb40\udc00\udb40\udc00 \udb40\udc00\udb40\udc00"
        },
        "channel" : {
            "id" : 550035283911901184,
            "name" : "staff-chat"
        },
        "channel_mentions" : [],
        "content" : "If something Bad goes blame me.",
        "id" : 550398270866718723,
        "mention_everyone" : false,
        "mentions" : [],
        "pinned" : false,
        "role_mentions" : [],
        "timestamp" : "2019-02-27 19:26:13",
        "tts" : false
    },
    {
        "author" : {
            "bot" : false,
            "discriminator" : "0026",
            "display_name" : "Kawaii Kun",
            "id" : 540503510614147087,
            "name" : "\udb40\udc00\udb40\udc00\udb40\udc00\udb40\udc00 \udb40\udc00\udb40\udc00\udb40\udc00\udb40\udc00 \udb40\udc00\udb40\udc00"
        },
        "channel" : {
            "id" : 550035283911901184,
            "name" : "staff-chat"
        },
        "channel_mentions" : [],
        "content" : "<@232107009434976258> Bro!  She doesn't want to put her selfie public.",
        "id" : 550398142927994917,
        "mention_everyone" : false,
        "mentions" : [
            {
                "bot" : false,
                "discriminator" : "1090",
                "display_name" : "Human",
                "id" : 232107009434976258,
                "name" : "Human"
            }
        ],
        "pinned" : false,
        "role_mentions" : [],
        "timestamp" : "2019-02-27 19:25:43",
        "tts" : false
    },
    {
        "author" : {
            "bot" : false,
            "discriminator" : "1090",
            "display_name" : "Human",
            "id" : 232107009434976258,
            "name" : "Human"
        },
        "channel" : {
            "id" : 550035283911901184,
            "name" : "staff-chat"
        },
        "channel_mentions" : [
            {
                "id" : 550323944448589825,
                "name" : "verification-pictures"
            }
        ],
        "content" : "By putting it in <#550323944448589825>",
        "id" : 550397959553024003,
        "mention_everyone" : false,
        "mentions" : [],
        "pinned" : false,
        "role_mentions" : [],
        "timestamp" : "2019-02-27 19:24:59",
        "tts" : false
    },
    {
        "author" : {
            "bot" : false,
            "discriminator" : "1090",
            "display_name" : "Human",
            "id" : 232107009434976258,
            "name" : "Human"
        },
        "channel" : {
            "id" : 550035283911901184,
            "name" : "staff-chat"
        },
        "channel_mentions" : [],
        "content" : "Can you prove it?",
        "id" : 550397927042973697,
        "mention_everyone" : false,
        "mentions" : [],
        "pinned" : false,
        "role_mentions" : [],
        "timestamp" : "2019-02-27 19:24:51",
        "tts" : false
    },
    {
        "author" : {
            "bot" : false,
            "discriminator" : "0636",
            "display_name" : "milk",
            "id" : 489213493103296512,
            "name" : "` ???"
        },
        "channel" : {
            "id" : 550035283911901184,
            "name" : "staff-chat"
        },
        "channel_mentions" : [],
        "content" : "Hii and welcomeeeee",
        "id" : 550397912685871135,
        "mention_everyone" : false,
        "mentions" : [],
        "pinned" : false,
        "role_mentions" : [],
        "timestamp" : "2019-02-27 19:24:48",
        "tts" : false
    },
    {
        "author" : {
            "bot" : false,
            "discriminator" : "5638",
            "display_name" : "Simon Max",
            "id" : 533989850399899665,
            "name" : "JacquesMax"
        },
        "channel" : {
            "id" : 550035283911901184,
            "name" : "staff-chat"
        },
        "channel_mentions" : [],
        "content" : "Welcome <@!395645722881687566> to the team !",
        "id" : 550397872609427477,
        "mention_everyone" : false,
        "mentions" : [
            {
                "bot" : false,
                "discriminator" : "8647",
                "display_name" : "Inori Yuuki",
                "id" : 395645722881687566,
                "name" : "Sweet Yuuki"
            }
        ],
        "pinned" : false,
        "role_mentions" : [],
        "timestamp" : "2019-02-27 19:24:38",
        "tts" : false
    },
    {
        "author" : {
            "bot" : false,
            "discriminator" : "0026",
            "display_name" : "Kawaii Kun",
            "id" : 540503510614147087,
            "name" : "\udb40\udc00\udb40\udc00\udb40\udc00\udb40\udc00 \udb40\udc00\udb40\udc00\udb40\udc00\udb40\udc00 \udb40\udc00\udb40\udc00"
        },
        "channel" : {
            "id" : 550035283911901184,
            "name" : "staff-chat"
        },
        "channel_mentions" : [],
        "content" : "@everyone <@!395645722881687566> Will be our server Mod. Please don't argue with anyone also peace.  Help her out.  \n```diff\n- She's not a catfish\n```",
        "id" : 550397761330085898,
        "mention_everyone" : true,
        "mentions" : [
            {
                "bot" : false,
                "discriminator" : "8647",
                "display_name" : "Inori Yuuki",
                "id" : 395645722881687566,
                "name" : "Sweet Yuuki"
            }
        ],
        "pinned" : false,
        "role_mentions" : [],
        "timestamp" : "2019-02-27 19:24:12",
        "tts" : false
    },
    {
        "author" : {
            "bot" : false,
            "discriminator" : "0026",
            "display_name" : "Kawaii Kun",
            "id" : 540503510614147087,
            "name" : "\udb40\udc00\udb40\udc00\udb40\udc00\udb40\udc00 \udb40\udc00\udb40\udc00\udb40\udc00\udb40\udc00 \udb40\udc00\udb40\udc00"
        },
        "channel" : {
            "id" : 550035283911901184,
            "name" : "staff-chat"
        },
        "channel_mentions" : [],
        "content" : "?",
        "id" : 550248389699436544,
        "mention_everyone" : false,
        "mentions" : [],
        "pinned" : false,
        "role_mentions" : [],
        "timestamp" : "2019-02-27 09:30:39",
        "tts" : false
    },
    {
        "author" : {
            "bot" : true,
            "discriminator" : "4503",
            "display_name" : "Pok\u00e9cord",
            "id" : 365975655608745985,
            "name" : "Pok\u00e9cord"
        },
        "channel" : {
            "id" : 550035283911901184,
            "name" : "staff-chat"
        },
        "channel_mentions" : [],
        "content" : "",
        "id" : 550236722105942035,
        "mention_everyone" : false,
        "mentions" : [],
        "pinned" : false,
        "role_mentions" : [],
        "timestamp" : "2019-02-27 08:44:17",
        "tts" : false
    },
    {
        "author" : {
            "bot" : false,
            "discriminator" : "5638",
            "display_name" : "Simon Max",
            "id" : 533989850399899665,
            "name" : "JacquesMax"
        },
        "channel" : {
            "id" : 550035283911901184,
            "name" : "staff-chat"
        },
        "channel_mentions" : [],
        "content" : "nice",
        "id" : 550236553285337090,
        "mention_everyone" : false,
        "mentions" : [],
        "pinned" : false,
        "role_mentions" : [],
        "timestamp" : "2019-02-27 08:43:37",
        "tts" : false
    },
    {
        "author" : {
            "bot" : false,
            "discriminator" : "5638",
            "display_name" : "Simon Max",
            "id" : 533989850399899665,
            "name" : "JacquesMax"
        },
        "channel" : {
            "id" : 550035283911901184,
            "name" : "staff-chat"
        },
        "channel_mentions" : [],
        "content" : "that channel is a joke",
        "id" : 550235525517410314,
        "mention_everyone" : false,
        "mentions" : [],
        "pinned" : false,
        "role_mentions" : [],
        "timestamp" : "2019-02-27 08:39:32",
        "tts" : false
    },
    {
        "author" : {
            "bot" : false,
            "discriminator" : "5638",
            "display_name" : "Simon Max",
            "id" : 533989850399899665,
            "name" : "JacquesMax"
        },
        "channel" : {
            "id" : 550035283911901184,
            "name" : "staff-chat"
        },
        "channel_mentions" : [
            {
                "id" : 548571593601843200,
                "name" : "commands"
            }
        ],
        "content" : "<@537251149007552514> this channel and <#548571593601843200> are the actual staff chats",
        "id" : 550235489169571841,
        "mention_everyone" : false,
        "mentions" : [],
        "pinned" : false,
        "role_mentions" : [],
        "timestamp" : "2019-02-27 08:39:23",
        "tts" : false
    },
    {
        "author" : {
            "bot" : false,
            "discriminator" : "6173",
            "display_name" : "Archer (CrispyDuck\u2019s Servant)",
            "id" : 526536767550259202,
            "name" : "Enjoy Ice"
        },
        "channel" : {
            "id" : 550035283911901184,
            "name" : "staff-chat"
        },
        "channel_mentions" : [],
        "content" : "Oh",
        "id" : 550077440895090718,
        "mention_everyone" : false,
        "mentions" : [],
        "pinned" : false,
        "role_mentions" : [],
        "timestamp" : "2019-02-26 22:11:21",
        "tts" : false
    },
    {
        "author" : {
            "bot" : false,
            "discriminator" : "9877",
            "display_name" : "panda",
            "id" : 516826373663227908,
            "name" : "Enrique"
        },
        "channel" : {
            "id" : 550035283911901184,
            "name" : "staff-chat"
        },
        "channel_mentions" : [],
        "content" : "Shut up",
        "id" : 550077286787973156,
        "mention_everyone" : false,
        "mentions" : [],
        "pinned" : false,
        "role_mentions" : [],
        "timestamp" : "2019-02-26 22:10:45",
        "tts" : false
    },
    {
        "author" : {
            "bot" : false,
            "discriminator" : "6173",
            "display_name" : "Archer (CrispyDuck\u2019s Servant)",
            "id" : 526536767550259202,
            "name" : "Enjoy Ice"
        },
        "channel" : {
            "id" : 550035283911901184,
            "name" : "staff-chat"
        },
        "channel_mentions" : [],
        "content" : "Oh, shit I can be in here now \ud83d\ude01",
        "id" : 550077038640365579,
        "mention_everyone" : false,
        "mentions" : [],
        "pinned" : false,
        "role_mentions" : [],
        "timestamp" : "2019-02-26 22:09:45",
        "tts" : false
    },
    {
        "author" : {
            "bot" : false,
            "discriminator" : "0026",
            "display_name" : "Kawaii Kun",
            "id" : 540503510614147087,
            "name" : "\udb40\udc00\udb40\udc00\udb40\udc00\udb40\udc00 \udb40\udc00\udb40\udc00\udb40\udc00\udb40\udc00 \udb40\udc00\udb40\udc00"
        },
        "channel" : {
            "id" : 550035283911901184,
            "name" : "staff-chat"
        },
        "channel_mentions" : [],
        "content" : "ty",
        "id" : 550036105781837825,
        "mention_everyone" : false,
        "mentions" : [],
        "pinned" : false,
        "role_mentions" : [],
        "timestamp" : "2019-02-26 19:27:06",
        "tts" : false
    },
    {
        "author" : {
            "bot" : false,
            "discriminator" : "0026",
            "display_name" : "Kawaii Kun",
            "id" : 540503510614147087,
            "name" : "\udb40\udc00\udb40\udc00\udb40\udc00\udb40\udc00 \udb40\udc00\udb40\udc00\udb40\udc00\udb40\udc00 \udb40\udc00\udb40\udc00"
        },
        "channel" : {
            "id" : 550035283911901184,
            "name" : "staff-chat"
        },
        "channel_mentions" : [],
        "content" : "Ok",
        "id" : 550036103600668690,
        "mention_everyone" : false,
        "mentions" : [],
        "pinned" : false,
        "role_mentions" : [],
        "timestamp" : "2019-02-26 19:27:06",
        "tts" : false
    },
    {
        "author" : {
            "bot" : false,
            "discriminator" : "1090",
            "display_name" : "Human",
            "id" : 232107009434976258,
            "name" : "Human"
        },
        "channel" : {
            "id" : 550035283911901184,
            "name" : "staff-chat"
        },
        "channel_mentions" : [],
        "content" : "@Xx_Annika_xX#1348",
        "id" : 550035326970757141,
        "mention_everyone" : false,
        "mentions" : [],
        "pinned" : false,
        "role_mentions" : [],
        "timestamp" : "2019-02-26 19:24:01",
        "tts" : false
    }
]