[
    {
        "author" : {
            "bot" : false,
            "discriminator" : "6315",
            "display_name" : "AlwayzMeShubh",
            "id" : 500497938943049729,
            "name" : "AlwayzMeShubh"
        },
        "channel" : {
            "id" : 549494914518482954,
            "name" : "pro_bumps"
        },
        "channel_mentions" : [],
        "content" : "https://discord.gg/8XAsC7v my friend server, try it @everyone @here",
        "id" : 550525804866437120,
        "mention_everyone" : true,
        "mentions" : [],
        "pinned" : false,
        "role_mentions" : [],
        "timestamp" : "2019-02-28 03:53:00",
        "tts" : false
    },
    {
        "author" : {
            "bot" : false,
            "discriminator" : "6315",
            "display_name" : "AlwayzMeShubh",
            "id" : 500497938943049729,
            "name" : "AlwayzMeShubh"
        },
        "channel" : {
            "id" : 549494914518482954,
            "name" : "pro_bumps"
        },
        "channel_mentions" : [],
        "content" : "https://discord.gg/nSZU3Y7 @everyone",
        "id" : 550146743678009354,
        "mention_everyone" : true,
        "mentions" : [],
        "pinned" : false,
        "role_mentions" : [],
        "timestamp" : "2019-02-27 02:46:44",
        "tts" : false
    },
    {
        "author" : {
            "bot" : false,
            "discriminator" : "6315",
            "display_name" : "AlwayzMeShubh",
            "id" : 500497938943049729,
            "name" : "AlwayzMeShubh"
        },
        "channel" : {
            "id" : 549494914518482954,
            "name" : "pro_bumps"
        },
        "channel_mentions" : [],
        "content" : "@everyone \n\u2605Welcome to The 9th Dimension!\u2605\n\nWe have lots to offer such as;\n-\u02cb\u02cf\u2704\u2508\u2508\u2508\u2508\u2508\u2508\u2508\u2508\u2508\u2508\u2508\u2508\u2508\n\u21e8Helpful staff\n\u21e8Active Community\n\u21e8NSFW Channels\n\u21e8Chill place to hangout\n\u21e8Auto Roles\n\u21e8Drama Free Chatrooms\n\u21e8Multiple bots\n-\u02cb\u02cf\u2704\u2508\u2508\u2508\u2508\u2508\u2508\u2508\u2508\u2508\u2508\u2508\u2508\u2508\n\n\u2605We hope you enjoy your stay at the The 9th Dimension!\u2605\nhttps://discord.gg/DYHVBuc",
        "id" : 549552405469986828,
        "mention_everyone" : true,
        "mentions" : [],
        "pinned" : false,
        "role_mentions" : [],
        "timestamp" : "2019-02-25 11:25:03",
        "tts" : false
    },
    {
        "author" : {
            "bot" : false,
            "discriminator" : "6315",
            "display_name" : "AlwayzMeShubh",
            "id" : 500497938943049729,
            "name" : "AlwayzMeShubh"
        },
        "channel" : {
            "id" : 549494914518482954,
            "name" : "pro_bumps"
        },
        "channel_mentions" : [],
        "content" : "https://discord.gg/HMfXBXz @everyone please join this...my small age friend server :)))",
        "id" : 549547680326615043,
        "mention_everyone" : true,
        "mentions" : [],
        "pinned" : false,
        "role_mentions" : [],
        "timestamp" : "2019-02-25 11:06:17",
        "tts" : false
    }
]