[
    {
        "author" : {
            "bot" : false,
            "discriminator" : "1090",
            "display_name" : "GalaxyHuman",
            "id" : 232107009434976258,
            "name" : "GalaxyHuman"
        },
        "channel" : {
            "id" : 546900968420278272,
            "name" : "\u2757faq"
        },
        "channel_mentions" : [],
        "content" : "https://paste.nexusbot.cf/\nhttps://paste.nexusbot.cf/vps1/",
        "id" : 548589866267443200,
        "mention_everyone" : false,
        "mentions" : [],
        "pinned" : false,
        "role_mentions" : [],
        "timestamp" : "2019-02-22 19:40:16",
        "tts" : false
    },
    {
        "author" : {
            "bot" : false,
            "discriminator" : "1090",
            "display_name" : "GalaxyHuman",
            "id" : 232107009434976258,
            "name" : "GalaxyHuman"
        },
        "channel" : {
            "id" : 546900968420278272,
            "name" : "\u2757faq"
        },
        "channel_mentions" : [],
        "content" : "__**VPS Stats (Live)**__",
        "id" : 548589862513541129,
        "mention_everyone" : false,
        "mentions" : [],
        "pinned" : false,
        "role_mentions" : [],
        "timestamp" : "2019-02-22 19:40:15",
        "tts" : false
    },
    {
        "author" : {
            "bot" : false,
            "discriminator" : "6315",
            "display_name" : "AlwayzMeShubh",
            "id" : 500497938943049729,
            "name" : "AlwayzMeShubh"
        },
        "channel" : {
            "id" : 546900968420278272,
            "name" : "\u2757faq"
        },
        "channel_mentions" : [],
        "content" : "@everyone Server Made In 17th February",
        "id" : 548340846408368128,
        "mention_everyone" : true,
        "mentions" : [],
        "pinned" : false,
        "role_mentions" : [],
        "timestamp" : "2019-02-22 03:10:45",
        "tts" : false
    },
    {
        "author" : {
            "bot" : false,
            "discriminator" : "4791",
            "display_name" : "AlwayzMeLachlan",
            "id" : 95654451179687936,
            "name" : "GalaxyHuman"
        },
        "channel" : {
            "id" : 546900968420278272,
            "name" : "\u2757faq"
        },
        "channel_mentions" : [],
        "content" : "__**Public Server Stats**__\nhttps://yagpdb.xyz/public/546744451926851586/stats",
        "id" : 547624243106676756,
        "mention_everyone" : false,
        "mentions" : [],
        "pinned" : false,
        "role_mentions" : [],
        "timestamp" : "2019-02-20 03:43:13",
        "tts" : false
    },
    {
        "author" : {
            "bot" : false,
            "discriminator" : "4791",
            "display_name" : "AlwayzMeLachlan",
            "id" : 95654451179687936,
            "name" : "GalaxyHuman"
        },
        "channel" : {
            "id" : 546900968420278272,
            "name" : "\u2757faq"
        },
        "channel_mentions" : [],
        "content" : "__**Rankup Mesage**__",
        "id" : 547069500923576330,
        "mention_everyone" : false,
        "mentions" : [],
        "pinned" : false,
        "role_mentions" : [],
        "timestamp" : "2019-02-18 14:58:53",
        "tts" : false
    },
    {
        "author" : {
            "bot" : false,
            "discriminator" : "4791",
            "display_name" : "AlwayzMeLachlan",
            "id" : 95654451179687936,
            "name" : "GalaxyHuman"
        },
        "channel" : {
            "id" : 546900968420278272,
            "name" : "\u2757faq"
        },
        "channel_mentions" : [],
        "content" : "__**Ranking System**__",
        "id" : 547069153001996308,
        "mention_everyone" : false,
        "mentions" : [],
        "pinned" : false,
        "role_mentions" : [],
        "timestamp" : "2019-02-18 14:57:30",
        "tts" : false
    }
]