[
    {
        "author" : {
            "bot" : false,
            "discriminator" : "6315",
            "display_name" : "AlwayzMeShubh",
            "id" : 500497938943049729,
            "name" : "AlwayzMeShubh"
        },
        "channel" : {
            "id" : 546746321730666527,
            "name" : "\u2757offers"
        },
        "channel_mentions" : [],
        "content" : "Click the black spot to see",
        "id" : 549886791243661312,
        "mention_everyone" : false,
        "mentions" : [],
        "pinned" : false,
        "role_mentions" : [],
        "timestamp" : "2019-02-26 09:33:47",
        "tts" : false
    },
    {
        "author" : {
            "bot" : false,
            "discriminator" : "6315",
            "display_name" : "AlwayzMeShubh",
            "id" : 500497938943049729,
            "name" : "AlwayzMeShubh"
        },
        "channel" : {
            "id" : 546746321730666527,
            "name" : "\u2757offers"
        },
        "channel_mentions" : [],
        "content" : "@here [`New Offer`] Create 10 emojis for the server, if you want to agree with the task then dm the server owner, he will send you 10 images, you have to remove it's background and post it in server emojis list\n\nReward: ||Moderator Role|| \ud83d\ude09 \ud83d\ude0f \ud83d\ude01 \ud83d\ude0b",
        "id" : 549886621219028993,
        "mention_everyone" : true,
        "mentions" : [],
        "pinned" : false,
        "role_mentions" : [],
        "timestamp" : "2019-02-26 09:33:06",
        "tts" : false
    },
    {
        "author" : {
            "bot" : false,
            "discriminator" : "6315",
            "display_name" : "AlwayzMeShubh",
            "id" : 500497938943049729,
            "name" : "AlwayzMeShubh"
        },
        "channel" : {
            "id" : 546746321730666527,
            "name" : "\u2757offers"
        },
        "channel_mentions" : [],
        "content" : "@everyone limited time: only 2 weeks.\nExpiry date: 9th March",
        "id" : 549618432929169408,
        "mention_everyone" : true,
        "mentions" : [],
        "pinned" : false,
        "role_mentions" : [],
        "timestamp" : "2019-02-25 15:47:25",
        "tts" : false
    },
    {
        "author" : {
            "bot" : false,
            "discriminator" : "6315",
            "display_name" : "AlwayzMeShubh",
            "id" : 500497938943049729,
            "name" : "AlwayzMeShubh"
        },
        "channel" : {
            "id" : 546746321730666527,
            "name" : "\u2757offers"
        },
        "channel_mentions" : [],
        "content" : "@everyone subscribe this channel and screenshot and dm the proof, a special role will be given to you.",
        "id" : 549608162185969684,
        "mention_everyone" : true,
        "mentions" : [],
        "pinned" : false,
        "role_mentions" : [],
        "timestamp" : "2019-02-25 15:06:37",
        "tts" : false
    },
    {
        "author" : {
            "bot" : false,
            "discriminator" : "6315",
            "display_name" : "AlwayzMeShubh",
            "id" : 500497938943049729,
            "name" : "AlwayzMeShubh"
        },
        "channel" : {
            "id" : 546746321730666527,
            "name" : "\u2757offers"
        },
        "channel_mentions" : [],
        "content" : "https://www.youtube.com/channel/UCBZPtSixE2v2tNZ60W8qwLQ",
        "id" : 549608021622259748,
        "mention_everyone" : false,
        "mentions" : [],
        "pinned" : false,
        "role_mentions" : [],
        "timestamp" : "2019-02-25 15:06:03",
        "tts" : false
    }
]