[
    {
        "author" : {
            "bot" : false,
            "discriminator" : "6315",
            "display_name" : "AlwayzMeShubh",
            "id" : 500497938943049729,
            "name" : "AlwayzMeShubh"
        },
        "channel" : {
            "id" : 546746327640571932,
            "name" : "\u2757polls"
        },
        "channel_mentions" : [],
        "content" : "Do you think we have very less girls, if yes then thumbs up and then I'll invite girls here @everyone",
        "id" : 550501558941515814,
        "mention_everyone" : true,
        "mentions" : [],
        "pinned" : false,
        "role_mentions" : [],
        "timestamp" : "2019-02-28 02:16:39",
        "tts" : false
    },
    {
        "author" : {
            "bot" : false,
            "discriminator" : "6315",
            "display_name" : "AlwayzMeShubh",
            "id" : 500497938943049729,
            "name" : "AlwayzMeShubh"
        },
        "channel" : {
            "id" : 546746327640571932,
            "name" : "\u2757polls"
        },
        "channel_mentions" : [],
        "content" : "How many of you want pet selfies channel? @here",
        "id" : 550289702935330837,
        "mention_everyone" : true,
        "mentions" : [],
        "pinned" : false,
        "role_mentions" : [],
        "timestamp" : "2019-02-27 12:14:49",
        "tts" : false
    },
    {
        "author" : {
            "bot" : false,
            "discriminator" : "6315",
            "display_name" : "AlwayzMeShubh",
            "id" : 500497938943049729,
            "name" : "AlwayzMeShubh"
        },
        "channel" : {
            "id" : 546746327640571932,
            "name" : "\u2757polls"
        },
        "channel_mentions" : [],
        "content" : "Am I giving you guys so many pings or its okay? @here if it's annoying, click on thumbs down",
        "id" : 550204164102422539,
        "mention_everyone" : true,
        "mentions" : [],
        "pinned" : false,
        "role_mentions" : [],
        "timestamp" : "2019-02-27 06:34:55",
        "tts" : false
    },
    {
        "author" : {
            "bot" : false,
            "discriminator" : "6315",
            "display_name" : "AlwayzMeShubh",
            "id" : 500497938943049729,
            "name" : "AlwayzMeShubh"
        },
        "channel" : {
            "id" : 546746327640571932,
            "name" : "\u2757polls"
        },
        "channel_mentions" : [],
        "content" : "Do you want me to continue making new videos on YouTube channel? @here",
        "id" : 549944275756908575,
        "mention_everyone" : true,
        "mentions" : [],
        "pinned" : false,
        "role_mentions" : [],
        "timestamp" : "2019-02-26 13:22:12",
        "tts" : false
    },
    {
        "author" : {
            "bot" : false,
            "discriminator" : "6315",
            "display_name" : "AlwayzMeShubh",
            "id" : 500497938943049729,
            "name" : "AlwayzMeShubh"
        },
        "channel" : {
            "id" : 546746327640571932,
            "name" : "\u2757polls"
        },
        "channel_mentions" : [],
        "content" : "Would you like me to create quotes channel where I will post only the post created by me? @here",
        "id" : 549787777810694144,
        "mention_everyone" : true,
        "mentions" : [],
        "pinned" : false,
        "role_mentions" : [],
        "timestamp" : "2019-02-26 03:00:20",
        "tts" : false
    }
]