[
    {
        "author" : {
            "bot" : false,
            "discriminator" : "6315",
            "display_name" : "AlwayzMeShubh",
            "id" : 500497938943049729,
            "name" : "AlwayzMeShubh"
        },
        "channel" : {
            "id" : 546746327640571932,
            "name" : "\u2757polls"
        },
        "channel_mentions" : [],
        "content" : "Would you like me to create quotes channel where I will post only the post created by me? @here",
        "id" : 549787777810694144,
        "mention_everyone" : true,
        "mentions" : [],
        "pinned" : false,
        "role_mentions" : [],
        "timestamp" : "2019-02-26 03:00:20",
        "tts" : false
    }
]