[
    {
        "author" : {
            "bot" : false,
            "discriminator" : "6315",
            "display_name" : "AlwayzMeShubh",
            "id" : 500497938943049729,
            "name" : "AlwayzMeShubh"
        },
        "channel" : {
            "id" : 547322150709886977,
            "name" : "\u300astaff_tasks\u300b"
        },
        "channel_mentions" : [
            {
                "id" : 546746330467270671,
                "name" : "\u300bchat-rules"
            }
        ],
        "content" : "@everyone[`Requirements For Staff Roles`]\n\n\u00d7 Need To Invite Atleast 10 people in server\n\u00d7 Can have any device for it\n\u00d7 Should be age of 15 or above\n\u00d7 Need to follow every rules\n\n\u00a0[`Requirements for Worker Roles`]\n\n\u00d7 Need To Invite 15+ peoples in server\n\u00d7 Can use any device for it as well\n\u00d7 Should be age of 15+ or above as well\n\u00d7 Need to follow every rules\n\u00d7 Need to complete staff task first\n\n[`Requirements For Moderator Roles`]\n\n\u00d7 No Need To Invite Anyone\n\u00d7 PC or laptop device is compulsory\n\u00d7 Should be age of 17 or above\n\u00d7 No need to complete other task for it\n\u00d7 Should respect everyone and obey laws\n\u00d7 Required Pass Role, read <#546746330467270671> \n\n[`Requirements For Administrators Roles`]\n\n\u00d7 Need To Invite 20+ Peoples\n\u00d7 PC or laptop is compulsory\n\u00d7 Need to have a own discord bot\n\u00d7 Should be age of 16 or above\n\u00d7 Required Pass Role, read <#546746330467270671>",
        "id" : 547324763429928961,
        "mention_everyone" : true,
        "mentions" : [],
        "pinned" : false,
        "role_mentions" : [],
        "timestamp" : "2019-02-19 07:53:12",
        "tts" : false
    }
]