[
    {
        "author" : {
            "bot" : false,
            "discriminator" : "6315",
            "display_name" : "AlwayzMeShubh",
            "id" : 500497938943049729,
            "name" : "AlwayzMeShubh"
        },
        "channel" : {
            "id" : 546746330467270671,
            "name" : "\u300bchat-rules"
        },
        "channel_mentions" : [],
        "content" : "",
        "id" : 547035946495901706,
        "mention_everyone" : false,
        "mentions" : [],
        "pinned" : false,
        "role_mentions" : [],
        "timestamp" : "2019-02-18 12:45:33",
        "tts" : false
    },
    {
        "author" : {
            "bot" : false,
            "discriminator" : "6315",
            "display_name" : "AlwayzMeShubh",
            "id" : 500497938943049729,
            "name" : "AlwayzMeShubh"
        },
        "channel" : {
            "id" : 546746330467270671,
            "name" : "\u300bchat-rules"
        },
        "channel_mentions" : [],
        "content" : "<@&547025931156455434>This is the looks of the role",
        "id" : 547026105329254402,
        "mention_everyone" : false,
        "mentions" : [],
        "pinned" : false,
        "role_mentions" : [
            {
                "id" : 547025931156455434,
                "name" : "\u300a Abuse Pass \u300b"
            }
        ],
        "timestamp" : "2019-02-18 12:06:26",
        "tts" : false
    },
    {
        "author" : {
            "bot" : false,
            "discriminator" : "6315",
            "display_name" : "AlwayzMeShubh",
            "id" : 500497938943049729,
            "name" : "AlwayzMeShubh"
        },
        "channel" : {
            "id" : 546746330467270671,
            "name" : "\u300bchat-rules"
        },
        "channel_mentions" : [],
        "content" : "!! The Words Which Might Cause Ban !!\n\nNigga\nMotherFucker\nFamily Abusive Words\nReligion Abusive Words\nDoxxing Someone\n[ `N pass would also not work to use here`]\n\n!! The Words Which Might Cause Kick !!\n\nExcessive speaking of fuck\nTalking excessive of Sexual convo\nHarassing someone with cheap words\nSaying Word Naked\n[`We support only our pass`]\n\n\u300a `How To Get Pass`\u300b\n\nIf we see you being nice to others constantly and others love you, we will give you a pass role if you dm us for it, please if you be nice to others, we will give you the best honour and we will make sure your life gets less depressive if you are! That's all now you can move to next rules @everyone",
        "id" : 547023528390557711,
        "mention_everyone" : true,
        "mentions" : [],
        "pinned" : false,
        "role_mentions" : [],
        "timestamp" : "2019-02-18 11:56:12",
        "tts" : false
    }
]