[
    {
        "author" : {
            "bot" : false,
            "discriminator" : "6315",
            "display_name" : "AlwayzMeShubh",
            "id" : 500497938943049729,
            "name" : "AlwayzMeShubh"
        },
        "channel" : {
            "id" : 547030598460506112,
            "name" : "\u300bserver-rules"
        },
        "channel_mentions" : [],
        "content" : "@everyone",
        "id" : 547034742332194823,
        "mention_everyone" : true,
        "mentions" : [],
        "pinned" : false,
        "role_mentions" : [],
        "timestamp" : "2019-02-18 12:40:45",
        "tts" : false
    },
    {
        "author" : {
            "bot" : false,
            "discriminator" : "6315",
            "display_name" : "AlwayzMeShubh",
            "id" : 500497938943049729,
            "name" : "AlwayzMeShubh"
        },
        "channel" : {
            "id" : 547030598460506112,
            "name" : "\u300bserver-rules"
        },
        "channel_mentions" : [],
        "content" : "> Main Rules Of The Server. `Read Please`\n\n\u00d7 `No Duplicated Text Allowed` < All channel\n\u00d7 `No Server Invites` < Only on Advertise Ch\n\u00d7 `External Links` < Only Memes And Selfies\n\u00d7 `No Spammed Caps` [ 70% Caps ]\n\u00d7 `No Excessive Emojis` Mostly Nitros\n\u00d7 `No Mass Spoils` < All Channels\n\u00d7 `No Mass Mention` < All Channels\n\nWell, The more you make new words to abuse, we will add it to our bot bad words list which will block those words. So no smart move cause we want you to be family friendly to other.",
        "id" : 547034722916892673,
        "mention_everyone" : false,
        "mentions" : [],
        "pinned" : false,
        "role_mentions" : [],
        "timestamp" : "2019-02-18 12:40:41",
        "tts" : false
    }
]