[
    {
        "author" : {
            "bot" : false,
            "discriminator" : "1090",
            "display_name" : "Human",
            "id" : 232107009434976258,
            "name" : "Human"
        },
        "channel" : {
            "id" : 546746333239836752,
            "name" : "\ud83c\udfa8role_profile"
        },
        "channel_mentions" : [],
        "content" : "__**Guide to Selecting Roles**__\nhttps://gyazo.com/0d3cc37074148a7986b34e22cb0fb896",
        "id" : 551213070199029780,
        "mention_everyone" : false,
        "mentions" : [],
        "pinned" : false,
        "role_mentions" : [],
        "timestamp" : "2019-03-02 01:23:56",
        "tts" : false
    },
    {
        "author" : {
            "bot" : false,
            "discriminator" : "6315",
            "display_name" : "AlwayzMeShubh",
            "id" : 500497938943049729,
            "name" : "AlwayzMeShubh"
        },
        "channel" : {
            "id" : 546746333239836752,
            "name" : "\ud83c\udfa8role_profile"
        },
        "channel_mentions" : [],
        "content" : "[ The rss role is useless...don't use it ]",
        "id" : 550186289857691659,
        "mention_everyone" : false,
        "mentions" : [],
        "pinned" : false,
        "role_mentions" : [],
        "timestamp" : "2019-02-27 05:23:53",
        "tts" : false
    },
    {
        "author" : {
            "bot" : true,
            "discriminator" : "8760",
            "display_name" : "YAGPDB.xyz",
            "id" : 204255221017214977,
            "name" : "YAGPDB.xyz"
        },
        "channel" : {
            "id" : 546746333239836752,
            "name" : "\ud83c\udfa8role_profile"
        },
        "channel_mentions" : [],
        "content" : "**Role Menu: Verify**\nReact to give yourself a role.\n\n\u2764 : `Dating`\n\n\ud83e\udd33 : `Selfies`\n\n\ud83e\udd23 : `NSFW`\n\n\ud83e\udd37 : `RSS Access`",
        "id" : 550185787459895307,
        "mention_everyone" : false,
        "mentions" : [],
        "pinned" : false,
        "role_mentions" : [],
        "timestamp" : "2019-02-27 05:21:53",
        "tts" : false
    },
    {
        "author" : {
            "bot" : true,
            "discriminator" : "8760",
            "display_name" : "YAGPDB.xyz",
            "id" : 204255221017214977,
            "name" : "YAGPDB.xyz"
        },
        "channel" : {
            "id" : 546746333239836752,
            "name" : "\ud83c\udfa8role_profile"
        },
        "channel_mentions" : [],
        "content" : "**Role Menu: Devices**\nReact to give yourself a role.\n\n1\u20e3 : `Android`\n\n2\u20e3 : `IOS`\n\n3\u20e3 : `Xbox`\n\n4\u20e3 : `Computer`\n\n5\u20e3 : `Laptop`",
        "id" : 546865743719825433,
        "mention_everyone" : false,
        "mentions" : [],
        "pinned" : false,
        "role_mentions" : [],
        "timestamp" : "2019-02-18 01:29:13",
        "tts" : false
    },
    {
        "author" : {
            "bot" : true,
            "discriminator" : "8760",
            "display_name" : "YAGPDB.xyz",
            "id" : 204255221017214977,
            "name" : "YAGPDB.xyz"
        },
        "channel" : {
            "id" : 546746333239836752,
            "name" : "\ud83c\udfa8role_profile"
        },
        "channel_mentions" : [],
        "content" : "**Role Menu: Relationship**\nReact to give yourself a role.\n\n1\u20e3 : `Single`\n\n2\u20e3 : `Complicated`\n\n3\u20e3 : `Taken`\n\n4\u20e3 : `Married`\n\n5\u20e3 : `Divorced`",
        "id" : 546865606893371394,
        "mention_everyone" : false,
        "mentions" : [],
        "pinned" : false,
        "role_mentions" : [],
        "timestamp" : "2019-02-18 01:28:40",
        "tts" : false
    },
    {
        "author" : {
            "bot" : true,
            "discriminator" : "8760",
            "display_name" : "YAGPDB.xyz",
            "id" : 204255221017214977,
            "name" : "YAGPDB.xyz"
        },
        "channel" : {
            "id" : 546746333239836752,
            "name" : "\ud83c\udfa8role_profile"
        },
        "channel_mentions" : [],
        "content" : "**Role Menu: Age**\nReact to give yourself a role.\n\n1\u20e3 : `13-15`\n\n2\u20e3 : `16-17`\n\n3\u20e3 : `18+`",
        "id" : 546865278647009290,
        "mention_everyone" : false,
        "mentions" : [],
        "pinned" : false,
        "role_mentions" : [],
        "timestamp" : "2019-02-18 01:27:22",
        "tts" : false
    },
    {
        "author" : {
            "bot" : true,
            "discriminator" : "8760",
            "display_name" : "YAGPDB.xyz",
            "id" : 204255221017214977,
            "name" : "YAGPDB.xyz"
        },
        "channel" : {
            "id" : 546746333239836752,
            "name" : "\ud83c\udfa8role_profile"
        },
        "channel_mentions" : [],
        "content" : "**Role Menu: Gender**\nReact to give yourself a role.\n\n1\u20e3 : `Female`\n\n2\u20e3 : `Male`\n\n3\u20e3 : `NonBinary`\n\n4\u20e3 : `Transgender`",
        "id" : 546865156827906107,
        "mention_everyone" : false,
        "mentions" : [],
        "pinned" : false,
        "role_mentions" : [],
        "timestamp" : "2019-02-18 01:26:53",
        "tts" : false
    }
]