[
    {
        "author" : {
            "bot" : true,
            "discriminator" : "8760",
            "display_name" : "YAGPDB.xyz",
            "id" : 204255221017214977,
            "name" : "YAGPDB.xyz"
        },
        "channel" : {
            "id" : 546746333239836752,
            "name" : "\ud83c\udfa8role_profile"
        },
        "channel_mentions" : [],
        "content" : "**Role Menu: Verify**\nReact to give yourself a role.\n\n1\u20e3 : `Dating`\n\n2\u20e3 : `Selfies`\n\n3\u20e3 : `NSFW`\n\n4\u20e3 : `RSS Access`",
        "id" : 546866006241312799,
        "mention_everyone" : false,
        "mentions" : [],
        "pinned" : false,
        "role_mentions" : [],
        "timestamp" : "2019-02-18 01:30:16",
        "tts" : false
    },
    {
        "author" : {
            "bot" : true,
            "discriminator" : "8760",
            "display_name" : "YAGPDB.xyz",
            "id" : 204255221017214977,
            "name" : "YAGPDB.xyz"
        },
        "channel" : {
            "id" : 546746333239836752,
            "name" : "\ud83c\udfa8role_profile"
        },
        "channel_mentions" : [],
        "content" : "**Role Menu: Devices**\nReact to give yourself a role.\n\n1\u20e3 : `Android`\n\n2\u20e3 : `IOS`\n\n3\u20e3 : `Xbox`\n\n4\u20e3 : `Computer`\n\n5\u20e3 : `Laptop`",
        "id" : 546865743719825433,
        "mention_everyone" : false,
        "mentions" : [],
        "pinned" : false,
        "role_mentions" : [],
        "timestamp" : "2019-02-18 01:29:13",
        "tts" : false
    },
    {
        "author" : {
            "bot" : true,
            "discriminator" : "8760",
            "display_name" : "YAGPDB.xyz",
            "id" : 204255221017214977,
            "name" : "YAGPDB.xyz"
        },
        "channel" : {
            "id" : 546746333239836752,
            "name" : "\ud83c\udfa8role_profile"
        },
        "channel_mentions" : [],
        "content" : "**Role Menu: Relationship**\nReact to give yourself a role.\n\n1\u20e3 : `Single`\n\n2\u20e3 : `Complicated`\n\n3\u20e3 : `Taken`\n\n4\u20e3 : `Married`\n\n5\u20e3 : `Divorced`",
        "id" : 546865606893371394,
        "mention_everyone" : false,
        "mentions" : [],
        "pinned" : false,
        "role_mentions" : [],
        "timestamp" : "2019-02-18 01:28:40",
        "tts" : false
    },
    {
        "author" : {
            "bot" : true,
            "discriminator" : "8760",
            "display_name" : "YAGPDB.xyz",
            "id" : 204255221017214977,
            "name" : "YAGPDB.xyz"
        },
        "channel" : {
            "id" : 546746333239836752,
            "name" : "\ud83c\udfa8role_profile"
        },
        "channel_mentions" : [],
        "content" : "**Role Menu: Age**\nReact to give yourself a role.\n\n1\u20e3 : `13-15`\n\n2\u20e3 : `16-17`\n\n3\u20e3 : `18+`",
        "id" : 546865278647009290,
        "mention_everyone" : false,
        "mentions" : [],
        "pinned" : false,
        "role_mentions" : [],
        "timestamp" : "2019-02-18 01:27:22",
        "tts" : false
    },
    {
        "author" : {
            "bot" : true,
            "discriminator" : "8760",
            "display_name" : "YAGPDB.xyz",
            "id" : 204255221017214977,
            "name" : "YAGPDB.xyz"
        },
        "channel" : {
            "id" : 546746333239836752,
            "name" : "\ud83c\udfa8role_profile"
        },
        "channel_mentions" : [],
        "content" : "**Role Menu: Gender**\nReact to give yourself a role.\n\n1\u20e3 : `Female`\n\n2\u20e3 : `Male`\n\n3\u20e3 : `NonBinary`\n\n4\u20e3 : `Transgender`",
        "id" : 546865156827906107,
        "mention_everyone" : false,
        "mentions" : [],
        "pinned" : false,
        "role_mentions" : [],
        "timestamp" : "2019-02-18 01:26:53",
        "tts" : false
    }
]