[
    {
        "author" : {
            "bot" : false,
            "discriminator" : "6315",
            "display_name" : "AlwayzMeShubh",
            "id" : 500497938943049729,
            "name" : "AlwayzMeShubh"
        },
        "channel" : {
            "id" : 546746335718539274,
            "name" : "\ud83c\udfa8colour_roles"
        },
        "channel_mentions" : [],
        "content" : "[`That Red Heart Emoji In the Second Place Is Useless So No Sense To Click It`] @here",
        "id" : 547041283756130304,
        "mention_everyone" : true,
        "mentions" : [],
        "pinned" : false,
        "role_mentions" : [],
        "timestamp" : "2019-02-18 13:06:45",
        "tts" : false
    },
    {
        "author" : {
            "bot" : true,
            "discriminator" : "8760",
            "display_name" : "YAGPDB.xyz",
            "id" : 204255221017214977,
            "name" : "YAGPDB.xyz"
        },
        "channel" : {
            "id" : 546746335718539274,
            "name" : "\ud83c\udfa8colour_roles"
        },
        "channel_mentions" : [],
        "content" : "**Role Menu: Color Roles**\nReact to give yourself a role.\n\n\ud83d\udda4 : `Black`\n\n\ud83d\udca9 : `Brown`\n\n\ud83d\udc9c : `Purple`\n\n\ud83d\udcd9 : `Orange`\n\n\ud83c\udf32 : `Green`\n\n\ud83d\udc9b : `Yellow`\n\n\ud83d\ude99 : `Blue`\n\n\ud83d\udd34 : `Red`",
        "id" : 547040792208998400,
        "mention_everyone" : false,
        "mentions" : [],
        "pinned" : false,
        "role_mentions" : [],
        "timestamp" : "2019-02-18 13:04:48",
        "tts" : false
    }
]